6.01	0	done
8.3	1	nearby
10.9	1	done
14.3	2	nearby
14.54	2	done
15.6	3	nearby
15.8	3	done
16.94	4	nearby
18.1	4	done
18.87	5	nearby
19.07	5	done
20.04	6	nearby
20.5	6	done
21.54	7	nearby
21.74	7	done
22.77	8	nearby
22.94	8	done
24.04	9	nearby
25.24	9	done
26.14	10	nearby
26.3	10	done
27.27	11	nearby
28.54	11	done
29.14	12	nearby
29.54	12	done
31	13	nearby
32.77	13	done
33.94	14	nearby
36.27	14	done
37.24	15	nearby
38.7	15	done
38.77	16	nearby
40.57	16	done
42.24	17	nearby
42.97	17	done
43.17	18	nearby
45.2	18	done
46.04	19	nearby
47.2	19	done
47.57	20	nearby
47.9	20	done
48.87	21	nearby
50.24	21	done
50.27	22	nearby
52.4	22	done
53	23	nearby
54.74	23	done
55.8	24	nearby
57.37	24	done
59.8	25	nearby
63.54	25	done
67.07	26	nearby
67.17	26	done
70.2	27	nearby
72.6	27	done
75.67	28	nearby
77.94	28	done
86.54	29	nearby
87.37	29	done
89.5	30	nearby
90.77	30	done
94.17	31	nearby
94.44	31	done
97.4	32	nearby
98.24	32	done
101.37	33	nearby
101.67	33	done
104.74	34	nearby
105.44	34	done
107.84	35	nearby
109.74	35	done
