6.01	0	done
10.87	1	nearby
11.84	1	done
16.84	2	nearby
25.44	2	done
27.77	3	nearby
29.47	3	done
30.7	4	nearby
32.94	4	done
33.44	5	nearby
35.04	5	done
35.5	6	nearby
36.5	6	done
37.9	7	nearby
38.94	7	done
39.74	8	nearby
42.54	8	done
42.57	9	nearby
44.14	9	done
45.04	10	nearby
46.34	10	done
46.4	11	nearby
47.47	11	done
48.07	12	nearby
48.77	12	done
50.84	13	nearby
51.3	13	done
53.74	14	nearby
54.37	14	done
55.6	15	nearby
56.24	15	done
57.14	16	nearby
59.07	16	done
59.4	17	nearby
61.14	17	done
61.17	18	nearby
62.2	18	done
62.97	19	nearby
63.57	19	done
64.44	20	nearby
64.9	20	done
65.87	21	nearby
66.7	21	done
68	22	nearby
69.04	22	done
70	23	nearby
71.37	23	done
72.17	24	nearby
72.54	24	done
75.74	25	nearby
76.04	25	done
81.1	26	nearby
84.24	26	done
88.04	27	nearby
88.7	27	done
93.34	28	nearby
95.64	28	done
106.57	29	nearby
107.14	29	done
109.6	30	nearby
111.94	30	done
114.34	31	nearby
115.94	31	done
119.27	32	nearby
119.94	32	done
123.17	33	nearby
124.27	33	done
126.94	34	nearby
127.4	34	done
130.14	35	nearby
137.84	35	done
