6.01	0	done
12.14	1	nearby
14.04	1	done
18.07	2	nearby
20.17	2	done
20.2	3	nearby
52.67	3	done
54	4	nearby
55.24	4	done
55.84	5	nearby
57.8	5	done
57.84	6	nearby
59.1	6	done
59.87	7	nearby
61.6	7	done
61.64	8	nearby
63	8	done
63.94	9	nearby
65.74	9	done
65.77	10	nearby
66.94	10	done
67.97	11	nearby
68.77	11	done
69.47	12	nearby
70.07	12	done
72.4	13	nearby
72.87	13	done
75.07	14	nearby
75.87	14	done
77.24	15	nearby
77.64	15	done
78.97	16	nearby
80.44	16	done
81.2	17	nearby
81.9	17	done
82.84	18	nearby
83.64	18	done
84.74	19	nearby
85.47	19	done
86.57	20	nearby
87.2	20	done
88.4	21	nearby
90	21	done
91.04	22	nearby
91.84	22	done
92.94	23	nearby
93.84	23	done
94.64	24	nearby
95.47	24	done
99.24	25	nearby
100.17	25	done
104.34	26	nearby
105.54	26	done
110.44	27	nearby
111.3	27	done
114.8	28	nearby
115.34	28	done
126.34	29	nearby
127	29	done
130.14	30	nearby
130.64	30	done
133.1	31	nearby
133.97	31	done
136.2	32	nearby
138.6	32	done
140.54	33	nearby
141.67	33	done
144.94	34	nearby
145.34	34	done
150.14	35	nearby
150.8	35	done
