6.01	0	done
10.5	1	nearby
13.34	1	done
17	2	nearby
19.44	2	done
19.47	3	nearby
20.57	3	done
21.67	4	nearby
22.14	4	done
23.27	5	nearby
26.27	5	done
26.47	6	nearby
27.44	6	done
29	7	nearby
29.9	7	done
31.3	8	nearby
32.17	8	done
33.34	9	nearby
33.9	9	done
35.04	10	nearby
36.24	10	done
37.17	11	nearby
38.44	11	done
39.64	12	nearby
40.34	12	done
43.04	13	nearby
43.94	13	done
46.54	14	nearby
47.37	14	done
48.37	15	nearby
49.6	15	done
50.5	16	nearby
50.94	16	done
52	17	nearby
53.77	17	done
54.24	18	nearby
55.14	18	done
56.37	19	nearby
58.87	19	done
58.97	20	nearby
60.27	20	done
61.64	21	nearby
62.84	21	done
63.6	22	nearby
64.2	22	done
65.4	23	nearby
66.4	23	done
67.4	24	nearby
68.24	24	done
72.37	25	nearby
72.87	25	done
77.5	26	nearby
78.84	26	done
82.97	27	nearby
83.64	27	done
87.77	28	nearby
88.54	28	done
98.94	29	nearby
99.44	29	done
102.34	30	nearby
102.74	30	done
105.54	31	nearby
106.14	31	done
109.44	32	nearby
110	32	done
112.77	33	nearby
114.3	33	done
116.47	34	nearby
118.8	34	done
123.17	35	nearby
124.14	35	done
