{
    "timestamp_waypoint": [
        25.3,
        30.74,
        32.3,
        34.64,
        37.6,
        39.3,
        42.0,
        44.7,
        46.7,
        48.04,
        50.3,
        52.5,
        55.67,
        58.37,
        60.97,
        62.7,
        64.24,
        66.54,
        68.7,
        72.7,
        73.87,
        76.04,
        78.77,
        81.1,
        86.67,
        91.5,
        97.14,
        101.6,
        113.04,
        116.47,
        121.07,
        125.24,
        130.04,
        134.14,
        139.34
    ],
    "timestamp_part": [
        25.3,
        81.1,
        101.6,
        113.04,
        139.34
    ],
    "startTime": 25.3,
    "endTime": 139.34
}