6.01	0	done
8.34	1	nearby
11.9	1	done
15.24	2	nearby
16	2	done
16.57	3	nearby
16.94	3	done
17.84	4	nearby
18	4	done
18.84	5	nearby
19.07	5	done
20.1	6	nearby
20.34	6	done
21.34	7	nearby
21.67	7	done
22.57	8	nearby
23.5	8	done
24.37	9	nearby
24.9	9	done
25.84	10	nearby
26.17	10	done
27.17	11	nearby
27.77	11	done
29.1	12	nearby
29.47	12	done
31.07	13	nearby
31.57	13	done
33.44	14	nearby
33.74	14	done
34.8	15	nearby
35.14	15	done
36.04	16	nearby
38.17	16	done
38.6	17	nearby
39.4	17	done
40.47	18	nearby
41.1	18	done
42	19	nearby
42.34	19	done
43.67	20	nearby
44.1	20	done
44.84	21	nearby
45.27	21	done
46.37	22	nearby
48.57	22	done
49.67	23	nearby
49.9	23	done
50.74	24	nearby
51.37	24	done
54.67	25	nearby
55.07	25	done
57.67	26	nearby
58.7	26	done
61.67	27	nearby
62.4	27	done
65.87	28	nearby
68.37	28	done
77.07	29	nearby
77.6	29	done
79.74	30	nearby
81	30	done
83.54	31	nearby
84.57	31	done
86.97	32	nearby
88	32	done
90.47	33	nearby
93.47	33	done
95.5	34	nearby
96.3	34	done
99.47	35	nearby
99.74	35	done
