6.01	0	done
14.77	1	nearby
26.57	1	done
30.24	2	nearby
32.77	2	done
32.84	3	nearby
34.8	3	done
35.67	4	nearby
38.44	4	done
38.54	5	nearby
39.67	5	done
41	6	nearby
41.77	6	done
42.74	7	nearby
43.57	7	done
44.44	8	nearby
45.17	8	done
46.24	9	nearby
46.6	9	done
47.54	10	nearby
47.97	10	done
48.94	11	nearby
49.37	11	done
50.77	12	nearby
51.3	12	done
53.87	13	nearby
55.14	13	done
57.24	14	nearby
57.67	14	done
58.77	15	nearby
59.4	15	done
60.54	16	nearby
61.4	16	done
62.47	17	nearby
63.3	17	done
64.44	18	nearby
65.3	18	done
66.17	19	nearby
66.67	19	done
67.77	20	nearby
68.57	20	done
69.77	21	nearby
70.8	21	done
71.44	22	nearby
72.14	22	done
73.07	23	nearby
73.64	23	done
74.54	24	nearby
75.27	24	done
79.47	25	nearby
80.24	25	done
84.07	26	nearby
85.27	26	done
89.4	27	nearby
90.37	27	done
94.87	28	nearby
95.64	28	done
106.47	29	nearby
107.34	29	done
109.94	30	nearby
110.47	30	done
113.67	31	nearby
114.7	31	done
117.94	32	nearby
119.14	32	done
122.27	33	nearby
122.67	33	done
126.07	34	nearby
126.4	34	done
130.9	35	nearby
131.27	35	done
