6.01	0	done
16.17	1	nearby
18.07	1	done
21.07	2	nearby
21.6	2	done
21.64	3	nearby
23.04	3	done
24.57	4	nearby
29.07	4	done
29.77	5	nearby
30.07	5	done
31.24	6	nearby
32.7	6	done
32.84	7	nearby
34.94	7	done
35	8	nearby
36.67	8	done
38.34	9	nearby
38.7	9	done
39.54	10	nearby
40.64	10	done
41.44	11	nearby
42	11	done
42.1	12	nearby
43.67	12	done
45.17	13	nearby
45.3	13	done
46.9	14	nearby
47.17	14	done
48.34	15	nearby
48.5	15	done
50.74	16	nearby
52.04	16	done
52.07	17	nearby
53.97	17	done
55.04	18	nearby
55.64	18	done
55.74	19	nearby
57.14	19	done
57.34	20	nearby
58.74	20	done
58.84	21	nearby
60.47	21	done
60.54	22	nearby
62	22	done
62.37	23	nearby
65.4	23	done
65.44	24	nearby
66.07	24	done
69	25	nearby
70.24	25	done
74.9	26	nearby
75.9	26	done
78.54	27	nearby
80.5	27	done
83.44	28	nearby
84.34	28	done
93.07	29	nearby
94.44	29	done
96.8	30	nearby
97.74	30	done
99.57	31	nearby
101.14	31	done
104.2	32	nearby
104.37	32	done
106.8	33	nearby
107.5	33	done
110.13	34	nearby
110.8	34	done
113.27	35	nearby
115.04	35	done
