6.01	0	done
10.3	1	nearby
12.84	1	done
16.1	2	nearby
16.7	2	done
17.47	3	nearby
18.87	3	done
19.54	4	nearby
19.9	4	done
20.3	5	nearby
21.1	5	done
22.24	6	nearby
22.54	6	done
23.64	7	nearby
25.04	7	done
25.67	8	nearby
25.97	8	done
27	9	nearby
27.47	9	done
28.34	10	nearby
28.84	10	done
29.7	11	nearby
30	11	done
31.04	12	nearby
31.24	12	done
33.4	13	nearby
34.04	13	done
35.97	14	nearby
37.4	14	done
38.67	15	nearby
38.97	15	done
39.8	16	nearby
40.1	16	done
41.17	17	nearby
42.24	17	done
42.97	18	nearby
43.34	18	done
44.4	19	nearby
45.64	19	done
45.9	20	nearby
47.7	20	done
47.94	21	nearby
48.74	21	done
49.64	22	nearby
49.94	22	done
66.44	23	nearby
68.87	23	done
69.9	24	nearby
70.4	24	done
72.97	25	nearby
74.67	25	done
77.8	26	nearby
78.67	26	done
82.17	27	nearby
82.97	27	done
85.27	28	nearby
86.27	28	done
95.17	29	nearby
95.7	29	done
98.07	30	nearby
100.64	30	done
103.34	31	nearby
104.24	31	done
106.4	32	nearby
107.74	32	done
110.6	33	nearby
110.6	33	done
114.04	34	nearby
114.04	34	done
116.44	35	nearby
