6.01	0	done
10.47	1	nearby
14.74	1	done
18.67	2	nearby
28.94	2	done
30.17	3	nearby
31.2	3	done
32.74	4	nearby
34.64	4	done
35.34	5	nearby
36.17	5	done
37.27	6	nearby
41	6	done
41.17	7	nearby
42.17	7	done
43.3	8	nearby
43.64	8	done
44.77	9	nearby
45.9	9	done
46.57	10	nearby
47.9	10	done
48.4	11	nearby
49.4	11	done
50.27	12	nearby
50.87	12	done
53.14	13	nearby
54.2	13	done
56.9	14	nearby
57.77	14	done
58.77	15	nearby
60.34	15	done
61.14	16	nearby
63.37	16	done
63.44	17	nearby
64.8	17	done
65.87	18	nearby
66.84	18	done
68.07	19	nearby
68.97	19	done
70.07	20	nearby
70.87	20	done
71.84	21	nearby
72.54	21	done
73.94	22	nearby
76.07	22	done
77.04	23	nearby
78.4	23	done
79.2	24	nearby
79.64	24	done
83.9	25	nearby
86.7	25	done
90.9	26	nearby
93.34	26	done
97.24	27	nearby
98.2	27	done
102.37	28	nearby
102.9	28	done
113.2	29	nearby
113.9	29	done
117	30	nearby
118.17	30	done
120.39	31	nearby
122.1	31	done
125.2	32	nearby
125.64	32	done
128.9	33	nearby
130.4	33	done
132.79	34	nearby
134.6	34	done
138.07	35	nearby
138.6	35	done
