6.01	0	done
10.8	1	nearby
11.74	1	done
15.9	2	nearby
16.34	2	done
17.4	3	nearby
18.24	3	done
19.57	4	nearby
20.5	4	done
21.3	5	nearby
22.77	5	done
23.84	6	nearby
25	6	done
26.5	7	nearby
27.6	7	done
28.74	8	nearby
29.97	8	done
30.9	9	nearby
31.67	9	done
32.77	10	nearby
34.07	10	done
34.97	11	nearby
35.8	11	done
37.17	12	nearby
37.77	12	done
40.47	13	nearby
40.9	13	done
43.2	14	nearby
44.03	14	done
45.24	15	nearby
45.84	15	done
46.84	16	nearby
47.57	16	done
48.8	17	nearby
49.37	17	done
50.54	18	nearby
51.5	18	done
52.8	19	nearby
53.5	19	done
54.7	20	nearby
56.4	20	done
56.67	21	nearby
57.67	21	done
58.64	22	nearby
59.07	22	done
60.07	23	nearby
61.67	23	done
62.1	24	nearby
62.74	24	done
66.4	25	nearby
67.4	25	done
71.47	26	nearby
72.64	26	done
76.37	27	nearby
77.97	27	done
81.64	28	nearby
82.87	28	done
93.57	29	nearby
94.47	29	done
96.94	30	nearby
97.67	30	done
100.3	31	nearby
101.87	31	done
104.04	32	nearby
105.17	32	done
107.84	33	nearby
116	33	done
118.94	34	nearby
119.64	34	done
124.2	35	nearby
125.07	35	done
