6.01	0	done
8.57	1	nearby
10.07	1	done
16.04	2	nearby
16.47	2	done
16.77	3	nearby
18.94	3	done
19.94	4	nearby
21.87	4	done
21.94	5	nearby
24.07	5	done
25.34	6	nearby
25.87	6	done
27.14	7	nearby
28.34	7	done
29.04	8	nearby
29.3	8	done
30.44	9	nearby
31.87	9	done
32.64	10	nearby
34.37	10	done
34.47	11	nearby
35.24	11	done
36.37	12	nearby
37.5	12	done
40	13	nearby
41.17	13	done
43.54	14	nearby
43.9	14	done
45.14	15	nearby
45.9	15	done
46.9	16	nearby
47.5	16	done
48.44	17	nearby
49.37	17	done
50.34	18	nearby
50.84	18	done
52.04	19	nearby
53.8	19	done
54.27	20	nearby
54.9	20	done
56.04	21	nearby
57.24	21	done
58.24	22	nearby
59.4	22	done
60.77	23	nearby
61	23	done
61.84	24	nearby
62.6	24	done
66.47	25	nearby
67	25	done
71.14	26	nearby
72.1	26	done
76.17	27	nearby
78.1	27	done
81.9	28	nearby
82.97	28	done
93.44	29	nearby
96.1	29	done
98.54	30	nearby
99.34	30	done
102.7	31	nearby
103.6	31	done
106.64	32	nearby
107.87	32	done
110.3	33	nearby
113.27	33	done
116.6	34	nearby
118.97	34	done
123.47	35	nearby
123.8	35	done
