6.01	0	done
11.4	1	nearby
12.17	1	done
16.1	2	nearby
17.5	2	done
18.47	3	nearby
19.04	3	done
20.6	4	nearby
22.2	4	done
23.1	5	nearby
24.6	5	done
25.8	6	nearby
26.9	6	done
27.57	7	nearby
29.04	7	done
29.6	8	nearby
30.24	8	done
31.54	9	nearby
32.6	9	done
33.67	10	nearby
34.87	10	done
35.64	11	nearby
37.3	11	done
38.1	12	nearby
38.8	12	done
41.64	13	nearby
43.64	13	done
45.8	14	nearby
46.34	14	done
47.47	15	nearby
48.3	15	done
49.2	16	nearby
49.9	16	done
50.97	17	nearby
53.44	17	done
54.47	18	nearby
55.07	18	done
56.14	19	nearby
56.47	19	done
57.57	20	nearby
58.1	20	done
59.34	21	nearby
60.54	21	done
61.57	22	nearby
61.8	22	done
63.04	23	nearby
64.27	23	done
64.87	24	nearby
65.64	24	done
69.44	25	nearby
72.27	25	done
76.37	26	nearby
77.77	26	done
81.84	27	nearby
82.57	27	done
86.3	28	nearby
86.37	28	done
97.1	29	nearby
97.37	29	done
100.27	30	nearby
101.17	30	done
104.44	31	nearby
107.27	31	done
109.24	32	nearby
110.7	32	done
113.5	33	nearby
115.57	33	done
118.64	34	nearby
119.7	34	done
124.54	35	nearby
125.37	35	done
