6.01	0	done
13.5	1	nearby
14.94	1	done
18.7	2	nearby
18.94	2	done
19.54	3	nearby
22.14	3	done
23.14	4	nearby
23.8	4	done
25	5	nearby
26.3	5	done
27.54	6	nearby
27.87	6	done
29.37	7	nearby
30.3	7	done
31.3	8	nearby
32.34	8	done
33.47	9	nearby
34.17	9	done
35.34	10	nearby
36.44	10	done
37.64	11	nearby
38.17	11	done
39.44	12	nearby
40.04	12	done
42.44	13	nearby
42.6	13	done
45.24	14	nearby
45.57	14	done
47	15	nearby
47.27	15	done
48.57	16	nearby
48.77	16	done
50.14	17	nearby
50.64	17	done
51.9	18	nearby
52.4	18	done
53.54	19	nearby
55.04	19	done
55.29	20	nearby
57	20	done
57.67	21	nearby
59.17	21	done
59.34	22	nearby
61.3	22	done
62.3	23	nearby
63.77	23	done
63.84	24	nearby
64.84	24	done
68.74	25	nearby
71.9	25	done
76.17	26	nearby
76.47	26	done
81	27	nearby
81.74	27	done
84.9	28	nearby
86.04	28	done
97	29	nearby
97.87	29	done
100.84	30	nearby
102.37	30	done
105.94	31	nearby
106.84	31	done
109.57	32	nearby
110.64	32	done
112.47	33	nearby
114.04	33	done
117.64	34	nearby
119.44	34	done
123.7	35	nearby
125.74	35	done
