6.01	0	done
13.17	1	nearby
14.37	1	done
17.97	2	nearby
19	2	done
21.44	3	nearby
24.14	3	done
25.3	4	nearby
27.2	4	done
27.27	5	nearby
30.04	5	done
30.17	6	nearby
32.5	6	done
33.44	7	nearby
34.8	7	done
35.84	8	nearby
36.5	8	done
37.9	9	nearby
39.07	9	done
40.04	10	nearby
41.27	10	done
41.8	11	nearby
44.04	11	done
44.1	12	nearby
45.37	12	done
47.6	13	nearby
48.27	13	done
50.37	14	nearby
51.04	14	done
52.2	15	nearby
54.84	15	done
55.14	16	nearby
56.94	16	done
57.74	17	nearby
58.14	17	done
59.37	18	nearby
60.7	18	done
61.77	19	nearby
63.34	19	done
63.7	20	nearby
65.94	20	done
66.34	21	nearby
67.3	21	done
68.2	22	nearby
69	22	done
69.94	23	nearby
70.94	23	done
71.54	24	nearby
71.9	24	done
75.1	25	nearby
76.5	25	done
81.14	26	nearby
82.9	26	done
86.24	27	nearby
88.17	27	done
93.37	28	nearby
95.37	28	done
105.97	29	nearby
106.64	29	done
109.44	30	nearby
111.1	30	done
114	31	nearby
115.24	31	done
117.94	32	nearby
119.24	32	done
122.17	33	nearby
123.5	33	done
126.54	34	nearby
128.04	34	done
131.94	35	nearby
132.17	35	done
