6.01	0	done
10.57	1	nearby
25.9	1	done
30.54	2	nearby
33.37	2	done
34.4	3	nearby
34.9	3	done
36.2	4	nearby
38.97	4	done
39.04	5	nearby
40.2	5	done
41.4	6	nearby
42.3	6	done
44	7	nearby
44.7	7	done
45.94	8	nearby
46.74	8	done
47.74	9	nearby
48.34	9	done
49.24	10	nearby
50.37	10	done
51.4	11	nearby
53.34	11	done
54.54	12	nearby
56.37	12	done
58.34	13	nearby
58.9	13	done
61.34	14	nearby
61.94	14	done
62.97	15	nearby
63.57	15	done
64.67	16	nearby
65.2	16	done
66.27	17	nearby
67.04	17	done
68	18	nearby
68.7	18	done
69.7	19	nearby
70.7	19	done
71.8	20	nearby
72.17	20	done
73.17	21	nearby
74.07	21	done
74.84	22	nearby
75.6	22	done
77.6	23	nearby
79.07	23	done
79.1	24	nearby
80.07	24	done
83.94	25	nearby
85.2	25	done
89.24	26	nearby
90.8	26	done
95.07	27	nearby
95.9	27	done
100.37	28	nearby
102.07	28	done
111.8	29	nearby
112.7	29	done
115.97	30	nearby
118.2	30	done
121.1	31	nearby
121.57	31	done
124.84	32	nearby
125.94	32	done
128.54	33	nearby
129.77	33	done
132.7	34	nearby
133.1	34	done
136.6	35	nearby
136.94	35	done
