6.01	0	done
11.9	1	nearby
24.6	1	done
28.24	2	nearby
30.44	2	done
30.67	3	nearby
33.14	3	done
34.4	4	nearby
35.47	4	done
35.57	5	nearby
39.04	5	done
39.1	6	nearby
41.34	6	done
42.5	7	nearby
43.27	7	done
44.34	8	nearby
44.77	8	done
45.8	9	nearby
47.4	9	done
47.54	10	nearby
50.07	10	done
50.47	11	nearby
51.14	11	done
52.04	12	nearby
52.77	12	done
55.04	13	nearby
55.54	13	done
57.67	14	nearby
58.8	14	done
59.8	15	nearby
61.54	15	done
61.94	16	nearby
62.5	16	done
63.6	17	nearby
65.1	17	done
65.97	18	nearby
66.47	18	done
67.54	19	nearby
68.57	19	done
69.54	20	nearby
69.9	20	done
71	21	nearby
71.67	21	done
73.4	22	nearby
74.44	22	done
75.84	23	nearby
76.74	23	done
76.77	24	nearby
77.5	24	done
81.47	25	nearby
82.3	25	done
86.24	26	nearby
87.84	26	done
91.97	27	nearby
92.9	27	done
97.4	28	nearby
97.94	28	done
108.5	29	nearby
109.5	29	done
112.14	30	nearby
115.17	30	done
118.44	31	nearby
118.9	31	done
121.87	32	nearby
122.64	32	done
126.07	33	nearby
128.8	33	done
131	34	nearby
131.84	34	done
135.3	35	nearby
138.47	35	done
