6.01	0	done
13.14	1	nearby
14.04	1	done
17.94	2	nearby
18.2	2	done
19.34	3	nearby
20.84	3	done
22.1	4	nearby
24.3	4	done
25.47	5	nearby
27	5	done
27.57	6	nearby
28.17	6	done
29.24	7	nearby
30.8	7	done
31.44	8	nearby
32.64	8	done
33.87	9	nearby
35.37	9	done
36.4	10	nearby
38.17	10	done
38.54	11	nearby
40.37	11	done
41.2	12	nearby
41.94	12	done
44.1	13	nearby
44.5	13	done
46.64	14	nearby
47.3	14	done
48.54	15	nearby
49.97	15	done
50.27	16	nearby
51.24	16	done
52.1	17	nearby
53.94	17	done
54.24	18	nearby
55.14	18	done
56.77	19	nearby
57.7	19	done
58.47	20	nearby
60.44	20	done
61.04	21	nearby
63.24	21	done
63.67	22	nearby
66.2	22	done
66.7	23	nearby
66.84	23	done
67.87	24	nearby
68.57	24	done
72.17	25	nearby
72.5	25	done
78.07	26	nearby
78.67	26	done
83.17	27	nearby
84.97	27	done
88.34	28	nearby
90.44	28	done
101	29	nearby
102.74	29	done
105.34	30	nearby
106.44	30	done
108.54	31	nearby
110.47	31	done
113.04	32	nearby
113.94	32	done
116.97	33	nearby
118.6	33	done
122.07	34	nearby
124.6	34	done
128.67	35	nearby
128.97	35	done
