6.01	0	done
15.6	1	nearby
17.07	1	done
20.44	2	nearby
23.7	2	done
24.84	3	nearby
26.84	3	done
28.04	4	nearby
30.04	4	done
30.94	5	nearby
32.17	5	done
33.2	6	nearby
34.47	6	done
35.44	7	nearby
36.27	7	done
37.44	8	nearby
38.64	8	done
39.57	9	nearby
40.87	9	done
41.8	10	nearby
42.34	10	done
43.47	11	nearby
44.14	11	done
45.34	12	nearby
47.17	12	done
49.34	13	nearby
49.67	13	done
52.37	14	nearby
54.8	14	done
55.9	15	nearby
56.44	15	done
57.77	16	nearby
59.27	16	done
59.6	17	nearby
59.84	17	done
61.2	18	nearby
61.97	18	done
63.14	19	nearby
63.44	19	done
64.8	20	nearby
66.74	20	done
66.84	21	nearby
68.4	21	done
69.84	22	nearby
70.24	22	done
71.4	23	nearby
73.54	23	done
73.6	24	nearby
75.44	24	done
78.6	25	nearby
82.7	25	done
87.14	26	nearby
89	26	done
93.27	27	nearby
94.17	27	done
97.97	28	nearby
98.07	28	done
108.5	29	nearby
118.5	29	done
122.77	30	nearby
123.77	30	done
126.74	31	nearby
128.57	31	done
131.14	32	nearby
131.77	32	done
134.8	33	nearby
135.77	33	done
138.6	34	nearby
138.8	34	done
142.24	35	nearby
144.17	35	done
