{
    "timestamp_waypoint": [
        13.54,
        19.17,
        23.27,
        26.87,
        28.94,
        31.77,
        34.04,
        36.34,
        38.9,
        41.14,
        43.57,
        46.04,
        48.64,
        51.84,
        54.37,
        56.24,
        58.14,
        61.0,
        63.54,
        64.24,
        66.84,
        68.24,
        70.44,
        72.14,
        76.24,
        82.6,
        87.7,
        92.7,
        104.6,
        108.3,
        111.37,
        115.44,
        118.74,
        124.3,
        128.84
    ],
    "timestamp_part": [
        13.54,
        72.14,
        92.7,
        104.6,
        128.84
    ],
    "startTime": 13.54,
    "endTime": 128.84
}