6.01	0	done
6.84	1	nearby
7.37	1	done
12.04	2	nearby
12.24	2	done
13.54	3	nearby
14.6	3	done
16.07	4	nearby
17.24	4	done
17.27	5	nearby
18.7	5	done
19.5	6	nearby
19.74	6	done
20.8	7	nearby
21.9	7	done
23.14	8	nearby
23.34	8	done
24.47	9	nearby
25.7	9	done
26.8	10	nearby
27.14	10	done
28.14	11	nearby
29.54	11	done
30.5	12	nearby
30.77	12	done
33.14	13	nearby
34.24	13	done
36.74	14	nearby
37.04	14	done
39.2	15	nearby
39.64	15	done
40.74	16	nearby
41.77	16	done
42.97	17	nearby
43.2	17	done
44.3	18	nearby
45.34	18	done
46.5	19	nearby
46.74	19	done
47.9	20	nearby
48.94	20	done
50.04	21	nearby
50.54	21	done
51.84	22	nearby
52.9	22	done
54	23	nearby
54.4	23	done
55.64	24	nearby
57.2	24	done
60.57	25	nearby
61.44	25	done
66	26	nearby
67.44	26	done
71.64	27	nearby
73	27	done
76.6	28	nearby
78.57	28	done
88.44	29	nearby
89.5	29	done
92.14	30	nearby
94.4	30	done
97.07	31	nearby
98.2	31	done
100.77	32	nearby
101.9	32	done
104.27	33	nearby
105.5	33	done
107.94	34	nearby
110.44	34	done
114.07	35	nearby
115.14	35	done
