{
    "timestamp_waypoint": [
        59.64,
        64.04,
        65.94,
        67.54,
        70.17,
        71.77,
        73.3,
        75.64,
        77.17,
        79.8,
        81.44,
        83.84,
        87.04,
        89.37,
        91.47,
        93.34,
        94.84,
        96.27,
        98.34,
        99.87,
        101.4,
        103.3,
        105.87,
        107.27,
        112.27,
        116.8,
        122.44,
        127.17,
        138.14,
        141.9,
        149.27,
        153.27,
        158.74,
        162.64,
        167.4
    ],
    "timestamp_part": [
        59.64,
        107.27,
        127.17,
        138.14,
        167.4
    ],
    "startTime": 59.64,
    "endTime": 167.4
}