{
    "timestamp_waypoint": [
        13.67,
        19.87,
        30.9,
        33.44,
        36.44,
        39.0,
        40.9,
        42.94,
        46.27,
        47.5,
        48.94,
        50.83,
        53.54,
        56.77,
        58.07,
        60.04,
        63.2,
        64.97,
        67.24,
        68.94,
        70.4,
        73.0,
        75.17,
        76.34,
        81.34,
        86.57,
        91.9,
        96.44,
        107.57,
        111.1,
        114.47,
        120.24,
        123.37,
        127.0,
        131.77
    ],
    "timestamp_part": [
        13.67,
        76.34,
        96.44,
        107.57,
        131.77
    ],
    "startTime": 13.67,
    "endTime": 131.77
}