6.01	0	done
11.14	1	nearby
16.74	1	done
19.47	2	nearby
20.44	2	done
20.74	3	nearby
21.77	3	done
22.57	4	nearby
23.27	4	done
24.27	5	nearby
25.67	5	done
25.7	6	nearby
27.24	6	done
27.3	7	nearby
29.37	7	done
29.44	8	nearby
31.47	8	done
31.64	9	nearby
33.94	9	done
33.97	10	nearby
35.04	10	done
35.97	11	nearby
37.87	11	done
38.14	12	nearby
39.04	12	done
40.97	13	nearby
41.34	13	done
42.9	14	nearby
43.4	14	done
44.4	15	nearby
45.17	15	done
45.8	16	nearby
46.57	16	done
47.2	17	nearby
47.57	17	done
48.34	18	nearby
49.14	18	done
49.87	19	nearby
50.14	19	done
51.04	20	nearby
51.44	20	done
52.44	21	nearby
53.87	21	done
54.04	22	nearby
54.74	22	done
55.84	23	nearby
58.2	23	done
58.97	24	nearby
59.54	24	done
62.24	25	nearby
62.97	25	done
68.04	26	nearby
68.4	26	done
71.2	27	nearby
71.57	27	done
74.4	28	nearby
75.74	28	done
84.17	29	nearby
84.74	29	done
87.27	30	nearby
88.94	30	done
91.3	31	nearby
92	31	done
94.9	32	nearby
96	32	done
98.7	33	nearby
98.87	33	done
101.67	34	nearby
102.67	34	done
105.37	35	nearby
107.54	35	done
