{
    "timestamp_waypoint": [
        10.74,
        15.64,
        17.67,
        19.04,
        21.34,
        23.4,
        25.3,
        27.5,
        28.87,
        30.9,
        32.54,
        34.37,
        37.77,
        41.24,
        42.7,
        46.14,
        47.37,
        48.84,
        50.77,
        52.37,
        54.7,
        58.54,
        61.14,
        62.2,
        66.8,
        71.94,
        77.14,
        82.17,
        93.34,
        97.84,
        102.1,
        106.47,
        109.5,
        113.74,
        119.14
    ],
    "timestamp_part": [
        10.74,
        62.2,
        82.17,
        93.34,
        119.14
    ],
    "startTime": 10.74,
    "endTime": 119.14
}