{
    "timestamp_waypoint": [
        10.77,
        16.94,
        18.8,
        21.07,
        22.7,
        24.74,
        27.24,
        28.84,
        30.54,
        32.6,
        34.64,
        36.57,
        39.84,
        42.57,
        44.14,
        46.87,
        48.1,
        50.04,
        53.0,
        54.54,
        56.47,
        57.87,
        59.27,
        62.4,
        67.6,
        72.67,
        77.94,
        83.1,
        94.3,
        99.4,
        105.44,
        108.94,
        113.87,
        119.17,
        123.97
    ],
    "timestamp_part": [
        10.77,
        62.4,
        83.1,
        94.3,
        123.97
    ],
    "startTime": 10.77,
    "endTime": 123.97
}