{
    "timestamp_waypoint": [
        20.24,
        25.24,
        26.34,
        28.54,
        30.34,
        32.34,
        34.5,
        36.2,
        38.27,
        40.54,
        43.2,
        44.4,
        47.14,
        50.24,
        51.87,
        53.54,
        55.6,
        57.67,
        59.54,
        64.34,
        65.8,
        69.24,
        72.27,
        73.4,
        78.04,
        83.34,
        89.07,
        93.5,
        105.6,
        109.8,
        114.47,
        119.7,
        125.24,
        128.94,
        133.54
    ],
    "timestamp_part": [
        20.24,
        73.4,
        93.5,
        105.6,
        133.54
    ],
    "startTime": 20.24,
    "endTime": 133.54
}