6.01	0	done
11.17	1	nearby
19.1	1	done
23.04	2	nearby
24.2	2	done
25.4	3	nearby
27.9	3	done
29.4	4	nearby
31.47	4	done
32.17	5	nearby
33.14	5	done
34.9	6	nearby
35.54	6	done
36.74	7	nearby
39.34	7	done
40.04	8	nearby
41.1	8	done
42.14	9	nearby
42.6	9	done
43.8	10	nearby
44.7	10	done
45.47	11	nearby
46.64	11	done
47.6	12	nearby
48.04	12	done
50.24	13	nearby
50.74	13	done
53.14	14	nearby
53.94	14	done
55	15	nearby
55.44	15	done
56.47	16	nearby
57.24	16	done
58.37	17	nearby
59.3	17	done
60.1	18	nearby
60.97	18	done
62.07	19	nearby
62.6	19	done
63.97	20	nearby
65	20	done
66.14	21	nearby
67.5	21	done
68.27	22	nearby
68.77	22	done
69.84	23	nearby
71.7	23	done
72.17	24	nearby
72.57	24	done
76.14	25	nearby
80.4	25	done
84.6	26	nearby
85.54	26	done
89.5	27	nearby
89.9	27	done
93.37	28	nearby
93.6	28	done
104.47	29	nearby
105.54	29	done
108.57	30	nearby
109	30	done
111.87	31	nearby
112.2	31	done
115.74	32	nearby
116.4	32	done
119.3	33	nearby
119.64	33	done
122.44	34	nearby
123.37	34	done
127.34	35	nearby
128.77	35	done
