{
    "timestamp_waypoint": [
        11.44,
        16.5,
        18.24,
        19.8,
        22.4,
        24.67,
        26.5,
        28.54,
        30.14,
        32.04,
        34.37,
        36.14,
        39.57,
        42.87,
        46.37,
        48.5,
        49.57,
        51.6,
        53.24,
        55.07,
        57.0,
        59.24,
        61.34,
        62.54,
        67.1,
        72.57,
        77.77,
        82.6,
        94.14,
        98.5,
        102.94,
        109.9,
        114.07,
        117.57,
        123.24
    ],
    "timestamp_part": [
        11.44,
        62.54,
        82.6,
        94.14,
        123.24
    ],
    "startTime": 11.44,
    "endTime": 123.24
}