6.01	0	done
10.8	1	nearby
11.8	1	done
17.7	2	nearby
17.94	2	done
19.07	3	nearby
20.9	3	done
22.6	4	nearby
24.27	4	done
25.34	5	nearby
26.24	5	done
27.4	6	nearby
28.14	6	done
29.6	7	nearby
30.1	7	done
31.4	8	nearby
31.7	8	done
32.04	9	nearby
32.7	9	done
33.6	10	nearby
35.4	10	done
35.44	11	nearby
37.47	11	done
38.54	12	nearby
39	12	done
41.9	13	nearby
42.74	13	done
45.67	14	nearby
46.2	14	done
47.44	15	nearby
50.04	15	done
50.87	16	nearby
51.8	16	done
53.07	17	nearby
53.34	17	done
54.57	18	nearby
55.47	18	done
56.74	19	nearby
57.17	19	done
59.04	20	nearby
59.44	20	done
61	21	nearby
61.5	21	done
62.64	22	nearby
64.77	22	done
65.44	23	nearby
65.67	23	done
66.74	24	nearby
68	24	done
72.37	25	nearby
73.27	25	done
77.84	26	nearby
78.37	26	done
82.04	27	nearby
82.77	27	done
86.47	28	nearby
86.7	28	done
95.4	29	nearby
96.3	29	done
98.54	30	nearby
99.27	30	done
101.6	31	nearby
102.44	31	done
106.07	32	nearby
108.44	32	done
112.9	33	nearby
113.77	33	done
116.24	34	nearby
116.74	34	done
121.3	35	nearby
122.4	35	done
