{
    "timestamp_waypoint": [
        13.47,
        17.6,
        19.04,
        23.1,
        25.87,
        27.54,
        29.7,
        31.87,
        33.1,
        36.8,
        38.3,
        40.74,
        43.17,
        45.74,
        48.2,
        49.87,
        52.84,
        55.14,
        57.67,
        58.84,
        60.97,
        62.34,
        65.07,
        66.1,
        70.17,
        75.64,
        80.3,
        84.74,
        96.6,
        101.14,
        107.17,
        110.94,
        114.84,
        119.27,
        123.64
    ],
    "timestamp_part": [
        13.47,
        66.1,
        84.74,
        96.6,
        123.64
    ],
    "startTime": 13.47,
    "endTime": 123.64
}