6.01	0	done
14.27	1	nearby
16.07	1	done
19	2	nearby
20.94	2	done
20.97	3	nearby
21.3	3	done
23.54	4	nearby
24.37	4	done
24.4	5	nearby
25.94	5	done
27.07	6	nearby
27.67	6	done
27.77	7	nearby
29.37	7	done
33.34	8	nearby
33.34	8	done
33.5	9	nearby
34.3	9	done
35.34	10	nearby
35.64	10	done
37	11	nearby
37.54	11	done
38.54	12	nearby
39.47	12	done
40.87	13	nearby
41.94	13	done
43.6	14	nearby
44.87	14	done
45.67	15	nearby
46.74	15	done
46.77	16	nearby
47.97	16	done
48.24	17	nearby
48.54	17	done
49.7	18	nearby
50.94	18	done
51.27	19	nearby
51.67	19	done
52.77	20	nearby
53.3	20	done
54.9	21	nearby
55.9	21	done
56	22	nearby
57.54	22	done
58.64	23	nearby
60.84	23	done
62.14	24	nearby
62.67	24	done
65.4	25	nearby
68.47	25	done
74.6	26	nearby
75	26	done
78.7	27	nearby
79.84	27	done
83.04	28	nearby
83.04	28	done
92.14	29	nearby
93.8	29	done
96.77	30	nearby
98.4	30	done
100.27	31	nearby
101.84	31	done
104.54	32	nearby
105	32	done
111.27	33	nearby
114.57	33	done
117.47	34	nearby
117.7	34	done
121.97	35	nearby
123.4	35	done
