{
    "timestamp_waypoint": [
        24.04,
        31.97,
        33.5,
        36.14,
        37.64,
        39.74,
        41.24,
        43.3,
        45.27,
        46.84,
        49.07,
        50.57,
        53.54,
        55.57,
        56.8,
        58.0,
        59.64,
        61.0,
        63.94,
        65.14,
        67.24,
        68.94,
        71.1,
        72.57,
        77.2,
        83.94,
        89.1,
        95.6,
        107.6,
        110.8,
        114.44,
        118.44,
        122.0,
        128.77,
        134.74
    ],
    "timestamp_part": [
        24.04,
        72.57,
        95.6,
        107.6,
        134.74
    ],
    "startTime": 24.04,
    "endTime": 134.74
}