6.01	0	done
12.04	1	nearby
14.47	1	done
18.87	2	nearby
20.67	2	done
23.14	3	nearby
32.04	3	done
33.67	4	nearby
35.54	4	done
35.84	5	nearby
38.3	5	done
38.37	6	nearby
40.84	6	done
40.94	7	nearby
42.14	7	done
43.17	8	nearby
44.34	8	done
44.77	9	nearby
46.7	9	done
47.44	10	nearby
49.07	10	done
49.1	11	nearby
51.37	11	done
51.6	12	nearby
53.34	12	done
55.67	13	nearby
55.97	13	done
58.2	14	nearby
58.47	14	done
59.77	15	nearby
62.6	15	done
62.67	16	nearby
65.14	16	done
65.54	17	nearby
66.34	17	done
67.64	18	nearby
69.24	18	done
69.5	19	nearby
70.54	19	done
71.7	20	nearby
72.34	20	done
73.27	21	nearby
74.64	21	done
75.54	22	nearby
77.44	22	done
78.3	23	nearby
79.1	23	done
80.1	24	nearby
81.04	24	done
84.7	25	nearby
85.34	25	done
89.4	26	nearby
91	26	done
94.5	27	nearby
95.37	27	done
99.17	28	nearby
100.04	28	done
110.47	29	nearby
110.74	29	done
113.37	30	nearby
116.14	30	done
119.57	31	nearby
126.7	31	done
129.47	32	nearby
130.64	32	done
133	33	nearby
134.94	33	done
137.3	34	nearby
139.14	34	done
142.87	35	nearby
144	35	done
