6.01	0	done
11.8	1	nearby
13.07	1	done
16.87	2	nearby
19.54	2	done
22.6	3	nearby
22.6	3	done
23.7	4	nearby
25.54	4	done
25.6	5	nearby
27.07	5	done
27.87	6	nearby
28.47	6	done
29.74	7	nearby
30.5	7	done
31.74	8	nearby
33.24	8	done
33.74	9	nearby
34.4	9	done
35.54	10	nearby
36.64	10	done
37.77	11	nearby
38.47	11	done
39.54	12	nearby
40.6	12	done
43.07	13	nearby
43.6	13	done
45.8	14	nearby
46.44	14	done
47.84	15	nearby
48.44	15	done
49.74	16	nearby
50.14	16	done
51.44	17	nearby
52.3	17	done
53.37	18	nearby
54.17	18	done
55.4	19	nearby
56.3	19	done
57.3	20	nearby
57.94	20	done
59.37	21	nearby
60.24	21	done
61.24	22	nearby
61.8	22	done
63.1	23	nearby
64.37	23	done
64.77	24	nearby
67.24	24	done
70.97	25	nearby
71.74	25	done
75.84	26	nearby
77.37	26	done
81.37	27	nearby
82.04	27	done
86.1	28	nearby
87.07	28	done
97.64	29	nearby
98.5	29	done
101.94	30	nearby
102.74	30	done
106.3	31	nearby
107.67	31	done
110.3	32	nearby
111.47	32	done
114	33	nearby
117.44	33	done
119.9	34	nearby
120.94	34	done
125.44	35	nearby
126.54	35	done
