{
    "timestamp_waypoint": [
        18.67,
        24.6,
        34.9,
        38.77,
        40.6,
        42.97,
        45.04,
        46.87,
        49.74,
        50.97,
        53.57,
        54.64,
        57.37,
        61.84,
        62.9,
        64.7,
        66.47,
        69.14,
        71.9,
        73.17,
        75.47,
        77.47,
        80.57,
        81.74,
        86.2,
        91.64,
        96.6,
        100.67,
        112.8,
        115.97,
        120.44,
        124.44,
        127.97,
        132.77,
        137.5
    ],
    "timestamp_part": [
        18.67,
        81.74,
        100.67,
        112.8,
        137.5
    ],
    "startTime": 18.67,
    "endTime": 137.5
}