6.01	0	done
15.2	1	nearby
15.64	1	done
20.5	2	nearby
25.8	2	done
26.97	3	nearby
28.37	3	done
29.44	4	nearby
31.57	4	done
31.6	5	nearby
33.67	5	done
34.67	6	nearby
35.1	6	done
36.27	7	nearby
37.47	7	done
38.04	8	nearby
39.3	8	done
40.27	9	nearby
41.47	9	done
42.27	10	nearby
42.87	10	done
44.04	11	nearby
44.57	11	done
45.74	12	nearby
46.1	12	done
48.7	13	nearby
50.5	13	done
52.24	14	nearby
53.27	14	done
54.17	15	nearby
55.07	15	done
55.9	16	nearby
56.94	16	done
57.67	17	nearby
58.74	17	done
59.97	18	nearby
60.4	18	done
61.64	19	nearby
61.97	19	done
63.14	20	nearby
63.33	20	done
64.67	21	nearby
65.07	21	done
66.44	22	nearby
67.04	22	done
68.24	23	nearby
72.34	23	done
72.37	24	nearby
73.87	24	done
78.1	25	nearby
79.7	25	done
84.47	26	nearby
86	26	done
89.44	27	nearby
90.3	27	done
94.44	28	nearby
97.5	28	done
107.27	29	nearby
108.7	29	done
112.07	30	nearby
113.47	30	done
115.54	31	nearby
116.37	31	done
119.54	32	nearby
122.2	32	done
125.44	33	nearby
129.2	33	done
131.57	34	nearby
133.44	34	done
137.94	35	nearby
140.64	35	done
