6.01	0	done
11.17	1	nearby
12.04	1	done
16.2	2	nearby
17	2	done
18.14	3	nearby
18.84	3	done
19.94	4	nearby
22.04	4	done
22.2	5	nearby
23.4	5	done
24.84	6	nearby
25.54	6	done
26.7	7	nearby
28.67	7	done
29.14	8	nearby
29.67	8	done
31.1	9	nearby
32.5	9	done
33.37	10	nearby
34.07	10	done
35.17	11	nearby
38	11	done
38.87	12	nearby
39.67	12	done
42	13	nearby
43.94	13	done
45.97	14	nearby
46.64	14	done
47.64	15	nearby
49.27	15	done
49.67	16	nearby
50.74	16	done
51.74	17	nearby
52.2	17	done
53.34	18	nearby
54.07	18	done
55.34	19	nearby
56.07	19	done
57.37	20	nearby
58.7	20	done
59.37	21	nearby
60	21	done
61.14	22	nearby
63	22	done
64.24	23	nearby
64.6	23	done
65.3	24	nearby
66.5	24	done
70.64	25	nearby
71.24	25	done
75.4	26	nearby
77.14	26	done
81.84	27	nearby
82.3	27	done
86.07	28	nearby
87.3	28	done
98.5	29	nearby
99.84	29	done
102.8	30	nearby
105.37	30	done
108.04	31	nearby
109.4	31	done
111.8	32	nearby
113.77	32	done
115.97	33	nearby
118.4	33	done
121.17	34	nearby
121.94	34	done
126.57	35	nearby
127.07	35	done
