{
    "timestamp_waypoint": [
        12.4,
        17.77,
        20.24,
        21.87,
        24.94,
        26.3,
        28.3,
        30.14,
        32.54,
        34.94,
        37.37,
        39.4,
        43.34,
        46.3,
        48.2,
        51.37,
        52.44,
        54.8,
        56.9,
        59.07,
        61.07,
        62.64,
        65.1,
        67.0,
        71.77,
        76.6,
        82.0,
        85.94,
        97.04,
        99.4,
        103.17,
        107.67,
        112.1,
        115.17,
        119.7
    ],
    "timestamp_part": [
        12.4,
        67.0,
        85.94,
        97.04,
        119.7
    ],
    "startTime": 12.4,
    "endTime": 119.7
}