6.01	0	done
7.97	1	nearby
8.9	1	done
12.24	2	nearby
12.67	2	done
13.5	3	nearby
13.67	3	done
14.7	4	nearby
14.9	4	done
15.97	5	nearby
16.1	5	done
17.14	6	nearby
17.27	6	done
18.34	7	nearby
18.47	7	done
19.54	8	nearby
20.1	8	done
20.84	9	nearby
21.07	9	done
22.24	10	nearby
23.24	10	done
24.1	11	nearby
26.17	11	done
26.77	12	nearby
28.57	12	done
29.87	13	nearby
31.8	13	done
33.2	14	nearby
33.57	14	done
34.64	15	nearby
35.1	15	done
35.94	16	nearby
36.47	16	done
37.34	17	nearby
38.37	17	done
39.24	18	nearby
39.6	18	done
40.67	19	nearby
41.94	19	done
42.24	20	nearby
42.8	20	done
43.7	21	nearby
45.24	21	done
45.64	22	nearby
46.14	22	done
47.1	23	nearby
47.47	23	done
48.1	24	nearby
49.37	24	done
51.84	25	nearby
52.67	25	done
55.4	26	nearby
56.6	26	done
59.57	27	nearby
60.27	27	done
63.24	28	nearby
64.27	28	done
72.94	29	nearby
73.84	29	done
76.4	30	nearby
76.9	30	done
79.14	31	nearby
79.97	31	done
82.24	32	nearby
83.34	32	done
85.4	33	nearby
86.44	33	done
88.9	34	nearby
89.67	34	done
92.94	35	nearby
93.2	35	done
