6.01	0	done
7.84	1	nearby
10.77	1	done
15.4	2	nearby
15.67	2	done
16.8	3	nearby
17.7	3	done
18.64	4	nearby
19.7	4	done
20.27	5	nearby
20.74	5	done
21.84	6	nearby
22.87	6	done
24.07	7	nearby
25.44	7	done
26.37	8	nearby
27.04	8	done
27.8	9	nearby
28.74	9	done
29.8	10	nearby
30.24	10	done
31.34	11	nearby
32.2	11	done
33.1	12	nearby
34.27	12	done
36.4	13	nearby
37.3	13	done
39.84	14	nearby
40.6	14	done
41.57	15	nearby
42.57	15	done
43.64	16	nearby
43.94	16	done
45.14	17	nearby
46.14	17	done
47.34	18	nearby
47.67	18	done
48.8	19	nearby
49.64	19	done
50.8	20	nearby
51.27	20	done
52.94	21	nearby
54.1	21	done
54.9	22	nearby
57.3	22	done
58.2	23	nearby
58.5	23	done
59.7	24	nearby
60.14	24	done
63.64	25	nearby
64.5	25	done
69.34	26	nearby
70.07	26	done
74.14	27	nearby
74.94	27	done
79.04	28	nearby
80.54	28	done
91.7	29	nearby
92.84	29	done
96	30	nearby
96.54	30	done
98.77	31	nearby
100.24	31	done
102.64	32	nearby
105	32	done
107.34	33	nearby
110.14	33	done
112.9	34	nearby
113.77	34	done
117.34	35	nearby
119	35	done
