{
    "timestamp_waypoint": [
        16.64,
        21.5,
        25.1,
        29.57,
        33.7,
        36.97,
        39.57,
        40.94,
        44.24,
        46.57,
        49.0,
        50.49,
        54.17,
        57.14,
        58.77,
        61.7,
        64.0,
        65.74,
        67.04,
        69.2,
        71.07,
        72.67,
        75.1,
        76.14,
        80.37,
        86.54,
        92.0,
        97.07,
        108.77,
        112.94,
        116.2,
        121.14,
        125.74,
        129.57,
        136.9
    ],
    "timestamp_part": [
        16.64,
        76.14,
        97.07,
        108.77,
        136.9
    ],
    "startTime": 16.64,
    "endTime": 136.9
}