6.01	0	done
15.87	1	nearby
18.7	1	done
23.24	2	nearby
24.2	2	done
25.7	3	nearby
26.3	3	done
27.54	4	nearby
28.47	4	done
29.3	5	nearby
31.37	5	done
31.47	6	nearby
34.34	6	done
34.67	7	nearby
37.4	7	done
37.54	8	nearby
39.5	8	done
40.5	9	nearby
40.84	9	done
42.27	10	nearby
44.54	10	done
44.87	11	nearby
46.5	11	done
47.3	12	nearby
48.44	12	done
51.04	13	nearby
51.67	13	done
54.4	14	nearby
54.67	14	done
57.34	15	nearby
58.17	15	done
58.57	16	nearby
61.67	16	done
61.7	17	nearby
63.64	17	done
64.24	18	nearby
64.77	18	done
65.97	19	nearby
66.97	19	done
67.44	20	nearby
67.9	20	done
69.14	21	nearby
70.5	21	done
70.74	22	nearby
71.47	22	done
72.67	23	nearby
74	23	done
74.04	24	nearby
74.37	24	done
77.64	25	nearby
80.87	25	done
87.14	26	nearby
87.84	26	done
91.37	27	nearby
93.34	27	done
96.8	28	nearby
98.34	28	done
108.5	29	nearby
110.14	29	done
113.14	30	nearby
113.7	30	done
116.54	31	nearby
117.34	31	done
120.34	32	nearby
122.27	32	done
125.47	33	nearby
127.17	33	done
130.34	34	nearby
132.1	34	done
135.4	35	nearby
136.97	35	done
