6.01	0	done
16.47	1	nearby
17.34	1	done
20.19	2	nearby
20.54	2	done
21.6	3	nearby
21.9	3	done
23.84	4	nearby
25.54	4	done
25.57	5	nearby
27.2	5	done
27.34	6	nearby
29.04	6	done
29.17	7	nearby
31.07	7	done
32.3	8	nearby
33.54	8	done
33.94	9	nearby
34.3	9	done
35.57	10	nearby
37.3	10	done
37.44	11	nearby
38.27	11	done
38.9	12	nearby
39.74	12	done
41.1	13	nearby
42.57	13	done
44.24	14	nearby
44.44	14	done
45.8	15	nearby
46.27	15	done
47.9	16	nearby
48.07	16	done
49.7	17	nearby
49.87	17	done
50.9	18	nearby
51.47	18	done
52.5	19	nearby
53	19	done
53.07	20	nearby
54.77	20	done
54.84	21	nearby
56.47	21	done
56.6	22	nearby
58.17	22	done
60.1	23	nearby
61.44	23	done
62.44	24	nearby
63.27	24	done
66.24	25	nearby
68.77	25	done
74.14	26	nearby
75.37	26	done
80.47	27	nearby
80.94	27	done
84.04	28	nearby
84.1	28	done
92.67	29	nearby
92.87	29	done
99.2	30	nearby
103.9	30	done
106.54	31	nearby
106.94	31	done
109.87	32	nearby
110.1	32	done
111.87	33	nearby
112.14	33	done
114.7	34	nearby
115.14	34	done
118.24	35	nearby
121	35	done
