6.01	0	done
8.7	1	nearby
9.77	1	done
13.14	2	nearby
14.34	2	done
15.1	3	nearby
15.54	3	done
16.54	4	nearby
17	4	done
17.74	5	nearby
18.07	5	done
18.94	6	nearby
19.2	6	done
20.1	7	nearby
20.27	7	done
21.37	8	nearby
21.57	8	done
22.64	9	nearby
22.94	9	done
23.97	10	nearby
24.3	10	done
25.44	11	nearby
26.24	11	done
27.2	12	nearby
28.74	12	done
29.94	13	nearby
30.74	13	done
32.5	14	nearby
34.07	14	done
35.07	15	nearby
35.37	15	done
36.2	16	nearby
36.44	16	done
37.47	17	nearby
39.24	17	done
39.9	18	nearby
40.34	18	done
41.2	19	nearby
42.47	19	done
42.54	20	nearby
43.47	20	done
44.47	21	nearby
45.07	21	done
45.9	22	nearby
51.4	22	done
52	23	nearby
55.94	23	done
56.9	24	nearby
58.1	24	done
60.54	25	nearby
60.7	25	done
64.84	26	nearby
65.07	26	done
68.54	27	nearby
69.3	27	done
72.6	28	nearby
72.97	28	done
81.74	29	nearby
82.24	29	done
84.84	30	nearby
85.97	30	done
87.54	31	nearby
89.44	31	done
92	32	nearby
92.8	32	done
95.47	33	nearby
96.37	33	done
98.5	34	nearby
99.87	34	done
103.2	35	nearby
103.8	35	done
