6.01	0	done
11.87	1	nearby
15.27	1	done
18.77	2	nearby
20.37	2	done
20.64	3	nearby
21.8	3	done
22.97	4	nearby
24.4	4	done
25.37	5	nearby
26.9	5	done
27.64	6	nearby
28.57	6	done
29.5	7	nearby
30.54	7	done
31.77	8	nearby
32.54	8	done
33.74	9	nearby
34.77	9	done
36.07	10	nearby
38.04	10	done
38.67	11	nearby
39.84	11	done
41.1	12	nearby
41.5	12	done
43.84	13	nearby
44.7	13	done
46.64	14	nearby
47.44	14	done
48.57	15	nearby
49.6	15	done
50.44	16	nearby
51.34	16	done
52.5	17	nearby
53	17	done
55	18	nearby
55.34	18	done
56.5	19	nearby
58.04	19	done
58.37	20	nearby
59.84	20	done
60.84	21	nearby
63.24	21	done
64.27	22	nearby
64.87	22	done
65.87	23	nearby
67.4	23	done
68.14	24	nearby
68.74	24	done
72.44	25	nearby
73.77	25	done
78.84	26	nearby
79.24	26	done
83.5	27	nearby
83.97	27	done
88.04	28	nearby
88.37	28	done
99	29	nearby
99.37	29	done
102.94	30	nearby
103.37	30	done
106.6	31	nearby
107.14	31	done
109.27	32	nearby
111.14	32	done
113.47	33	nearby
116.2	33	done
118.74	34	nearby
121.17	34	done
124.8	35	nearby
125.47	35	done
