{
    "timestamp_waypoint": [
        14.77,
        20.17,
        25.07,
        26.9,
        30.37,
        32.4,
        34.87,
        37.57,
        39.74,
        42.37,
        44.84,
        46.17,
        49.77,
        52.54,
        55.1,
        57.6,
        59.84,
        62.34,
        64.7,
        65.97,
        68.37,
        69.84,
        72.07,
        73.1,
        77.54,
        83.54,
        88.57,
        93.0,
        105.17,
        108.97,
        112.77,
        116.74,
        121.84,
        125.64,
        130.97
    ],
    "timestamp_part": [
        14.77,
        73.1,
        93.0,
        105.17,
        130.97
    ],
    "startTime": 14.77,
    "endTime": 130.97
}