6.01	0	done
14.64	1	nearby
16.4	1	done
19.67	2	nearby
20.5	2	done
21.84	3	nearby
23.04	3	done
24.14	4	nearby
26.27	4	done
26.34	5	nearby
28.54	5	done
29	6	nearby
30.4	6	done
31.5	7	nearby
32.84	7	done
34	8	nearby
35.7	8	done
36.8	9	nearby
38.87	9	done
38.94	10	nearby
41.3	10	done
41.54	11	nearby
43.7	11	done
44.4	12	nearby
45.04	12	done
46.97	13	nearby
47.7	13	done
50.14	14	nearby
50.54	14	done
51.64	15	nearby
53.5	15	done
54.1	16	nearby
55.17	16	done
56.14	17	nearby
58	17	done
58.24	18	nearby
62.04	18	done
62.3	19	nearby
63.57	19	done
64.84	20	nearby
66.5	20	done
66.7	21	nearby
69.2	21	done
69.57	22	nearby
69.97	22	done
70.97	23	nearby
72.24	23	done
72.74	24	nearby
72.94	24	done
77.3	25	nearby
77.54	25	done
82.17	26	nearby
84.07	26	done
88.07	27	nearby
89.3	27	done
92.74	28	nearby
94.47	28	done
105.2	29	nearby
106.9	29	done
109.64	30	nearby
110.24	30	done
112.84	31	nearby
115.5	31	done
118.77	32	nearby
120.04	32	done
122.84	33	nearby
124.17	33	done
127.07	34	nearby
128.4	34	done
132.44	35	nearby
132.74	35	done
