{
    "timestamp_waypoint": [
        13.3,
        17.9,
        20.0,
        21.67,
        23.87,
        26.17,
        27.7,
        29.64,
        31.6,
        33.17,
        35.17,
        37.34,
        40.44,
        43.1,
        45.1,
        47.87,
        49.44,
        50.97,
        52.7,
        55.1,
        57.74,
        60.3,
        61.7,
        63.17,
        68.1,
        73.34,
        78.5,
        83.77,
        97.34,
        100.97,
        104.5,
        108.44,
        111.74,
        115.3,
        120.94
    ],
    "timestamp_part": [
        13.3,
        63.17,
        83.77,
        97.34,
        120.94
    ],
    "startTime": 13.3,
    "endTime": 120.94
}