6.01	0	done
7.7	1	nearby
10.87	1	done
14.07	2	nearby
14.57	2	done
15.47	3	nearby
15.9	3	done
16.67	4	nearby
17	4	done
17.74	5	nearby
19.04	5	done
19.07	6	nearby
20.37	6	done
20.47	7	nearby
21.37	7	done
22.47	8	nearby
22.64	8	done
23.8	9	nearby
23.97	9	done
24.97	10	nearby
25.34	10	done
26.24	11	nearby
27.44	11	done
27.47	12	nearby
28.47	12	done
30.04	13	nearby
31.54	13	done
33.37	14	nearby
33.77	14	done
34.77	15	nearby
36.1	15	done
36.94	16	nearby
37.14	16	done
38.9	17	nearby
39.5	17	done
40.5	18	nearby
42	18	done
42.04	19	nearby
43	19	done
43.47	20	nearby
44.3	20	done
45.44	21	nearby
45.87	21	done
46.74	22	nearby
46.94	22	done
47.94	23	nearby
48.24	23	done
49.1	24	nearby
50.04	24	done
52.44	25	nearby
52.9	25	done
55.4	26	nearby
56.47	26	done
59.64	27	nearby
59.7	27	done
63.27	28	nearby
65.1	28	done
73.84	29	nearby
75.14	29	done
78.47	30	nearby
78.57	30	done
80.47	31	nearby
80.9	31	done
83.14	32	nearby
84.14	32	done
86.87	33	nearby
87.57	33	done
90.67	34	nearby
90.67	34	done
93.6	35	nearby
94.3	35	done
