6.01	0	done
10.54	1	nearby
19	1	done
22.74	2	nearby
23.47	2	done
24.8	3	nearby
29.3	3	done
30.87	4	nearby
33.67	4	done
33.74	5	nearby
37.9	5	done
39	6	nearby
39.77	6	done
40.84	7	nearby
41.44	7	done
42.4	8	nearby
43	8	done
43.87	9	nearby
45.77	9	done
45.8	10	nearby
46.64	10	done
47.7	11	nearby
49.7	11	done
49.74	12	nearby
50.87	12	done
53.24	13	nearby
53.87	13	done
56.14	14	nearby
58.07	14	done
58.97	15	nearby
60.1	15	done
61.34	16	nearby
63.64	16	done
63.8	17	nearby
65.47	17	done
66.14	18	nearby
67.04	18	done
68	19	nearby
69.2	19	done
69.84	20	nearby
71	20	done
71.07	21	nearby
72	21	done
72.94	22	nearby
73.94	22	done
74.77	23	nearby
76.47	23	done
77	24	nearby
77.54	24	done
81.74	25	nearby
82	25	done
85.77	26	nearby
87.4	26	done
92.64	27	nearby
93.7	27	done
97.84	28	nearby
98.77	28	done
109.4	29	nearby
110.3	29	done
113.27	30	nearby
115.34	30	done
118.54	31	nearby
118.97	31	done
121.74	32	nearby
123.04	32	done
126.34	33	nearby
127.67	33	done
130	34	nearby
132.17	34	done
135.47	35	nearby
137.47	35	done
