{
    "timestamp_waypoint": [
        9.6,
        14.47,
        16.7,
        19.3,
        20.57,
        22.9,
        24.44,
        26.74,
        29.6,
        30.7,
        33.1,
        35.17,
        38.67,
        43.9,
        46.57,
        47.9,
        50.1,
        52.27,
        54.27,
        55.84,
        57.94,
        59.67,
        61.57,
        63.04,
        71.07,
        76.67,
        82.17,
        86.0,
        98.07,
        102.3,
        107.67,
        110.94,
        114.8,
        119.14,
        125.87
    ],
    "timestamp_part": [
        9.6,
        63.04,
        86.0,
        98.07,
        125.87
    ],
    "startTime": 9.6,
    "endTime": 125.87
}