6.01	0	done
12.27	1	nearby
32.04	1	done
36.04	2	nearby
37.74	2	done
38	3	nearby
39.94	3	done
40.9	4	nearby
43.24	4	done
43.27	5	nearby
44.47	5	done
45.57	6	nearby
47.24	6	done
47.3	7	nearby
48.57	7	done
49.34	8	nearby
51	8	done
51.04	9	nearby
52.47	9	done
53.27	10	nearby
54	10	done
55.9	11	nearby
56.5	11	done
57.7	12	nearby
58.77	12	done
62.57	13	nearby
64	13	done
66.4	14	nearby
67.34	14	done
68.57	15	nearby
69	15	done
70.04	16	nearby
70.87	16	done
72.04	17	nearby
72.34	17	done
73.3	18	nearby
73.9	18	done
74.74	19	nearby
75.44	19	done
76.1	20	nearby
77.1	20	done
78.04	21	nearby
78.64	21	done
79.97	22	nearby
80.77	22	done
81.87	23	nearby
83.17	23	done
84.14	24	nearby
84.54	24	done
89.4	25	nearby
90.04	25	done
93.8	26	nearby
95.64	26	done
99.3	27	nearby
101.87	27	done
106.74	28	nearby
108	28	done
118.04	29	nearby
118.77	29	done
121.3	30	nearby
122.1	30	done
124.44	31	nearby
125.34	31	done
129.34	32	nearby
138.54	32	done
141.14	33	nearby
142.6	33	done
146.17	34	nearby
147.04	34	done
153.1	35	nearby
154.17	35	done
