6.01	0	done
12.24	1	nearby
21.67	1	done
25.24	2	nearby
25.5	2	done
26.57	3	nearby
26.9	3	done
30.17	4	nearby
30.17	4	done
30.37	5	nearby
32.94	5	done
33.24	6	nearby
34.67	6	done
34.74	7	nearby
36.47	7	done
36.94	8	nearby
38.9	8	done
39.04	9	nearby
40.4	9	done
41.3	10	nearby
41.7	10	done
42.64	11	nearby
43.94	11	done
44.04	12	nearby
44.97	12	done
46.77	13	nearby
47.07	13	done
48.8	14	nearby
49.34	14	done
50.14	15	nearby
50.6	15	done
51.44	16	nearby
51.84	16	done
53.07	17	nearby
53.54	17	done
54.47	18	nearby
54.67	18	done
55.77	19	nearby
56.2	19	done
57.14	20	nearby
58.6	20	done
58.9	21	nearby
59.1	21	done
60.54	22	nearby
61.17	22	done
62.24	23	nearby
63.84	23	done
64.07	24	nearby
64.94	24	done
67.54	25	nearby
68.5	25	done
72.97	26	nearby
73.8	26	done
76.47	27	nearby
77.34	27	done
80	28	nearby
82.24	28	done
90.84	29	nearby
91.47	29	done
94.27	30	nearby
95.27	30	done
97.67	31	nearby
98.24	31	done
100.64	32	nearby
101.9	32	done
104.57	33	nearby
104.77	33	done
107	34	nearby
107.77	34	done
110.2	35	nearby
112.54	35	done
