6.01	0	done
10.57	1	nearby
30.84	1	done
35	2	nearby
40	2	done
41.14	3	nearby
42.14	3	done
43.3	4	nearby
44	4	done
45.04	5	nearby
46.2	5	done
47.14	6	nearby
48.8	6	done
48.87	7	nearby
49.87	7	done
50.97	8	nearby
51.47	8	done
52.57	9	nearby
54.27	9	done
55.17	10	nearby
56.14	10	done
56.87	11	nearby
58.4	11	done
59.1	12	nearby
59.54	12	done
62.1	13	nearby
63.04	13	done
66.47	14	nearby
67.17	14	done
68.44	15	nearby
70	15	done
70.57	16	nearby
70.94	16	done
71.97	17	nearby
72.57	17	done
73.5	18	nearby
74.2	18	done
75.17	19	nearby
75.84	19	done
77.04	20	nearby
78.34	20	done
79.14	21	nearby
79.94	21	done
81	22	nearby
82.87	22	done
83.84	23	nearby
85.37	23	done
86.24	24	nearby
86.74	24	done
90.14	25	nearby
90.37	25	done
94.47	26	nearby
96.7	26	done
100.4	27	nearby
101.47	27	done
106.17	28	nearby
106.67	28	done
117.37	29	nearby
118.5	29	done
122.67	30	nearby
124.2	30	done
128.3	31	nearby
128.84	31	done
131.97	32	nearby
132.47	32	done
134.64	33	nearby
135.84	33	done
138.07	34	nearby
138.47	34	done
142.94	35	nearby
143.27	35	done
