6.01	0	done
11.07	1	nearby
14.47	1	done
18.9	2	nearby
30.54	2	done
31.34	3	nearby
31.64	3	done
32.8	4	nearby
33.74	4	done
34.94	5	nearby
38.1	5	done
38.87	6	nearby
39.84	6	done
41.1	7	nearby
42.74	7	done
43.87	8	nearby
44.37	8	done
45.4	9	nearby
46.84	9	done
47.64	10	nearby
48.64	10	done
49	11	nearby
50.63	11	done
50.67	12	nearby
53.6	12	done
55.8	13	nearby
57.47	13	done
59.4	14	nearby
60.04	14	done
60.8	15	nearby
61.6	15	done
62.2	16	nearby
63.17	16	done
64.3	17	nearby
65.2	17	done
66.37	18	nearby
67.17	18	done
68.34	19	nearby
69.3	19	done
69.8	20	nearby
70.04	20	done
71.17	21	nearby
71.6	21	done
72.54	22	nearby
73.67	22	done
74.6	23	nearby
76.24	23	done
76.3	24	nearby
77.34	24	done
81.7	25	nearby
82.14	25	done
86.07	26	nearby
87.74	26	done
91.54	27	nearby
93.54	27	done
99.4	28	nearby
101.24	28	done
111.74	29	nearby
112.37	29	done
115.7	30	nearby
116.37	30	done
120.24	31	nearby
120.77	31	done
124.3	32	nearby
125.8	32	done
128.27	33	nearby
130.54	33	done
132.77	34	nearby
133.1	34	done
136.67	35	nearby
137.6	35	done
