6.01	0	done
11.14	1	nearby
15	1	done
18.7	2	nearby
20.87	2	done
20.94	3	nearby
24.64	3	done
25.94	4	nearby
34.57	4	done
36.97	5	nearby
39.34	5	done
40.07	6	nearby
40.87	6	done
41.94	7	nearby
44.04	7	done
44.1	8	nearby
46.6	8	done
46.64	9	nearby
48.17	9	done
49	10	nearby
49.57	10	done
50.6	11	nearby
51.4	11	done
52.27	12	nearby
54.37	12	done
56.27	13	nearby
58.2	13	done
60.24	14	nearby
60.57	14	done
61.64	15	nearby
62.1	15	done
63.14	16	nearby
64.54	16	done
65.26	17	nearby
66.37	17	done
67.4	18	nearby
67.74	18	done
69.1	19	nearby
69.87	19	done
70.87	20	nearby
71.97	20	done
72.77	21	nearby
73.34	21	done
74.4	22	nearby
75.87	22	done
77.07	23	nearby
78.94	23	done
79.64	24	nearby
80.14	24	done
84.24	25	nearby
87.2	25	done
91.67	26	nearby
93.64	26	done
97.44	27	nearby
98.24	27	done
101.9	28	nearby
103.5	28	done
114.5	29	nearby
116.94	29	done
120	30	nearby
121.54	30	done
124.77	31	nearby
125.7	31	done
128.6	32	nearby
130.4	32	done
133.04	33	nearby
134.2	33	done
136.5	34	nearby
137.67	34	done
141.27	35	nearby
142.1	35	done
