6.01	0	done
10.74	1	nearby
19.94	1	done
24.74	2	nearby
26.84	2	done
26.87	3	nearby
30.4	3	done
31.54	4	nearby
32.54	4	done
33.54	5	nearby
35.37	5	done
35.44	6	nearby
37.77	6	done
37.84	7	nearby
39.17	7	done
40.27	8	nearby
41.57	8	done
42.44	9	nearby
43.67	9	done
43.74	10	nearby
44.93	10	done
45.34	11	nearby
47.5	11	done
47.54	12	nearby
48.97	12	done
50.87	13	nearby
51.47	13	done
54.1	14	nearby
55.1	14	done
55.74	15	nearby
57.2	15	done
57.9	16	nearby
58.97	16	done
59.9	17	nearby
60.27	17	done
61.5	18	nearby
63.4	18	done
63.94	19	nearby
64.84	19	done
65.84	20	nearby
66.44	20	done
67.54	21	nearby
68.64	21	done
69.4	22	nearby
70.04	22	done
70.94	23	nearby
72.34	23	done
72.4	24	nearby
73.17	24	done
76.84	25	nearby
77.7	25	done
81.74	26	nearby
82.64	26	done
86.74	27	nearby
89.14	27	done
92.77	28	nearby
95.1	28	done
106.2	29	nearby
106.77	29	done
109.4	30	nearby
110.3	30	done
112.94	31	nearby
114.64	31	done
117.94	32	nearby
118.94	32	done
122	33	nearby
122.7	33	done
125.8	34	nearby
127.14	34	done
130.74	35	nearby
131.64	35	done
