{
    "timestamp_waypoint": [
        18.67,
        40.77,
        43.57,
        46.54,
        48.5,
        50.84,
        52.2,
        54.27,
        56.54,
        58.04,
        61.37,
        63.87,
        67.84,
        70.77,
        72.54,
        74.57,
        76.17,
        78.64,
        81.24,
        83.14,
        84.87,
        87.24,
        89.0,
        90.94,
        95.0,
        100.1,
        105.57,
        110.4,
        122.07,
        126.2,
        130.3,
        133.57,
        138.0,
        141.54,
        146.64
    ],
    "timestamp_part": [
        18.67,
        90.94,
        110.4,
        122.07,
        146.64
    ],
    "startTime": 18.67,
    "endTime": 146.64
}