6.01	0	done
14.24	1	nearby
15.8	1	done
19.46	2	nearby
20.3	2	done
21.57	3	nearby
23.87	3	done
25.07	4	nearby
27.7	4	done
27.77	5	nearby
29.27	5	done
30.37	6	nearby
30.87	6	done
32.24	7	nearby
32.74	7	done
34.1	8	nearby
34.87	8	done
35.87	9	nearby
36.67	9	done
37.94	10	nearby
38.84	10	done
39.9	11	nearby
41.2	11	done
42.14	12	nearby
42.87	12	done
45.24	13	nearby
46.67	13	done
48	14	nearby
48.9	14	done
49.7	15	nearby
50.14	15	done
51.3	16	nearby
51.87	16	done
53.24	17	nearby
54.04	17	done
55.5	18	nearby
56	18	done
57.34	19	nearby
58.04	19	done
59.14	20	nearby
59.77	20	done
60.9	21	nearby
61.84	21	done
62.97	22	nearby
64.34	22	done
65.34	23	nearby
66.97	23	done
67.14	24	nearby
69.5	24	done
72.34	25	nearby
73.2	25	done
77.44	26	nearby
79.64	26	done
83.44	27	nearby
84.54	27	done
87.73	28	nearby
88.14	28	done
99.34	29	nearby
104	29	done
106.54	30	nearby
107.24	30	done
110.34	31	nearby
111.47	31	done
114.6	32	nearby
115.67	32	done
118.87	33	nearby
119.34	33	done
122.3	34	nearby
125.64	34	done
132.84	35	nearby
134.74	35	done
