6.01	0	done
15.7	1	nearby
16.6	1	done
19.37	2	nearby
19.7	2	done
19.87	3	nearby
21.5	3	done
22.77	4	nearby
25.24	4	done
25.27	5	nearby
28.04	5	done
28.1	6	nearby
29.07	6	done
29.84	7	nearby
31.64	7	done
32.34	8	nearby
33.5	8	done
33.54	9	nearby
35.07	9	done
36.37	10	nearby
37.07	10	done
37.1	11	nearby
38.67	11	done
38.7	12	nearby
40.27	12	done
41.74	13	nearby
43.44	13	done
45.2	14	nearby
45.27	14	done
46.44	15	nearby
46.9	15	done
46.94	16	nearby
48.24	16	done
48.57	17	nearby
50.17	17	done
50.27	18	nearby
51.6	18	done
51.94	19	nearby
53.5	19	done
53.67	20	nearby
54.97	20	done
55.24	21	nearby
56.84	21	done
56.9	22	nearby
65.24	22	done
74.57	23	nearby
74.9	23	done
75.97	24	nearby
77.64	24	done
80.6	25	nearby
81.9	25	done
84.8	26	nearby
85.87	26	done
88.8	27	nearby
90.6	27	done
93.77	28	nearby
94.1	28	done
102.97	29	nearby
104.27	29	done
108.27	30	nearby
108.47	30	done
109.74	31	nearby
110.87	31	done
113.27	32	nearby
114.1	32	done
116.7	33	nearby
117.6	33	done
119.64	34	nearby
120.87	34	done
124.14	35	nearby
124.64	35	done
