6.01	0	done
12.07	1	nearby
14.74	1	done
18.7	2	nearby
20.2	2	done
20.3	3	nearby
24.17	3	done
25.07	4	nearby
25.8	4	done
26.67	5	nearby
28.2	5	done
29	6	nearby
29.57	6	done
30.67	7	nearby
31.74	7	done
32.8	8	nearby
34.84	8	done
34.97	9	nearby
36.14	9	done
37.44	10	nearby
38.2	10	done
39.7	11	nearby
40.3	11	done
41.44	12	nearby
43.64	12	done
45.74	13	nearby
47.37	13	done
48.77	14	nearby
51.04	14	done
51.87	15	nearby
53.6	15	done
54.57	16	nearby
55.17	16	done
56.1	17	nearby
57.03	17	done
58.07	18	nearby
58.8	18	done
59.87	19	nearby
60.4	19	done
61.5	20	nearby
62.34	20	done
63.57	21	nearby
65.6	21	done
66.37	22	nearby
66.8	22	done
67.97	23	nearby
69.07	23	done
69.94	24	nearby
72.2	24	done
75.67	25	nearby
78.67	25	done
82.97	26	nearby
83.57	26	done
87.6	27	nearby
88.57	27	done
93.2	28	nearby
93.7	28	done
104.7	29	nearby
105.5	29	done
107.97	30	nearby
109.27	30	done
111.4	31	nearby
112.7	31	done
115.84	32	nearby
118.17	32	done
120.97	33	nearby
121.8	33	done
124.97	34	nearby
126.9	34	done
131.1	35	nearby
131.74	35	done
