6.01	0	done
13.47	1	nearby
14.34	1	done
18.04	2	nearby
18.97	2	done
19.77	3	nearby
22.17	3	done
23.34	4	nearby
25.87	4	done
27.14	5	nearby
27.6	5	done
29.07	6	nearby
31.3	6	done
31.7	7	nearby
33.1	7	done
34.24	8	nearby
36.14	8	done
37.14	9	nearby
38.8	9	done
39.44	10	nearby
40.94	10	done
41.6	11	nearby
43	11	done
43.5	12	nearby
44.37	12	done
46.64	13	nearby
47.14	13	done
49.4	14	nearby
50.34	14	done
51.14	15	nearby
52.8	15	done
53.77	16	nearby
54.1	16	done
55.37	17	nearby
57.14	17	done
57.2	18	nearby
59.57	18	done
60.2	19	nearby
60.97	19	done
61.77	20	nearby
63.54	20	done
63.7	21	nearby
64.64	21	done
65.9	22	nearby
67.44	22	done
68.2	23	nearby
68.97	23	done
69.97	24	nearby
70.37	24	done
73.7	25	nearby
74.64	25	done
79.1	26	nearby
80.8	26	done
84.47	27	nearby
87.2	27	done
91.6	28	nearby
92.3	28	done
103.07	29	nearby
104.54	29	done
107.07	30	nearby
107.6	30	done
110.24	31	nearby
111.14	31	done
113.77	32	nearby
114.74	32	done
117.7	33	nearby
118.97	33	done
121.74	34	nearby
123.17	34	done
127.17	35	nearby
128.07	35	done
