6.01	0	done
12.5	1	nearby
14.2	1	done
17.7	2	nearby
32.77	2	done
33.94	3	nearby
34.94	3	done
36.17	4	nearby
37.27	4	done
40.04	5	nearby
46.27	5	done
47.9	6	nearby
48.7	6	done
49.84	7	nearby
50.7	7	done
51.64	8	nearby
52.47	8	done
53.6	9	nearby
54.3	9	done
55.37	10	nearby
55.77	10	done
56.64	11	nearby
57.34	11	done
57.8	12	nearby
58.77	12	done
59.84	13	nearby
60.44	13	done
61.57	14	nearby
62	14	done
62.47	15	nearby
62.7	15	done
63.37	16	nearby
63.54	16	done
64.14	17	nearby
64.64	17	done
65	18	nearby
65.9	18	done
66.04	19	nearby
66.44	19	done
67.17	20	nearby
68.4	20	done
68.8	21	nearby
69.4	21	done
70.37	22	nearby
71.4	22	done
72.37	23	nearby
81.6	23	done
82.54	24	nearby
84.87	24	done
88.34	25	nearby
88.34	25	done
95.64	26	nearby
95.64	26	done
99.17	27	nearby
111.7	27	done
114.94	28	nearby
125.94	28	done
134.47	29	nearby
136.34	29	done
138.44	30	nearby
141.04	30	done
143.07	31	nearby
144	31	done
148.64	32	nearby
156.14	32	done
159.47	33	nearby
165.54	33	done
168.37	34	nearby
169.24	34	done
180.5	35	nearby
181.37	35	done
