6.01	0	done
8.47	1	nearby
9.17	1	done
13.84	2	nearby
14.6	2	done
15.74	3	nearby
17.84	3	done
18.67	4	nearby
18.94	4	done
19.9	5	nearby
20.27	5	done
21.74	6	nearby
22.77	6	done
23.9	7	nearby
24.54	7	done
25.67	8	nearby
26.1	8	done
27.1	9	nearby
28.7	9	done
29.37	10	nearby
29.67	10	done
30.87	11	nearby
31.74	11	done
32.67	12	nearby
33.44	12	done
35.84	13	nearby
36.34	13	done
38.8	14	nearby
39.74	14	done
41.07	15	nearby
42.24	15	done
43.1	16	nearby
44.37	16	done
45.24	17	nearby
45.57	17	done
46.77	18	nearby
48.07	18	done
48.84	19	nearby
49.87	19	done
50.77	20	nearby
51.64	20	done
52.77	21	nearby
53.14	21	done
54.44	22	nearby
55.24	22	done
56.97	23	nearby
57.24	23	done
58.54	24	nearby
59.27	24	done
63.07	25	nearby
64.7	25	done
69.44	26	nearby
69.84	26	done
74.1	27	nearby
75	27	done
79.54	28	nearby
80.04	28	done
90.54	29	nearby
91.1	29	done
95.84	30	nearby
99.47	30	done
102.74	31	nearby
104.27	31	done
106.7	32	nearby
107.6	32	done
109.67	33	nearby
110.47	33	done
113.4	34	nearby
114.44	34	done
119.07	35	nearby
119.54	35	done
