6.01	0	done
12.47	1	nearby
35.17	1	done
39.34	2	nearby
41.37	2	done
42.04	3	nearby
42.97	3	done
44.24	4	nearby
46.44	4	done
46.47	5	nearby
47.57	5	done
48.54	6	nearby
49.37	6	done
50.4	7	nearby
52.3	7	done
52.37	8	nearby
54	8	done
55.3	9	nearby
56.17	9	done
56.9	10	nearby
58.44	10	done
59.04	11	nearby
60.8	11	done
61.5	12	nearby
62	12	done
64.24	13	nearby
64.97	13	done
67.07	14	nearby
67.7	14	done
68.94	15	nearby
69.7	15	done
70.8	16	nearby
71.44	16	done
72.64	17	nearby
73.14	17	done
74.24	18	nearby
75.04	18	done
76	19	nearby
77.3	19	done
78.54	20	nearby
79.24	20	done
80.5	21	nearby
81.1	21	done
82.17	22	nearby
83	22	done
84.34	23	nearby
86.1	23	done
86.5	24	nearby
87.74	24	done
91.3	25	nearby
91.64	25	done
95.9	26	nearby
97.44	26	done
101.2	27	nearby
102.37	27	done
107.5	28	nearby
107.94	28	done
118.44	29	nearby
119.77	29	done
123.14	30	nearby
123.74	30	done
127	31	nearby
129.47	31	done
132.27	32	nearby
134.24	32	done
136.37	33	nearby
137.74	33	done
140.84	34	nearby
143.04	34	done
146.84	35	nearby
147.64	35	done
