6.01	0	done
16.34	1	nearby
18.2	1	done
23.37	2	nearby
23.5	2	done
23.54	3	nearby
26.24	3	done
27.9	4	nearby
29	4	done
29.17	5	nearby
30.4	5	done
31.3	6	nearby
32.97	6	done
33.07	7	nearby
34.67	7	done
34.7	8	nearby
37.17	8	done
37.2	9	nearby
37.6	9	done
38.9	10	nearby
40.47	10	done
40.54	11	nearby
42	11	done
42.1	12	nearby
43	12	done
44.54	13	nearby
44.8	13	done
46.9	14	nearby
47.37	14	done
48	15	nearby
48.54	15	done
49.47	16	nearby
49.87	16	done
50.9	17	nearby
51.8	17	done
52.5	18	nearby
52.77	18	done
54.07	19	nearby
54.5	19	done
55.5	20	nearby
55.97	20	done
56.84	21	nearby
57.14	21	done
58.3	22	nearby
58.8	22	done
59.9	23	nearby
60.7	23	done
61.54	24	nearby
61.74	24	done
64.47	25	nearby
64.67	25	done
67.67	26	nearby
69.4	26	done
72.14	27	nearby
72.97	27	done
75.64	28	nearby
76.54	28	done
84.6	29	nearby
85.67	29	done
89.24	30	nearby
89.34	30	done
91.14	31	nearby
92.7	31	done
94.97	32	nearby
95.24	32	done
98.54	33	nearby
99.7	33	done
102.14	34	nearby
102.77	34	done
105.6	35	nearby
106.94	35	done
