6.01	0	done
10.54	1	nearby
16.77	1	done
20.34	2	nearby
32.77	2	done
33.77	3	nearby
34.7	3	done
36	4	nearby
37.9	4	done
38.77	5	nearby
41.77	5	done
41.84	6	nearby
42.9	6	done
44.14	7	nearby
44.9	7	done
45.77	8	nearby
47.64	8	done
48.3	9	nearby
50	9	done
50.04	10	nearby
51.1	10	done
52.17	11	nearby
53.54	11	done
54.3	12	nearby
54.8	12	done
57.14	13	nearby
58.87	13	done
60.87	14	nearby
61.84	14	done
62.87	15	nearby
64.67	15	done
65.14	16	nearby
65.84	16	done
67	17	nearby
69.64	17	done
70.34	18	nearby
72.1	18	done
73.14	19	nearby
74	19	done
75.14	20	nearby
75.84	20	done
77.5	21	nearby
78.44	21	done
79.57	22	nearby
80.6	22	done
82.17	23	nearby
82.97	23	done
83.67	24	nearby
84.07	24	done
87.94	25	nearby
88.94	25	done
93.9	26	nearby
95.3	26	done
99.1	27	nearby
100.04	27	done
103.9	28	nearby
106.14	28	done
116.64	29	nearby
117.27	29	done
120.54	30	nearby
121.67	30	done
124.84	31	nearby
127.04	31	done
129.64	32	nearby
131.4	32	done
133.77	33	nearby
135.84	33	done
138.14	34	nearby
139.27	34	done
143.44	35	nearby
144.44	35	done
