{
    "timestamp_waypoint": [
        12.27,
        17.14,
        18.57,
        20.14,
        22.14,
        24.3,
        26.04,
        28.0,
        29.5,
        31.87,
        33.37,
        35.57,
        39.0,
        42.97,
        44.3,
        47.24,
        48.64,
        50.17,
        51.97,
        54.2,
        56.07,
        58.2,
        60.4,
        61.97,
        66.7,
        72.14,
        77.44,
        82.44,
        93.47,
        97.2,
        101.94,
        106.94,
        109.47,
        114.34,
        119.3
    ],
    "timestamp_part": [
        12.27,
        61.97,
        82.44,
        93.47,
        119.3
    ],
    "startTime": 12.27,
    "endTime": 119.3
}