6.01	0	done
8.57	1	nearby
10.27	1	done
14.87	2	nearby
15.64	2	done
16.57	3	nearby
17.04	3	done
18.3	4	nearby
18.6	4	done
19.54	5	nearby
20.27	5	done
21.57	6	nearby
22.47	6	done
24	7	nearby
24.64	7	done
25.9	8	nearby
26.5	8	done
27.57	9	nearby
28.27	9	done
29.6	10	nearby
30.14	10	done
31.1	11	nearby
31.94	11	done
33.2	12	nearby
34.1	12	done
36.4	13	nearby
37.34	13	done
39.74	14	nearby
40.44	14	done
41.3	15	nearby
42.64	15	done
43.4	16	nearby
44.5	16	done
45.37	17	nearby
46.84	17	done
47.34	18	nearby
47.94	18	done
48.97	19	nearby
49.6	19	done
51.14	20	nearby
51.74	20	done
52.97	21	nearby
53.84	21	done
54.74	22	nearby
57.07	22	done
57.47	23	nearby
58.04	23	done
59.27	24	nearby
60.04	24	done
63.64	25	nearby
65.47	25	done
69.17	26	nearby
69.57	26	done
73.77	27	nearby
74.87	27	done
79.14	28	nearby
81.07	28	done
91.74	29	nearby
93.04	29	done
95.64	30	nearby
96.84	30	done
99.24	31	nearby
100.14	31	done
102.44	32	nearby
103.47	32	done
106.1	33	nearby
108.8	33	done
111.4	34	nearby
113.5	34	done
117	35	nearby
117.97	35	done
