6.01	0	done
18.67	1	nearby
33.87	1	done
37.7	2	nearby
41.54	2	done
41.7	3	nearby
42.94	3	done
44.14	4	nearby
45.67	4	done
46.5	5	nearby
48.47	5	done
48.54	6	nearby
49.67	6	done
50.67	7	nearby
51.94	7	done
52.47	8	nearby
53.6	8	done
54.8	9	nearby
55.8	9	done
56.4	10	nearby
57.8	10	done
58.44	11	nearby
60.3	11	done
60.74	12	nearby
61.87	12	done
64.4	13	nearby
65.24	13	done
67.47	14	nearby
67.97	14	done
69.14	15	nearby
70.84	15	done
71.44	16	nearby
72.04	16	done
73.1	17	nearby
74.64	17	done
75.67	18	nearby
77	18	done
77.4	19	nearby
79.04	19	done
80.1	20	nearby
80.97	20	done
82.24	21	nearby
83.07	21	done
83.97	22	nearby
84.64	22	done
85.74	23	nearby
86.94	23	done
87.24	24	nearby
88.14	24	done
91.84	25	nearby
95.37	25	done
99.47	26	nearby
101.2	26	done
105.17	27	nearby
105.9	27	done
109.97	28	nearby
110.27	28	done
121.34	29	nearby
125.44	29	done
128.14	30	nearby
128.9	30	done
131.67	31	nearby
133.6	31	done
135.67	32	nearby
136.9	32	done
139.14	33	nearby
140.5	33	done
143.47	34	nearby
146.27	34	done
150.3	35	nearby
151.57	35	done
