6.01	0	done
17.34	1	nearby
17.87	1	done
21.57	2	nearby
22.07	2	done
24.77	3	nearby
25.1	3	done
27.24	4	nearby
27.64	4	done
28.2	5	nearby
29.97	5	done
30.37	6	nearby
32.57	6	done
32.64	7	nearby
34.64	7	done
34.74	8	nearby
36.4	8	done
37.04	9	nearby
37.37	9	done
38.44	10	nearby
40.14	10	done
40.27	11	nearby
42.04	11	done
43.04	12	nearby
43.7	12	done
45.14	13	nearby
46.44	13	done
47.8	14	nearby
48.24	14	done
49.3	15	nearby
50.5	15	done
50.67	16	nearby
51.57	16	done
52.04	17	nearby
53.44	17	done
53.47	18	nearby
54.2	18	done
55.07	19	nearby
55.9	19	done
56.74	20	nearby
56.97	20	done
58.1	21	nearby
58.7	21	done
59.6	22	nearby
59.87	22	done
61.94	23	nearby
62.7	23	done
62.74	24	nearby
64.1	24	done
67.1	25	nearby
68.34	25	done
72.24	26	nearby
72.24	26	done
79.44	27	nearby
80.74	27	done
83.54	28	nearby
83.8	28	done
92.64	29	nearby
93.6	29	done
96.24	30	nearby
96.87	30	done
99.3	31	nearby
99.44	31	done
101.7	32	nearby
102.34	32	done
104.3	33	nearby
105.24	33	done
108.27	34	nearby
108.34	34	done
111	35	nearby
111.24	35	done
