6.01	0	done
10.54	1	nearby
12.07	1	done
15.67	2	nearby
18.97	2	done
28.47	3	nearby
32.7	3	done
34	4	nearby
36.37	4	done
36.4	5	nearby
37.8	5	done
38.54	6	nearby
46.6	6	done
46.94	7	nearby
47.57	7	done
48.7	8	nearby
50.27	8	done
50.3	9	nearby
51.14	9	done
51.8	10	nearby
60.77	10	done
61.87	11	nearby
62.37	11	done
63.17	12	nearby
63.77	12	done
70.4	13	nearby
73.1	13	done
75.24	14	nearby
75.57	14	done
76.74	15	nearby
77.34	15	done
78.44	16	nearby
85.37	16	done
86.74	17	nearby
87.64	17	done
88.97	18	nearby
89.6	18	done
91.07	19	nearby
91.54	19	done
92.54	20	nearby
92.94	20	done
93.87	21	nearby
105.44	21	done
107.3	22	nearby
108.36	22	done
109.54	23	nearby
110.27	23	done
111.67	24	nearby
112.84	24	done
120.1	25	nearby
120.7	25	done
124.64	26	nearby
125.44	26	done
128.17	27	nearby
129.1	27	done
131.2	28	nearby
131.74	28	done
141.54	29	nearby
142.44	29	done
157.4	30	nearby
158.6	30	done
162	31	nearby
162.54	31	done
165.14	32	nearby
166.44	32	done
169.57	33	nearby
175.3	33	done
185.24	34	nearby
186.34	34	done
189.77	35	nearby
190	35	done
