6.01	0	done
10.8	1	nearby
12.97	1	done
18.7	2	nearby
19.94	2	done
20.24	3	nearby
22.6	3	done
23.94	4	nearby
25.64	4	done
26.2	5	nearby
27.3	5	done
28.5	6	nearby
30	6	done
30.7	7	nearby
31.4	7	done
32.37	8	nearby
33.5	8	done
34.47	9	nearby
36.07	9	done
36.77	10	nearby
39.87	10	done
40.67	11	nearby
41.24	11	done
42.4	12	nearby
43.37	12	done
45.5	13	nearby
46.14	13	done
48.24	14	nearby
49.17	14	done
50.27	15	nearby
50.6	15	done
51.74	16	nearby
52.87	16	done
53.94	17	nearby
54.74	17	done
55.9	18	nearby
56.94	18	done
57.8	19	nearby
58.37	19	done
60.44	20	nearby
61.2	20	done
62.7	21	nearby
63.24	21	done
64.57	22	nearby
65.3	22	done
66.44	23	nearby
67.69	23	done
69.64	24	nearby
70.97	24	done
74.5	25	nearby
74.94	25	done
79.8	26	nearby
80.37	26	done
84.24	27	nearby
85.27	27	done
89.3	28	nearby
89.3	28	done
99.94	29	nearby
100.5	29	done
107	30	nearby
113.34	30	done
116.87	31	nearby
117.74	31	done
122.07	32	nearby
122.07	32	done
125.04	33	nearby
125.44	33	done
129.04	34	nearby
131.54	34	done
134.97	35	nearby
138.7	35	done
