{
    "timestamp_waypoint": [
        15.6,
        19.84,
        21.57,
        26.67,
        29.34,
        32.14,
        34.04,
        37.07,
        38.9,
        41.7,
        43.97,
        48.0,
        50.87,
        53.44,
        56.3,
        57.74,
        61.1,
        62.27,
        65.27,
        66.5,
        69.1,
        72.2,
        74.34,
        77.24,
        82.64,
        94.87,
        100.87,
        105.97,
        116.6,
        120.87,
        125.67,
        129.64,
        133.8,
        138.8,
        143.24
    ],
    "timestamp_part": [
        15.6,
        77.24,
        105.97,
        116.6,
        143.24
    ],
    "startTime": 15.6,
    "endTime": 143.24
}