6.01	0	done
11.07	1	nearby
12.24	1	done
22.24	2	nearby
26.47	2	done
27.34	3	nearby
29.4	3	done
30.7	4	nearby
33.84	4	done
34.77	5	nearby
35.04	5	done
36.07	6	nearby
38.37	6	done
39.24	7	nearby
39.8	7	done
40.9	8	nearby
41.94	8	done
42.87	9	nearby
43.24	9	done
44.3	10	nearby
46.17	10	done
46.37	11	nearby
46.97	11	done
47.67	12	nearby
48.14	12	done
49.87	13	nearby
51.87	13	done
53.84	14	nearby
54.27	14	done
55.44	15	nearby
57.77	15	done
57.8	16	nearby
59.07	16	done
60.27	17	nearby
60.67	17	done
61.3	18	nearby
61.54	18	done
62.77	19	nearby
64.2	19	done
64.3	20	nearby
65.17	20	done
66.37	21	nearby
67.1	21	done
68.14	22	nearby
69.27	22	done
70.24	23	nearby
72.24	23	done
72.27	24	nearby
73.37	24	done
77.24	25	nearby
81.77	25	done
85.7	26	nearby
86.64	26	done
90.97	27	nearby
92.2	27	done
96.14	28	nearby
96.9	28	done
107.87	29	nearby
110.07	29	done
112.5	30	nearby
115.34	30	done
118.17	31	nearby
118.94	31	done
122.04	32	nearby
123.07	32	done
126.4	33	nearby
127.54	33	done
131.04	34	nearby
132.94	34	done
136.3	35	nearby
137.34	35	done
