6.01	0	done
11.37	1	nearby
25.9	1	done
30.14	2	nearby
32.44	2	done
33.4	3	nearby
34.57	3	done
36.17	4	nearby
36.67	4	done
37.47	5	nearby
38.94	5	done
39.9	6	nearby
40.9	6	done
41.64	7	nearby
43.63	7	done
43.74	8	nearby
45.9	8	done
46	9	nearby
48.47	9	done
48.57	10	nearby
49.64	10	done
50.87	11	nearby
51.77	11	done
52.74	12	nearby
53.5	12	done
55.67	13	nearby
56.34	13	done
58.9	14	nearby
59.57	14	done
60.6	15	nearby
61.37	15	done
62.67	16	nearby
64.37	16	done
64.67	17	nearby
65.97	17	done
66.8	18	nearby
68.44	18	done
68.77	19	nearby
69.5	19	done
70.5	20	nearby
72.6	20	done
72.64	21	nearby
73.77	21	done
74.87	22	nearby
75.57	22	done
77.14	23	nearby
78.34	23	done
78.94	24	nearby
79.8	24	done
84.37	25	nearby
84.87	25	done
88.94	26	nearby
90.7	26	done
94.64	27	nearby
95.84	27	done
99.47	28	nearby
100.44	28	done
110.6	29	nearby
112.87	29	done
115.34	30	nearby
116.9	30	done
119.77	31	nearby
122.07	31	done
125	32	nearby
126.27	32	done
129.07	33	nearby
130.8	33	done
133.04	34	nearby
133.49	34	done
137.27	35	nearby
138.17	35	done
