{
    "timestamp_waypoint": [
        17.34,
        22.14,
        25.27,
        28.77,
        31.24,
        34.24,
        36.34,
        39.57,
        42.54,
        44.54,
        46.9,
        47.97,
        51.54,
        54.34,
        57.07,
        58.47,
        61.77,
        64.37,
        65.14,
        68.14,
        69.2,
        72.04,
        73.74,
        75.17,
        78.97,
        85.9,
        93.1,
        97.9,
        109.7,
        114.67,
        118.44,
        124.24,
        127.3,
        130.64,
        135.54
    ],
    "timestamp_part": [
        17.34,
        75.17,
        97.9,
        109.7,
        135.54
    ],
    "startTime": 17.34,
    "endTime": 135.54
}