6.01	0	done
14.44	1	nearby
15.2	1	done
19.04	2	nearby
20.34	2	done
20.57	3	nearby
22.07	3	done
23.47	4	nearby
25.54	4	done
25.74	5	nearby
27	5	done
28.14	6	nearby
29.57	6	done
29.94	7	nearby
30.34	7	done
31.74	8	nearby
32.14	8	done
33.37	9	nearby
34.4	9	done
35.54	10	nearby
38.14	10	done
38.24	11	nearby
38.67	11	done
40	12	nearby
40.57	12	done
43.34	13	nearby
45.67	13	done
47.17	14	nearby
48.34	14	done
49.37	15	nearby
50.04	15	done
51.07	16	nearby
51.64	16	done
52.37	17	nearby
53	17	done
54.07	18	nearby
54.64	18	done
55.47	19	nearby
57.67	19	done
58.84	20	nearby
59.4	20	done
60.84	21	nearby
61.27	21	done
62.27	22	nearby
62.87	22	done
63.94	23	nearby
65.57	23	done
65.6	24	nearby
67.04	24	done
71.77	25	nearby
72.57	25	done
81.07	26	nearby
81.1	26	done
84.97	27	nearby
85.44	27	done
88.8	28	nearby
90.1	28	done
99.74	29	nearby
100.74	29	done
103.9	30	nearby
105.6	30	done
108.4	31	nearby
108.67	31	done
112.07	32	nearby
113.17	32	done
114.97	33	nearby
116.67	33	done
119.5	34	nearby
123.07	34	done
127.5	35	nearby
127.7	35	done
