6.01	0	done
10.54	1	nearby
13.7	1	done
18.67	2	nearby
21.37	2	done
24.4	3	nearby
29.47	3	done
30.94	4	nearby
33.4	4	done
34.1	5	nearby
36.24	5	done
37.2	6	nearby
38.04	6	done
38.87	7	nearby
40.54	7	done
40.57	8	nearby
42.97	8	done
43	9	nearby
43.9	9	done
45	10	nearby
46.5	10	done
47.14	11	nearby
48.27	11	done
49.07	12	nearby
49.87	12	done
51.97	13	nearby
52.4	13	done
54.8	14	nearby
55.64	14	done
56.7	15	nearby
60.07	15	done
61.44	16	nearby
62.8	16	done
63.64	17	nearby
63.94	17	done
65.24	18	nearby
66	18	done
67	19	nearby
67.67	19	done
69.17	20	nearby
70.24	20	done
70.47	21	nearby
71.6	21	done
72.57	22	nearby
74.04	22	done
75.1	23	nearby
76.54	23	done
77.1	24	nearby
77.54	24	done
81.6	25	nearby
82.24	25	done
86.4	26	nearby
87.7	26	done
91.47	27	nearby
92.74	27	done
96.77	28	nearby
97.54	28	done
108.4	29	nearby
109.44	29	done
112.44	30	nearby
113.24	30	done
115.67	31	nearby
116.8	31	done
119.07	32	nearby
119.9	32	done
122.14	33	nearby
123.47	33	done
126.2	34	nearby
127.14	34	done
130.9	35	nearby
131.64	35	done
