6.01	0	done
11.9	1	nearby
19.04	1	done
22.94	2	nearby
26.3	2	done
26.77	3	nearby
29.4	3	done
30.54	4	nearby
31.93	4	done
32.54	5	nearby
34.8	5	done
34.94	6	nearby
36.24	6	done
37.2	7	nearby
38.84	7	done
41.24	8	nearby
41.54	8	done
42.54	9	nearby
43.2	9	done
44.2	10	nearby
45	10	done
45.9	11	nearby
46.47	11	done
47.67	12	nearby
48.27	12	done
50.5	13	nearby
51.04	13	done
53.54	14	nearby
54.2	14	done
55.64	15	nearby
56.24	15	done
57.47	16	nearby
58.14	16	done
59.24	17	nearby
59.47	17	done
60.74	18	nearby
61.57	18	done
62.74	19	nearby
63.44	19	done
64.47	20	nearby
66.4	20	done
66.8	21	nearby
68.67	21	done
69.04	22	nearby
69.84	22	done
71.04	23	nearby
73.07	23	done
73.1	24	nearby
75.44	24	done
78.94	25	nearby
79.77	25	done
83.8	26	nearby
84.8	26	done
88.64	27	nearby
90.14	27	done
93.7	28	nearby
94.87	28	done
107.07	29	nearby
107.64	29	done
110.17	30	nearby
111.07	30	done
113.97	31	nearby
114.74	31	done
118.4	32	nearby
119.57	32	done
121.84	33	nearby
122.94	33	done
126.17	34	nearby
126.67	34	done
131	35	nearby
131.47	35	done
