6.01	0	done
13.4	1	nearby
18.1	1	done
25.94	2	nearby
26.87	2	done
27.84	3	nearby
29.2	3	done
30.1	4	nearby
31.97	4	done
32.77	5	nearby
33.24	5	done
34.27	6	nearby
35.04	6	done
36	7	nearby
36.74	7	done
37.37	8	nearby
39.1	8	done
39.17	9	nearby
40.9	9	done
40.97	10	nearby
42.4	10	done
42.47	11	nearby
43.87	11	done
43.9	12	nearby
45.24	12	done
46.67	13	nearby
47	13	done
48.4	14	nearby
49.54	14	done
50	15	nearby
51.94	15	done
52.87	16	nearby
53.2	16	done
53.94	17	nearby
54.1	17	done
55.3	18	nearby
56.87	18	done
57	19	nearby
58.27	19	done
59.3	20	nearby
59.77	20	done
60.64	21	nearby
61.47	21	done
62.34	22	nearby
62.77	22	done
64.7	23	nearby
65.34	23	done
65.37	24	nearby
66.6	24	done
69.4	25	nearby
70.27	25	done
75.04	26	nearby
75.04	26	done
77.89	27	nearby
78.1	27	done
81.07	28	nearby
81.34	28	done
89.87	29	nearby
91.17	29	done
93.57	30	nearby
93.84	30	done
100.3	31	nearby
104.24	31	done
106.77	32	nearby
106.87	32	done
110.24	33	nearby
110.24	33	done
113	34	nearby
113	34	done
115.74	35	nearby
115.84	35	done
