{
    "timestamp_waypoint": [
        14.17,
        26.24,
        29.4,
        32.44,
        35.64,
        38.54,
        41.57,
        43.24,
        44.57,
        47.07,
        48.54,
        50.24,
        53.94,
        56.67,
        58.84,
        61.17,
        62.47,
        64.4,
        65.87,
        68.2,
        69.77,
        71.7,
        74.97,
        76.74,
        81.57,
        87.07,
        91.57,
        96.94,
        108.6,
        111.5,
        115.5,
        119.97,
        125.57,
        129.54,
        133.6
    ],
    "timestamp_part": [
        14.17,
        76.74,
        96.94,
        108.6,
        133.6
    ],
    "startTime": 14.17,
    "endTime": 133.6
}