6.01	0	done
10.6	1	nearby
12.17	1	done
16.07	2	nearby
17.8	2	done
18.14	3	nearby
18.8	3	done
19.97	4	nearby
21.47	4	done
22.17	5	nearby
24.2	5	done
25.04	6	nearby
26.37	6	done
27.2	7	nearby
28	7	done
28.9	8	nearby
29.64	8	done
30.94	9	nearby
31.4	9	done
32.44	10	nearby
33.67	10	done
34.9	11	nearby
36.07	11	done
37.14	12	nearby
38.04	12	done
40.67	13	nearby
42.44	13	done
44.47	14	nearby
44.9	14	done
46.1	15	nearby
47.84	15	done
48.27	16	nearby
50.1	16	done
51	17	nearby
51.44	17	done
52.57	18	nearby
53.7	18	done
54.57	19	nearby
54.9	19	done
56.07	20	nearby
57.24	20	done
58.07	21	nearby
58.7	21	done
59.77	22	nearby
60.9	22	done
61.87	23	nearby
62.34	23	done
63.54	24	nearby
64.4	24	done
68.17	25	nearby
68.77	25	done
72.8	26	nearby
74.47	26	done
79.14	27	nearby
79.47	27	done
83.34	28	nearby
83.97	28	done
94.74	29	nearby
95.6	29	done
99.1	30	nearby
99.8	30	done
103.14	31	nearby
104.24	31	done
106.8	32	nearby
107.64	32	done
110.07	33	nearby
110.6	33	done
113.34	34	nearby
115.54	34	done
120	35	nearby
120.2	35	done
