6.01	0	done
21.97	1	nearby
24.6	1	done
30.37	2	nearby
34.34	2	done
35.14	3	nearby
36.97	3	done
39	4	nearby
40.57	4	done
41.6	5	nearby
43.2	5	done
43.27	6	nearby
44.47	6	done
44.94	7	nearby
45.9	7	done
46.47	8	nearby
48.07	8	done
48.1	9	nearby
49.67	9	done
49.74	10	nearby
51.27	10	done
53.04	11	nearby
53.8	11	done
53.9	12	nearby
55.14	12	done
56.67	13	nearby
57.1	13	done
58.57	14	nearby
59.37	14	done
59.9	15	nearby
60.94	15	done
61.44	16	nearby
62.17	16	done
62.94	17	nearby
63.54	17	done
64.44	18	nearby
64.7	18	done
65.74	19	nearby
66.74	19	done
67.27	20	nearby
67.54	20	done
68.57	21	nearby
69.07	21	done
70.14	22	nearby
70.4	22	done
71.77	23	nearby
72.7	23	done
73.14	24	nearby
73.37	24	done
76.17	25	nearby
78.6	25	done
83.27	26	nearby
83.27	26	done
86.2	27	nearby
86.77	27	done
90.57	28	nearby
92.1	28	done
100.8	29	nearby
103.24	29	done
104.87	30	nearby
106.07	30	done
107.87	31	nearby
108.77	31	done
110.07	32	nearby
111.37	32	done
113.04	33	nearby
114.1	33	done
116.74	34	nearby
117.17	34	done
119.97	35	nearby
121.24	35	done
