{
    "timestamp_waypoint": [
        12.84,
        19.04,
        22.6,
        25.64,
        27.3,
        30.0,
        31.34,
        33.5,
        35.8,
        39.8,
        41.2,
        43.37,
        46.07,
        49.14,
        50.6,
        52.84,
        54.74,
        56.94,
        58.37,
        61.2,
        63.24,
        65.3,
        67.57,
        69.97,
        74.94,
        80.37,
        85.27,
        89.24,
        100.5,
        113.34,
        117.74,
        122.07,
        125.44,
        131.54,
        138.67
    ],
    "timestamp_part": [
        12.84,
        69.97,
        89.24,
        100.5,
        138.67
    ],
    "startTime": 12.84,
    "endTime": 138.67
}