6.01	0	done
13.14	1	nearby
25.3	1	done
29.4	2	nearby
30.74	2	done
31.47	3	nearby
32.37	3	done
33.67	4	nearby
34.84	4	done
35.6	5	nearby
37.67	5	done
38.6	6	nearby
39.3	6	done
40.97	7	nearby
42	7	done
43.3	8	nearby
44.74	8	done
45.84	9	nearby
46.7	9	done
47.74	10	nearby
48.04	10	done
49.37	11	nearby
50.3	11	done
51.07	12	nearby
52.5	12	done
54.64	13	nearby
55.67	13	done
58.1	14	nearby
58.37	14	done
59.77	15	nearby
61.5	15	done
61.57	16	nearby
62.7	16	done
63.77	17	nearby
65.37	17	done
65.64	18	nearby
66.54	18	done
67.9	19	nearby
68.7	19	done
70.54	20	nearby
72.7	20	done
73	21	nearby
73.97	21	done
74.94	22	nearby
76.04	22	done
77.4	23	nearby
80	23	done
80.04	24	nearby
81.14	24	done
85.07	25	nearby
86.67	25	done
91	26	nearby
91.5	26	done
96	27	nearby
97.17	27	done
101.4	28	nearby
101.6	28	done
112.6	29	nearby
113.04	29	done
115.67	30	nearby
116.47	30	done
119.14	31	nearby
121.17	31	done
123.8	32	nearby
125.24	32	done
127.74	33	nearby
130.04	33	done
133.04	34	nearby
135.07	34	done
138.84	35	nearby
139.34	35	done
