6.01	0	done
10.84	1	nearby
30	1	done
34.5	2	nearby
36.9	2	done
37.07	3	nearby
37.94	3	done
51	4	nearby
51	4	done
51.04	5	nearby
52.87	5	done
53.7	6	nearby
62.14	6	done
63.14	7	nearby
63.6	7	done
64.54	8	nearby
65.04	8	done
66.04	9	nearby
67.37	9	done
67.44	10	nearby
79.34	10	done
79.37	11	nearby
80.54	11	done
81.47	12	nearby
81.9	12	done
83.47	13	nearby
83.8	13	done
84.94	14	nearby
85.34	14	done
85.74	15	nearby
86.1	15	done
86.54	16	nearby
86.9	16	done
87.44	17	nearby
88.17	17	done
88.27	18	nearby
89.24	18	done
89.54	19	nearby
90.2	19	done
91.04	20	nearby
91.3	20	done
92.2	21	nearby
93.74	21	done
93.9	22	nearby
95.9	22	done
97.77	23	nearby
98.84	23	done
99.97	24	nearby
100.8	24	done
104.24	25	nearby
104.57	25	done
109.4	26	nearby
110.44	26	done
113.87	27	nearby
115.07	27	done
117.3	28	nearby
124.5	28	done
135.27	29	nearby
135.84	29	done
144.64	30	nearby
144.64	30	done
147.77	31	nearby
148.3	31	done
151.27	32	nearby
152.54	32	done
164	33	nearby
165.54	33	done
168.67	34	nearby
169.07	34	done
172.87	35	nearby
173.44	35	done
