6.01	0	done
15.9	1	nearby
16.87	1	done
20.04	2	nearby
22.77	2	done
23.64	3	nearby
25.1	3	done
26.47	4	nearby
28.5	4	done
29.47	5	nearby
31.8	5	done
32.3	6	nearby
33.94	6	done
35	7	nearby
36.97	7	done
37.67	8	nearby
39.17	8	done
39.87	9	nearby
41.1	9	done
41.87	10	nearby
44.64	10	done
44.67	11	nearby
47	11	done
47.97	12	nearby
49.97	12	done
51.64	13	nearby
53.44	13	done
55.5	14	nearby
56.57	14	done
57.24	15	nearby
59	15	done
59.14	16	nearby
60.47	16	done
61.67	17	nearby
63.3	17	done
63.77	18	nearby
64.27	18	done
65.44	19	nearby
66.54	19	done
67.34	20	nearby
68.97	20	done
69	21	nearby
70.27	21	done
71.14	22	nearby
72.6	22	done
73.54	23	nearby
73.77	23	done
74.17	24	nearby
75.07	24	done
79.3	25	nearby
80.37	25	done
84.14	26	nearby
86.07	26	done
89.9	27	nearby
92.97	27	done
96.6	28	nearby
97.57	28	done
107.67	29	nearby
109.17	29	done
111	30	nearby
114.14	30	done
116.6	31	nearby
119.2	31	done
122.94	32	nearby
123.8	32	done
126.4	33	nearby
127.9	33	done
131.07	34	nearby
132.24	34	done
136.04	35	nearby
137.27	35	done
