6.01	0	done
12.94	1	nearby
19.2	1	done
23.14	2	nearby
26.67	2	done
27.4	3	nearby
29.9	3	done
31.24	4	nearby
32.34	4	done
32.57	5	nearby
35.04	5	done
35.2	6	nearby
37.8	6	done
38.34	7	nearby
39.3	7	done
40.74	8	nearby
41.2	8	done
42.67	9	nearby
43.7	9	done
44.74	10	nearby
45.64	10	done
46.54	11	nearby
48.4	11	done
49.04	12	nearby
50.04	12	done
52.17	13	nearby
52.97	13	done
55.37	14	nearby
56.97	14	done
57.77	15	nearby
58.77	15	done
60.04	16	nearby
60.77	16	done
61.74	17	nearby
63.24	17	done
64.04	18	nearby
64.94	18	done
65.97	19	nearby
66.64	19	done
68	20	nearby
70.14	20	done
70.37	21	nearby
71.94	21	done
72.74	22	nearby
73.3	22	done
74.24	23	nearby
77.04	23	done
77.94	24	nearby
78.8	24	done
82.7	25	nearby
86.2	25	done
90.34	26	nearby
91.77	26	done
95.97	27	nearby
97.8	27	done
101.4	28	nearby
101.77	28	done
112.34	29	nearby
113.17	29	done
116	30	nearby
116.54	30	done
119.57	31	nearby
120.37	31	done
123.54	32	nearby
124.17	32	done
127.04	33	nearby
127.54	33	done
130.84	34	nearby
131.54	34	done
135.04	35	nearby
136.14	35	done
