6.01	0	done
11.84	1	nearby
27.74	1	done
33.17	2	nearby
33.77	2	done
34.77	3	nearby
36.54	3	done
38	4	nearby
39.57	4	done
40.37	5	nearby
41.4	5	done
43	6	nearby
43.77	6	done
45.64	7	nearby
46.14	7	done
47.27	8	nearby
48.67	8	done
49.7	9	nearby
50.27	9	done
51.37	10	nearby
52.24	10	done
53.67	11	nearby
55.2	11	done
56.14	12	nearby
56.74	12	done
58.87	13	nearby
60.47	13	done
63	14	nearby
63.7	14	done
65.04	15	nearby
67.1	15	done
67.74	16	nearby
69.17	16	done
70.14	17	nearby
71.1	17	done
72	18	nearby
72.64	18	done
73.64	19	nearby
74.07	19	done
75.04	20	nearby
75.67	20	done
76.67	21	nearby
77.37	21	done
78.57	22	nearby
78.97	22	done
79.9	23	nearby
81	23	done
81.47	24	nearby
82.1	24	done
85.84	25	nearby
87	25	done
91.14	26	nearby
92.4	26	done
96.1	27	nearby
97.54	27	done
100.74	28	nearby
101.34	28	done
113.4	29	nearby
114.54	29	done
119.14	30	nearby
120.2	30	done
123.74	31	nearby
124.87	31	done
127.24	32	nearby
128.94	32	done
131.77	33	nearby
132.64	33	done
135.14	34	nearby
135.77	34	done
139.44	35	nearby
142.37	35	done
