6.01	0	done
7.57	1	nearby
7.94	1	done
12.64	2	nearby
12.94	2	done
14.2	3	nearby
15.54	3	done
16.6	4	nearby
17	4	done
17.9	5	nearby
18.8	5	done
19.77	6	nearby
20.07	6	done
21.44	7	nearby
21.97	7	done
23.17	8	nearby
24.1	8	done
25.84	9	nearby
26.37	9	done
27.44	10	nearby
28.34	10	done
29.24	11	nearby
29.74	11	done
30.74	12	nearby
31.17	12	done
33.87	13	nearby
35.6	13	done
38	14	nearby
38.64	14	done
40.54	15	nearby
41.07	15	done
42.14	16	nearby
43.17	16	done
44.14	17	nearby
44.54	17	done
45.77	18	nearby
46.7	18	done
47.8	19	nearby
48.6	19	done
49.34	20	nearby
50.2	20	done
51.14	21	nearby
52.77	21	done
53.67	22	nearby
54.57	22	done
55.54	23	nearby
56.2	23	done
57.54	24	nearby
58.04	24	done
61.87	25	nearby
62.57	25	done
67.44	26	nearby
67.9	26	done
72.17	27	nearby
73	27	done
77.07	28	nearby
78.6	28	done
89.07	29	nearby
90.07	29	done
93.2	30	nearby
95.64	30	done
98.8	31	nearby
99.34	31	done
102.9	32	nearby
103.87	32	done
106.54	33	nearby
108.34	33	done
110.87	34	nearby
113.56	34	done
117.97	35	nearby
118.3	35	done
