6.01	0	done
10.8	1	nearby
47.4	1	done
50.8	2	nearby
51.7	2	done
52.84	3	nearby
53.24	3	done
54.57	4	nearby
56.77	4	done
56.84	5	nearby
58.07	5	done
59.67	6	nearby
60.27	6	done
61.44	7	nearby
62.34	7	done
63.57	8	nearby
64.54	8	done
65.6	9	nearby
66.23	9	done
67.2	10	nearby
67.87	10	done
68.97	11	nearby
70.9	11	done
71.17	12	nearby
71.94	12	done
74.17	13	nearby
75.04	13	done
77.4	14	nearby
78.14	14	done
79.4	15	nearby
80.07	15	done
81.27	16	nearby
82.27	16	done
83.34	17	nearby
83.97	17	done
85.1	18	nearby
86	18	done
87.04	19	nearby
88	19	done
89.17	20	nearby
89.8	20	done
90.87	21	nearby
92.47	21	done
93.1	22	nearby
93.34	22	done
94.57	23	nearby
95.6	23	done
96.54	24	nearby
97.3	24	done
100.6	25	nearby
101.77	25	done
106.67	26	nearby
108.24	26	done
112.27	27	nearby
112.94	27	done
116.54	28	nearby
117.14	28	done
128.2	29	nearby
129.04	29	done
131.87	30	nearby
132.24	30	done
134.67	31	nearby
135.74	31	done
138.27	32	nearby
139.27	32	done
142.04	33	nearby
143.04	33	done
147	34	nearby
147.9	34	done
152.27	35	nearby
152.9	35	done
