6.01	0	done
10.47	1	nearby
31.64	1	done
35.8	2	nearby
37.7	2	done
37.77	3	nearby
41.34	3	done
42.74	4	nearby
44.5	4	done
44.67	5	nearby
47.24	5	done
47.67	6	nearby
48.2	6	done
49.3	7	nearby
51.3	7	done
51.34	8	nearby
52.77	8	done
53.67	9	nearby
54.67	9	done
55.87	10	nearby
56.7	10	done
57.5	11	nearby
58.57	11	done
59.24	12	nearby
60.04	12	done
62.27	13	nearby
63.1	13	done
65.2	14	nearby
66.07	14	done
67.04	15	nearby
67.87	15	done
68.84	16	nearby
69.34	16	done
70.54	17	nearby
72	17	done
72.44	18	nearby
73.37	18	done
74.2	19	nearby
74.7	19	done
75.94	20	nearby
76.87	20	done
77.94	21	nearby
79.2	21	done
79.87	22	nearby
80.84	22	done
82.04	23	nearby
83	23	done
83.97	24	nearby
84.3	24	done
88.8	25	nearby
89.17	25	done
93.3	26	nearby
95.14	26	done
98.87	27	nearby
99.44	27	done
103.34	28	nearby
104.7	28	done
114.64	29	nearby
117.64	29	done
120.07	30	nearby
121.04	30	done
123.94	31	nearby
124.57	31	done
127.24	32	nearby
128.6	32	done
130.9	33	nearby
132.1	33	done
134.74	34	nearby
135.87	34	done
140.4	35	nearby
140.84	35	done
