6.01	0	done
8.6	1	nearby
8.97	1	done
13.94	2	nearby
14.37	2	done
15.8	3	nearby
16.4	3	done
17.4	4	nearby
17.77	4	done
18.87	5	nearby
19.54	5	done
20.44	6	nearby
21.04	6	done
22.37	7	nearby
23.2	7	done
24.44	8	nearby
25.2	8	done
26.24	9	nearby
27.1	9	done
28.14	10	nearby
28.87	10	done
29.67	11	nearby
30.14	11	done
31.4	12	nearby
32.2	12	done
34.74	13	nearby
35.47	13	done
37.9	14	nearby
41.44	14	done
42.87	15	nearby
43.84	15	done
45.1	16	nearby
46.2	16	done
47.47	17	nearby
48.27	17	done
49.94	18	nearby
50.99	18	done
51.87	19	nearby
53.07	19	done
53.67	20	nearby
54.1	20	done
55.24	21	nearby
59.2	21	done
60.97	22	nearby
61.37	22	done
62.37	23	nearby
64.1	23	done
64.3	24	nearby
65	24	done
69.54	25	nearby
70.07	25	done
74.84	26	nearby
75.6	26	done
80.54	27	nearby
81.17	27	done
84.97	28	nearby
86.24	28	done
96.67	29	nearby
98.5	29	done
101.57	30	nearby
102.04	30	done
104.44	31	nearby
106.37	31	done
108.97	32	nearby
111.2	32	done
114.8	33	nearby
114.87	33	done
117.44	34	nearby
119.74	34	done
123.4	35	nearby
124.54	35	done
