6.01	0	done
15.84	1	nearby
16.97	1	done
20.04	2	nearby
22.9	2	done
23.64	3	nearby
25.17	3	done
26.4	4	nearby
29.24	4	done
29.54	5	nearby
31.84	5	done
32.07	6	nearby
34.74	6	done
34.97	7	nearby
36.77	7	done
37.54	8	nearby
38.44	8	done
39.84	9	nearby
41.17	9	done
41.84	10	nearby
44.67	10	done
44.7	11	nearby
47.07	11	done
47.94	12	nearby
49.97	12	done
51.67	13	nearby
53.54	13	done
55.5	14	nearby
56.54	14	done
57.24	15	nearby
59.04	15	done
59.1	16	nearby
60.47	16	done
61.67	17	nearby
62.37	17	done
63.77	18	nearby
64.17	18	done
65.5	19	nearby
67.07	19	done
67.4	20	nearby
68.94	20	done
69.2	21	nearby
70.3	21	done
71.07	22	nearby
72.57	22	done
73.54	23	nearby
73.97	23	done
74.1	24	nearby
75.14	24	done
79.3	25	nearby
79.57	25	done
84.14	26	nearby
85.94	26	done
89.9	27	nearby
92.74	27	done
96.5	28	nearby
97.57	28	done
107.67	29	nearby
109.1	29	done
111	30	nearby
113.04	30	done
116.37	31	nearby
119.2	31	done
122.94	32	nearby
123.6	32	done
126.74	33	nearby
128.04	33	done
131.07	34	nearby
132.24	34	done
136	35	nearby
137.67	35	done
