{
    "timestamp_waypoint": [
        16.07,
        20.2,
        21.74,
        25.47,
        27.67,
        30.64,
        32.34,
        35.1,
        38.34,
        40.37,
        43.57,
        44.97,
        48.27,
        52.27,
        54.8,
        56.4,
        58.74,
        60.5,
        62.97,
        64.0,
        67.5,
        70.9,
        72.1,
        73.74,
        78.24,
        84.64,
        90.17,
        95.37,
        106.84,
        110.14,
        112.97,
        117.47,
        121.47,
        126.07,
        130.64
    ],
    "timestamp_part": [
        16.07,
        73.74,
        95.37,
        106.84,
        130.64
    ],
    "startTime": 16.07,
    "endTime": 130.64
}