{
    "timestamp_waypoint": [
        14.24,
        19.97,
        23.04,
        26.37,
        29.07,
        30.4,
        32.34,
        34.37,
        36.57,
        38.14,
        39.84,
        43.17,
        45.94,
        48.6,
        50.17,
        51.64,
        53.44,
        56.9,
        57.94,
        59.44,
        61.47,
        63.57,
        66.07,
        67.27,
        72.2,
        78.04,
        83.33,
        87.64,
        99.1,
        104.04,
        106.87,
        110.97,
        115.14,
        120.24,
        124.97
    ],
    "timestamp_part": [
        14.24,
        67.27,
        87.64,
        99.1,
        124.97
    ],
    "startTime": 14.24,
    "endTime": 124.97
}