6.01	0	done
16.8	1	nearby
17.74	1	done
20.5	2	nearby
20.64	2	done
21.14	3	nearby
22.7	3	done
23.6	4	nearby
25.4	4	done
25.44	5	nearby
27.7	5	done
27.74	6	nearby
29.44	6	done
29.6	7	nearby
31.14	7	done
31.2	8	nearby
32.9	8	done
32.94	9	nearby
34.74	9	done
34.94	10	nearby
36.44	10	done
37.9	11	nearby
39.37	11	done
39.4	12	nearby
39.64	12	done
42.7	13	nearby
42.9	13	done
44.64	14	nearby
46.17	14	done
46.94	15	nearby
47.37	15	done
48	16	nearby
48.3	16	done
49.37	17	nearby
50.37	17	done
50.94	18	nearby
51.3	18	done
52.57	19	nearby
52.94	19	done
53.1	20	nearby
54.37	20	done
54.74	21	nearby
56.34	21	done
56.5	22	nearby
58.1	22	done
59.14	23	nearby
61.27	23	done
61.34	24	nearby
64.27	24	done
67.5	25	nearby
72	25	done
75.7	26	nearby
76.9	26	done
79.84	27	nearby
80.3	27	done
83.2	28	nearby
83.2	28	done
91.64	29	nearby
93.34	29	done
96.07	30	nearby
96.37	30	done
99.37	31	nearby
100.04	31	done
102.24	32	nearby
103.8	32	done
106.9	33	nearby
107.04	33	done
109.9	34	nearby
110.4	34	done
113.47	35	nearby
114.94	35	done
