6.01	0	done
13.24	1	nearby
16.54	1	done
20	2	nearby
23.07	2	done
23.47	3	nearby
24.57	3	done
25.64	4	nearby
27.4	4	done
28.24	5	nearby
29.7	5	done
30.24	6	nearby
32.64	6	done
32.97	7	nearby
34.04	7	done
35.2	8	nearby
36.4	8	done
37.67	9	nearby
38.24	9	done
39.5	10	nearby
40.9	10	done
41.44	11	nearby
43.27	11	done
43.8	12	nearby
44.7	12	done
47	13	nearby
47.5	13	done
49.8	14	nearby
50.27	14	done
51.74	15	nearby
54.67	15	done
55.47	16	nearby
56.97	16	done
57.37	17	nearby
59.57	17	done
59.64	18	nearby
60.84	18	done
61.84	19	nearby
64.07	19	done
64.54	20	nearby
65.14	20	done
66.74	21	nearby
67.34	21	done
68.2	22	nearby
69.7	22	done
70.8	23	nearby
72	23	done
72.34	24	nearby
72.84	24	done
77	25	nearby
77.37	25	done
81.9	26	nearby
83.94	26	done
87.4	27	nearby
89.4	27	done
93.7	28	nearby
93.94	28	done
105.64	29	nearby
107	29	done
109.34	30	nearby
110.2	30	done
112.7	31	nearby
113.9	31	done
116.57	32	nearby
117.77	32	done
120.57	33	nearby
122.17	33	done
124.94	34	nearby
127.34	34	done
131.6	35	nearby
131.97	35	done
