6.01	0	done
7.64	1	nearby
7.94	1	done
12.4	2	nearby
12.74	2	done
14	3	nearby
15.8	3	done
16.77	4	nearby
16.94	4	done
17.8	5	nearby
18.2	5	done
19.17	6	nearby
20.57	6	done
21.47	7	nearby
21.67	7	done
22.94	8	nearby
23.9	8	done
25.2	9	nearby
25.54	9	done
26.57	10	nearby
28.47	10	done
28.77	11	nearby
29.67	11	done
30.54	12	nearby
31.37	12	done
33.57	13	nearby
34.77	13	done
36.97	14	nearby
38.04	14	done
39.3	15	nearby
41.04	15	done
41.47	16	nearby
42.04	16	done
43.14	17	nearby
44.17	17	done
45.34	18	nearby
46.09	18	done
47.24	19	nearby
47.84	19	done
49	20	nearby
49.7	20	done
50.57	21	nearby
51.74	21	done
52.74	22	nearby
53.67	22	done
55.54	23	nearby
55.8	23	done
56.84	24	nearby
59.1	24	done
62.24	25	nearby
62.87	25	done
66.97	26	nearby
68.54	26	done
72.34	27	nearby
73.27	27	done
78.17	28	nearby
78.47	28	done
89.14	29	nearby
89.44	29	done
92.87	30	nearby
93.84	30	done
96.3	31	nearby
97.14	31	done
100.37	32	nearby
100.77	32	done
103.14	33	nearby
105.4	33	done
107.74	34	nearby
109.1	34	done
113.04	35	nearby
113.64	35	done
