6.01	0	done
14.67	1	nearby
15.54	1	done
19	2	nearby
19.9	2	done
20.47	3	nearby
22.1	3	done
23.17	4	nearby
25.37	4	done
26.24	5	nearby
28.27	5	done
28.34	6	nearby
31.24	6	done
31.3	7	nearby
32.7	7	done
34.17	8	nearby
35.57	8	done
36.8	9	nearby
38.2	9	done
39.07	10	nearby
41.3	10	done
41.34	11	nearby
43.44	11	done
44.27	12	nearby
44.77	12	done
47.17	13	nearby
47.74	13	done
50.27	14	nearby
51.04	14	done
52.07	15	nearby
53.87	15	done
54.34	16	nearby
55.17	16	done
56.5	17	nearby
58.37	17	done
58.47	18	nearby
60.47	18	done
61.04	19	nearby
61.8	19	done
62.84	20	nearby
64.37	20	done
64.7	21	nearby
66.24	21	done
67.27	22	nearby
68.34	22	done
70.04	23	nearby
70.27	23	done
71.27	24	nearby
72.87	24	done
76.1	25	nearby
77.4	25	done
82.64	26	nearby
83.77	26	done
88.57	27	nearby
90.54	27	done
95.14	28	nearby
95.34	28	done
106.6	29	nearby
108.3	29	done
110.84	30	nearby
112.9	30	done
115.77	31	nearby
115.94	31	done
118.94	32	nearby
120.5	32	done
124.24	33	nearby
125.87	33	done
128.67	34	nearby
129.4	34	done
133.44	35	nearby
134.94	35	done
