6.01	0	done
11.87	1	nearby
26.9	1	done
33.17	2	nearby
33.9	2	done
33.97	3	nearby
36.64	3	done
37.94	4	nearby
39.67	4	done
40.54	5	nearby
41.37	5	done
43.2	6	nearby
44.1	6	done
45.74	7	nearby
46.17	7	done
47.37	8	nearby
48.7	8	done
49.67	9	nearby
50.4	9	done
51.94	10	nearby
52.34	10	done
53.7	11	nearby
55.2	11	done
56.14	12	nearby
56.57	12	done
58.94	13	nearby
60.47	13	done
63	14	nearby
63.74	14	done
64.97	15	nearby
67.07	15	done
67.7	16	nearby
69.24	16	done
70.17	17	nearby
70.87	17	done
71.9	18	nearby
72.7	18	done
73.57	19	nearby
74.04	19	done
75.07	20	nearby
75.67	20	done
76.64	21	nearby
78.07	21	done
78.54	22	nearby
78.94	22	done
79.9	23	nearby
81.17	23	done
81.5	24	nearby
82.14	24	done
85.97	25	nearby
87.07	25	done
90.94	26	nearby
93.17	26	done
96.1	27	nearby
97.5	27	done
100.74	28	nearby
101.34	28	done
113.37	29	nearby
114.54	29	done
119.07	30	nearby
120.3	30	done
123.74	31	nearby
124.87	31	done
127.2	32	nearby
128.9	32	done
131.74	33	nearby
132.64	33	done
135.1	34	nearby
135.77	34	done
139.44	35	nearby
140.84	35	done
