0	0	1	0	0	0
0	1	1	0	0	0
0	1.25	1	0	0	0
0	1.5	1	30	0	0
0	1.75	1.125	30	0	0
0	2	1.25	30	0	0
0	2.25	1.375	30	0	0
0	2.5	1.5	30	0	0
0	2.75	1.625	30	0	0
0	3	1.75	30	0	0
0	3.25	1.875	30	0	0
0	3.5	2	20	0	0
0	4	2	0	0	0
0	4.5	2	-20	0	0
0	4.75	1.875	-30	0	0
0	5	1.75	-30	0	0
0	5.25	1.625	-30	0	0
0	5.5	1.5	-30	0	0
0	5.75	1.375	-30	0	0
0	6	1.25	-30	0	0
0	6.25	1.125	-30	0	0
0	6.5	1	-30	0	0
0	6.75	1	0	0	0
0	7	1	0	0	0
0	8	1	0	0	0
1	8	1	45	0	0
2	8	1	45	0	0
3	8	1	0	0	0
3.0	2.0	1	0.0	0.0	0.0
2.9021	1.3819	1	0.0	0.0	-18.0
2.6180	0.8244	1	0.0	0.0	-36.0
2.1755	0.3819	1	0.0	0.0	-54.0
1.6180	0.0978	1	0.0	0.0	-72.0
1.0	0.0	1	0.0	0.0	-90.0
0	0	1	0	0	-90
