6.01	0	done
9.4	1	nearby
13.3	1	done
17.57	2	nearby
17.9	2	done
18.94	3	nearby
20	3	done
21.2	4	nearby
21.7	4	done
22.84	5	nearby
23.87	5	done
25.1	6	nearby
26.17	6	done
27.27	7	nearby
27.7	7	done
28.74	8	nearby
29.64	8	done
30.94	9	nearby
31.6	9	done
32.64	10	nearby
33.17	10	done
34.3	11	nearby
35.17	11	done
36.47	12	nearby
37.34	12	done
39.77	13	nearby
40.44	13	done
42.54	14	nearby
43.1	14	done
44.14	15	nearby
45.1	15	done
46.14	16	nearby
47.9	16	done
48.57	17	nearby
49.44	17	done
50.24	18	nearby
51.04	18	done
52.14	19	nearby
53.5	19	done
54.47	20	nearby
55.1	20	done
56.34	21	nearby
57.74	21	done
58.4	22	nearby
60.3	22	done
61.4	23	nearby
61.74	23	done
62.84	24	nearby
63.17	24	done
66.9	25	nearby
68.17	25	done
72.47	26	nearby
73.34	26	done
78.07	27	nearby
78.5	27	done
82.47	28	nearby
83.84	28	done
94.7	29	nearby
97.34	29	done
100.67	30	nearby
101	30	done
104.24	31	nearby
104.5	31	done
107.1	32	nearby
108.47	32	done
110.7	33	nearby
111.74	33	done
114.34	34	nearby
115.3	34	done
119.86	35	nearby
120.94	35	done
