{
    "timestamp_waypoint": [
        7.9,
        12.87,
        15.14,
        17.2,
        18.7,
        20.4,
        22.47,
        24.44,
        26.2,
        28.24,
        29.74,
        31.77,
        34.74,
        38.2,
        40.4,
        42.47,
        44.67,
        47.24,
        48.24,
        50.64,
        53.07,
        55.3,
        56.67,
        57.9,
        65.54,
        70.6,
        75.6,
        80.87,
        91.94,
        96.34,
        100.17,
        104.37,
        108.77,
        114.6,
        119.54
    ],
    "timestamp_part": [
        7.9,
        57.9,
        80.87,
        91.94,
        119.54
    ],
    "startTime": 7.9,
    "endTime": 119.54
}