6.01	0	done
12.07	1	nearby
42	1	done
45.44	2	nearby
47.9	2	done
47.94	3	nearby
49.37	3	done
50.87	4	nearby
53.14	4	done
53.24	5	nearby
54.77	5	done
55.74	6	nearby
56.47	6	done
57.47	7	nearby
59.1	7	done
59.2	8	nearby
59.9	8	done
61.1	9	nearby
61.9	9	done
62.67	10	nearby
63.94	10	done
64.3	11	nearby
66.44	11	done
66.5	12	nearby
67.37	12	done
69.67	13	nearby
70.5	13	done
72.54	14	nearby
72.84	14	done
74.1	15	nearby
74.7	15	done
75.87	16	nearby
76.67	16	done
77.6	17	nearby
78.54	17	done
79.8	18	nearby
80.74	18	done
81.84	19	nearby
82.2	19	done
83.4	20	nearby
84.27	20	done
85.44	21	nearby
85.74	21	done
86.94	22	nearby
87.94	22	done
89.14	23	nearby
90.34	23	done
90.87	24	nearby
91.5	24	done
95.2	25	nearby
96	25	done
100.47	26	nearby
102.37	26	done
106.6	27	nearby
107.9	27	done
111.67	28	nearby
113.14	28	done
124.37	29	nearby
125.17	29	done
128.4	30	nearby
129.07	30	done
131.9	31	nearby
132.9	31	done
135.44	32	nearby
137.64	32	done
139.87	33	nearby
141.64	33	done
144.47	34	nearby
145.1	34	done
149.7	35	nearby
150.84	35	done
