6.01	0	done
11.1	1	nearby
59.64	1	done
63.74	2	nearby
64.1	2	done
65.2	3	nearby
66.07	3	done
66.97	4	nearby
67.54	4	done
68.57	5	nearby
70.17	5	done
70.94	6	nearby
72.17	6	done
72.8	7	nearby
73.3	7	done
74.94	8	nearby
76.04	8	done
76.6	9	nearby
77.17	9	done
78.87	10	nearby
80.27	10	done
80.8	11	nearby
81.44	11	done
82.6	12	nearby
83.84	12	done
85.77	13	nearby
87.04	13	done
89.1	14	nearby
89.37	14	done
90.7	15	nearby
91.47	15	done
92.4	16	nearby
93.34	16	done
94.5	17	nearby
94.84	17	done
95.87	18	nearby
96.27	18	done
97.4	19	nearby
98.34	19	done
99.34	20	nearby
99.87	20	done
100.9	21	nearby
101.4	21	done
102.77	22	nearby
103.34	22	done
104.27	23	nearby
105.87	23	done
106.37	24	nearby
107.27	24	done
111.84	25	nearby
112.37	25	done
116	26	nearby
117	26	done
121.64	27	nearby
122.47	27	done
126.14	28	nearby
127.24	28	done
137.7	29	nearby
138.14	29	done
140.77	30	nearby
141.9	30	done
144.47	31	nearby
149.27	31	done
152.47	32	nearby
153.27	32	done
156.94	33	nearby
158.74	33	done
161.54	34	nearby
162.64	34	done
166.97	35	nearby
167.44	35	done
