6.01	0	done
10.1	1	nearby
11.7	1	done
15.14	2	nearby
16.54	2	done
16.64	3	nearby
17.9	3	done
19	4	nearby
19.97	4	done
20.04	5	nearby
21.14	5	done
22.04	6	nearby
22.5	6	done
23.54	7	nearby
24	7	done
24.97	8	nearby
26.1	8	done
26.3	9	nearby
27.1	9	done
27.8	10	nearby
29.17	10	done
29.54	11	nearby
29.94	11	done
31	12	nearby
31.44	12	done
33.27	13	nearby
33.57	13	done
35.47	14	nearby
36.74	14	done
37.37	15	nearby
37.9	15	done
38.74	16	nearby
40.14	16	done
40.47	17	nearby
42.1	17	done
42.74	18	nearby
43.1	18	done
44.57	19	nearby
45.07	19	done
45.7	20	nearby
46.44	20	done
47.07	21	nearby
48.54	21	done
48.77	22	nearby
50.44	22	done
51.5	23	nearby
51.74	23	done
52.3	24	nearby
53.17	24	done
55.97	25	nearby
56.34	25	done
58.87	26	nearby
59.94	26	done
62.97	27	nearby
63.74	27	done
66.94	28	nearby
67	28	done
75.34	29	nearby
75.57	29	done
77.74	30	nearby
78.97	30	done
81	31	nearby
82.34	31	done
84.1	32	nearby
85.24	32	done
87.74	33	nearby
88.74	33	done
94.84	34	nearby
99.07	34	done
101.44	35	nearby
104.44	35	done
