6.01	0	done
15.64	1	nearby
16.5	1	done
19.64	2	nearby
23.94	2	done
23.97	3	nearby
24.94	3	done
26.54	4	nearby
28.87	4	done
29.67	5	nearby
31.3	5	done
32.17	6	nearby
33.04	6	done
34.2	7	nearby
35.07	7	done
36.4	8	nearby
38.4	8	done
38.44	9	nearby
41.34	9	done
41.4	10	nearby
43.54	10	done
43.64	11	nearby
45.5	11	done
46.7	12	nearby
46.9	12	done
48.8	13	nearby
49.07	13	done
51.94	14	nearby
52.17	14	done
53.67	15	nearby
55.7	15	done
55.74	16	nearby
57	16	done
57.44	17	nearby
59.14	17	done
59.2	18	nearby
60.54	18	done
61.6	19	nearby
61.9	19	done
63.24	20	nearby
65.27	20	done
65.94	21	nearby
67.27	21	done
68.4	22	nearby
70.67	22	done
71.3	23	nearby
71.6	23	done
72.77	24	nearby
73.37	24	done
77	25	nearby
77.54	25	done
88.17	26	nearby
89.2	26	done
92.94	27	nearby
95.5	27	done
98.9	28	nearby
100.7	28	done
111.37	29	nearby
113.67	29	done
116.8	30	nearby
118.34	30	done
121.6	31	nearby
123.6	31	done
126.64	32	nearby
126.94	32	done
130.17	33	nearby
130.94	33	done
133.6	34	nearby
133.7	34	done
137.37	35	nearby
138.57	35	done
