6.01	0	done
14.77	1	nearby
15.64	1	done
19.87	2	nearby
20.34	2	done
21.77	3	nearby
22.97	3	done
24.4	4	nearby
27	4	done
27.07	5	nearby
29.97	5	done
30.54	6	nearby
32.57	6	done
32.97	7	nearby
34.87	7	done
35.47	8	nearby
37.8	8	done
37.87	9	nearby
40.87	9	done
40.9	10	nearby
42.94	10	done
43.4	11	nearby
44.97	11	done
45.7	12	nearby
46.6	12	done
48.64	13	nearby
49.27	13	done
51.77	14	nearby
52.17	14	done
53.4	15	nearby
55.14	15	done
56	16	nearby
57.04	16	done
57.97	17	nearby
59.7	17	done
60.44	18	nearby
61.6	18	done
62.67	19	nearby
63.84	19	done
64.64	20	nearby
65.04	20	done
66.67	21	nearby
68.14	21	done
68.67	22	nearby
70.14	22	done
71.1	23	nearby
71.7	23	done
72.6	24	nearby
73.2	24	done
76.3	25	nearby
77.64	25	done
82.34	26	nearby
82.94	26	done
86.7	27	nearby
88.44	27	done
93.57	28	nearby
95	28	done
105.44	29	nearby
106.3	29	done
109.8	30	nearby
110.5	30	done
113.47	31	nearby
115.14	31	done
117.87	32	nearby
118.7	32	done
122.9	33	nearby
123.57	33	done
126.4	34	nearby
129.04	34	done
132.87	35	nearby
134.14	35	done
