6.01	0	done
14.87	1	nearby
18.47	1	done
21.3	2	nearby
22.9	2	done
23.07	3	nearby
24.37	3	done
27	4	nearby
27.57	4	done
27.6	5	nearby
30.47	5	done
30.77	6	nearby
32.04	6	done
32.44	7	nearby
34	7	done
34.07	8	nearby
35.7	8	done
35.8	9	nearby
38.7	9	done
38.74	10	nearby
41.54	10	done
41.7	11	nearby
42.44	11	done
43.37	12	nearby
44.34	12	done
45.7	13	nearby
46.6	13	done
48.24	14	nearby
51.14	14	done
52.1	15	nearby
53.74	15	done
54.24	16	nearby
55.3	16	done
56.14	17	nearby
56.44	17	done
56.94	18	nearby
58.24	18	done
58.47	19	nearby
59.4	19	done
60.07	20	nearby
60.54	20	done
61.74	21	nearby
61.87	21	done
62.84	22	nearby
63.04	22	done
64.04	23	nearby
73.17	23	done
73.34	24	nearby
75	24	done
77.74	25	nearby
77.84	25	done
82.57	26	nearby
82.57	26	done
85.7	27	nearby
86.34	27	done
89.2	28	nearby
89.27	28	done
98.44	29	nearby
98.94	29	done
102.1	30	nearby
103.77	30	done
107.8	31	nearby
107.8	31	done
113.07	32	nearby
114.37	32	done
118.17	33	nearby
118.94	33	done
121	34	nearby
121.9	34	done
124.84	35	nearby
