6.01	0	done
10.87	1	nearby
14.47	1	done
17.14	2	nearby
18.47	2	done
18.94	3	nearby
19.2	3	done
20.74	4	nearby
21.9	4	done
21.94	5	nearby
24.37	5	done
25.34	6	nearby
26.6	6	done
26.67	7	nearby
28.9	7	done
29.14	8	nearby
31.1	8	done
31.2	9	nearby
32.74	9	done
33.27	10	nearby
34.8	10	done
34.9	11	nearby
37.3	11	done
38.77	12	nearby
39.67	12	done
41.04	13	nearby
42.54	13	done
44.67	14	nearby
45.77	14	done
46.44	15	nearby
47.14	15	done
47.8	16	nearby
49.07	16	done
49.7	17	nearby
51.24	17	done
53.44	18	nearby
53.44	18	done
53.57	19	nearby
55.84	19	done
55.94	20	nearby
57.24	20	done
57.94	21	nearby
59.4	21	done
59.44	22	nearby
62	22	done
62.77	23	nearby
64.54	23	done
65.04	24	nearby
66.17	24	done
68.7	25	nearby
69.04	25	done
73.24	26	nearby
74.37	26	done
77.44	27	nearby
78.2	27	done
81.14	28	nearby
91.2	28	done
100.4	29	nearby
101.97	29	done
104.17	30	nearby
106.1	30	done
108	31	nearby
109.1	31	done
110.34	32	nearby
111.8	32	done
113.77	33	nearby
114.07	33	done
119.67	34	nearby
120.07	34	done
125.07	35	nearby
