{
    "timestamp_waypoint": [
        25.9,
        32.44,
        34.57,
        36.47,
        38.94,
        40.9,
        42.54,
        45.9,
        48.47,
        49.64,
        51.74,
        53.37,
        56.27,
        59.47,
        61.3,
        63.6,
        65.97,
        67.6,
        69.5,
        72.57,
        73.77,
        75.57,
        78.34,
        79.8,
        84.87,
        90.7,
        95.84,
        100.4,
        112.87,
        116.9,
        122.04,
        126.24,
        130.77,
        133.49,
        138.1
    ],
    "timestamp_part": [
        25.9,
        79.8,
        100.4,
        112.87,
        138.1
    ],
    "startTime": 25.9,
    "endTime": 138.1
}