6.01	0	done
10.97	1	nearby
26.67	1	done
30.74	2	nearby
32.17	2	done
32.97	3	nearby
33.44	3	done
34.5	4	nearby
39.07	4	done
40.7	5	nearby
42.77	5	done
42.8	6	nearby
44.77	6	done
45.5	7	nearby
47.17	7	done
47.2	8	nearby
48.57	8	done
49.47	9	nearby
51.04	9	done
51.1	10	nearby
51.9	10	done
53.14	11	nearby
54.1	11	done
54.97	12	nearby
55.54	12	done
57.7	13	nearby
58.97	13	done
60.77	14	nearby
62.77	14	done
63.77	15	nearby
65.04	15	done
65.87	16	nearby
66.14	16	done
67.3	17	nearby
70.24	17	done
70.57	18	nearby
73.14	18	done
73.4	19	nearby
75.34	19	done
75.57	20	nearby
77.27	20	done
78.27	21	nearby
81.34	21	done
81.4	22	nearby
85.34	22	done
86.44	23	nearby
87.67	23	done
88.54	24	nearby
89	24	done
92.84	25	nearby
93.97	25	done
97.87	26	nearby
99.2	26	done
103.9	27	nearby
104.57	27	done
108.74	28	nearby
109.57	28	done
120.24	29	nearby
121.2	29	done
124.64	30	nearby
125.47	30	done
128.6	31	nearby
129.57	31	done
131.84	32	nearby
132.54	32	done
134.94	33	nearby
135.74	33	done
138.5	34	nearby
139.4	34	done
143.67	35	nearby
144.17	35	done
