{
    "timestamp_waypoint": [
        19.1,
        26.2,
        28.37,
        31.27,
        33.6,
        35.64,
        36.94,
        38.7,
        42.67,
        44.34,
        46.3,
        47.57,
        50.3,
        52.77,
        54.4,
        55.87,
        58.0,
        59.84,
        61.67,
        63.74,
        65.6,
        67.54,
        69.9,
        70.87,
        75.07,
        80.87,
        87.9,
        92.8,
        106.0,
        109.24,
        114.37,
        118.87,
        124.27,
        128.9,
        136.04
    ],
    "timestamp_part": [
        19.1,
        70.87,
        92.8,
        106.0,
        136.04
    ],
    "startTime": 19.1,
    "endTime": 136.04
}