6.01	0	done
10.84	1	nearby
15.87	1	done
20	2	nearby
20.54	2	done
20.87	3	nearby
24.3	3	done
25.84	4	nearby
29.77	4	done
30.64	5	nearby
32.94	5	done
33.3	6	nearby
34.5	6	done
35.27	7	nearby
36	7	done
37.24	8	nearby
38.44	8	done
39.07	9	nearby
39.87	9	done
40.9	10	nearby
41.87	10	done
42.74	11	nearby
45.14	11	done
45.57	12	nearby
47.27	12	done
49.27	13	nearby
51.24	13	done
53.24	14	nearby
55.34	14	done
55.54	15	nearby
56.37	15	done
57.54	16	nearby
58.7	16	done
59.54	17	nearby
60.17	17	done
61.1	18	nearby
61.97	18	done
63.1	19	nearby
63.77	19	done
64.74	20	nearby
65.57	20	done
66.4	21	nearby
68.8	21	done
68.87	22	nearby
69.84	22	done
71.24	23	nearby
72.3	23	done
73.07	24	nearby
73.47	24	done
77.24	25	nearby
78.7	25	done
82.6	26	nearby
84.44	26	done
88.54	27	nearby
89.97	27	done
93.67	28	nearby
94.8	28	done
105.74	29	nearby
106.6	29	done
109.14	30	nearby
110.5	30	done
114.3	31	nearby
115.8	31	done
118.74	32	nearby
120.77	32	done
123.07	33	nearby
124.3	33	done
127.2	34	nearby
127.77	34	done
132.24	35	nearby
132.54	35	done
