{
    "timestamp_waypoint": [
        15.14,
        31.34,
        33.47,
        35.67,
        38.97,
        40.94,
        43.87,
        44.9,
        47.3,
        50.0,
        50.97,
        53.2,
        56.47,
        58.97,
        60.8,
        65.8,
        66.97,
        69.07,
        71.14,
        72.64,
        74.5,
        75.7,
        78.84,
        81.2,
        84.47,
        90.4,
        96.04,
        100.67,
        111.17,
        117.2,
        121.64,
        126.4,
        131.04,
        135.5,
        142.14
    ],
    "timestamp_part": [
        15.14,
        81.2,
        100.67,
        111.17,
        142.14
    ],
    "startTime": 15.14,
    "endTime": 142.14
}