{
    "timestamp_waypoint": [
        16.7,
        23.57,
        25.17,
        27.87,
        31.0,
        33.37,
        35.4,
        37.97,
        40.94,
        43.6,
        45.87,
        47.2,
        51.47,
        54.7,
        57.5,
        59.47,
        60.74,
        62.77,
        64.4,
        66.1,
        69.17,
        71.6,
        73.04,
        74.74,
        79.67,
        85.2,
        90.77,
        95.9,
        107.24,
        110.9,
        114.14,
        117.84,
        122.8,
        126.64,
        131.44
    ],
    "timestamp_part": [
        16.7,
        74.74,
        95.9,
        107.24,
        131.44
    ],
    "startTime": 16.7,
    "endTime": 131.44
}