6.01	0	done
10.6	1	nearby
21.04	1	done
24.7	2	nearby
25.67	2	done
26.77	3	nearby
27.34	3	done
28.57	4	nearby
30.94	4	done
31.9	5	nearby
32.87	5	done
33.94	6	nearby
35.9	6	done
35.94	7	nearby
36.9	7	done
38.94	8	nearby
40.14	8	done
41.24	9	nearby
41.57	9	done
42.7	10	nearby
43.64	10	done
44.64	11	nearby
45.5	11	done
46.37	12	nearby
46.77	12	done
49.3	13	nearby
49.5	13	done
51.1	14	nearby
51.74	14	done
52.9	15	nearby
53.84	15	done
54.94	16	nearby
55.94	16	done
56.74	17	nearby
57.6	17	done
58.8	18	nearby
59.74	18	done
60.57	19	nearby
61.14	19	done
62.37	20	nearby
62.87	20	done
64	21	nearby
65.57	21	done
65.94	22	nearby
66.64	22	done
69.04	23	nearby
70	23	done
71.14	24	nearby
73.7	24	done
77.17	25	nearby
77.97	25	done
82.77	26	nearby
84.04	26	done
86.87	27	nearby
87.04	27	done
91.6	28	nearby
91.94	28	done
105.34	29	nearby
106.2	29	done
108.3	30	nearby
109.1	30	done
112.2	31	nearby
116.24	31	done
119.34	32	nearby
119.84	32	done
123.17	33	nearby
123.5	33	done
126.67	34	nearby
126.97	34	done
131.34	35	nearby
131.7	35	done
