6.01	0	done
16.84	1	nearby
17.64	1	done
20.5	2	nearby
20.74	2	done
20.94	3	nearby
22.37	3	done
23.67	4	nearby
24.07	4	done
24.9	5	nearby
27.67	5	done
27.74	6	nearby
29.44	6	done
29.57	7	nearby
31.1	7	done
31.17	8	nearby
32.87	8	done
32.9	9	nearby
34.6	9	done
34.77	10	nearby
36.44	10	done
38	11	nearby
38.1	11	done
39.37	12	nearby
40.9	12	done
42.54	13	nearby
43	13	done
44.64	14	nearby
45.14	14	done
47.04	15	nearby
47.57	15	done
47.77	16	nearby
48.3	16	done
49.3	17	nearby
50.27	17	done
50.97	18	nearby
51.3	18	done
52.47	19	nearby
52.74	19	done
53.07	20	nearby
54.74	20	done
54.84	21	nearby
56.17	21	done
56.44	22	nearby
58.04	22	done
58.87	23	nearby
62.94	23	done
63	24	nearby
64.7	24	done
67.5	25	nearby
72.94	25	done
75.67	26	nearby
76.8	26	done
79.84	27	nearby
80.07	27	done
83.17	28	nearby
83.2	28	done
91.67	29	nearby
93.34	29	done
96.2	30	nearby
96.77	30	done
99.4	31	nearby
100.47	31	done
102.24	32	nearby
103.84	32	done
107.1	33	nearby
107.1	33	done
109.87	34	nearby
110.4	34	done
113.84	35	nearby
114.7	35	done
