6.01	0	done
10.64	1	nearby
39.1	1	done
43	2	nearby
45.04	2	done
45.27	3	nearby
47.2	3	done
48.27	4	nearby
48.9	4	done
49.54	5	nearby
51.84	5	done
51.9	6	nearby
54.2	6	done
54.27	7	nearby
55.2	7	done
56.27	8	nearby
58.34	8	done
58.74	9	nearby
59.3	9	done
60.4	10	nearby
61.5	10	done
62.17	11	nearby
64.14	11	done
64.44	12	nearby
66.07	12	done
68.97	13	nearby
69.7	13	done
71.14	14	nearby
71.84	14	done
73.14	15	nearby
73.4	15	done
74.64	16	nearby
76.57	16	done
77.2	17	nearby
77.64	17	done
79	18	nearby
80.4	18	done
80.84	19	nearby
81.74	19	done
82.87	20	nearby
84	20	done
84.8	21	nearby
86.44	21	done
86.8	22	nearby
89.27	22	done
90.1	23	nearby
91.44	23	done
91.97	24	nearby
92.44	24	done
96.04	25	nearby
96.57	25	done
100.27	26	nearby
101.17	26	done
106.27	27	nearby
106.67	27	done
110.67	28	nearby
115.14	28	done
125.8	29	nearby
126.54	29	done
130.04	30	nearby
130.64	30	done
133	31	nearby
133.8	31	done
136.14	32	nearby
138.2	32	done
140.54	33	nearby
141.77	33	done
144.37	34	nearby
145.3	34	done
150.07	35	nearby
150.4	35	done
