{
    "timestamp_waypoint": [
        16.94,
        24.1,
        27.34,
        30.47,
        33.57,
        35.77,
        37.3,
        39.04,
        41.04,
        42.74,
        44.74,
        46.87,
        49.77,
        52.5,
        54.6,
        56.77,
        58.0,
        60.24,
        62.07,
        63.74,
        65.84,
        67.27,
        69.3,
        73.54,
        82.4,
        87.94,
        92.9,
        96.54,
        108.64,
        112.27,
        115.6,
        120.07,
        126.27,
        130.87,
        135.77
    ],
    "timestamp_part": [
        16.94,
        73.54,
        96.54,
        108.64,
        135.77
    ],
    "startTime": 16.94,
    "endTime": 135.77
}