6.01	0	done
14.34	1	nearby
16.1	1	done
20.44	2	nearby
20.74	2	done
22.27	3	nearby
32.14	3	done
33.34	4	nearby
34.44	4	done
35.1	5	nearby
36.2	5	done
37.44	6	nearby
39.17	6	done
40.14	7	nearby
40.54	7	done
41.94	8	nearby
42.74	8	done
43.64	9	nearby
45.34	9	done
45.7	10	nearby
47.77	10	done
48.37	11	nearby
48.9	11	done
50	12	nearby
50.4	12	done
52.84	13	nearby
53.27	13	done
55.2	14	nearby
58.04	14	done
58.14	15	nearby
59.4	15	done
60.77	16	nearby
61.3	16	done
62.24	17	nearby
62.87	17	done
63.94	18	nearby
64.74	18	done
65.54	19	nearby
68	19	done
69.17	20	nearby
70.54	20	done
71.47	21	nearby
72.94	21	done
73.5	22	nearby
74.74	22	done
75.77	23	nearby
79.94	23	done
81.3	24	nearby
82.7	24	done
86.34	25	nearby
86.44	25	done
91.24	26	nearby
92.94	26	done
97.34	27	nearby
97.57	27	done
101.27	28	nearby
102.77	28	done
113.97	29	nearby
114.74	29	done
117.7	30	nearby
119.1	30	done
124.77	31	nearby
130.2	31	done
133.17	32	nearby
133.64	32	done
137.07	33	nearby
138.2	33	done
140.9	34	nearby
142.2	34	done
146.4	35	nearby
147.34	35	done
