6.01	0	done
10.97	1	nearby
17.97	1	done
21.9	2	nearby
25.97	2	done
27.17	3	nearby
29.17	3	done
30.2	4	nearby
32.17	4	done
32.27	5	nearby
35.5	5	done
36.3	6	nearby
37.87	6	done
38.64	7	nearby
39.5	7	done
41.14	8	nearby
42.27	8	done
43.1	9	nearby
43.84	9	done
44.7	10	nearby
45.67	10	done
46.6	11	nearby
47.24	11	done
48.6	12	nearby
49.24	12	done
51.34	13	nearby
52.14	13	done
54.9	14	nearby
55.54	14	done
56.67	15	nearby
58.44	15	done
58.97	16	nearby
59.74	16	done
60.64	17	nearby
61.9	17	done
62.87	18	nearby
63.5	18	done
64.8	19	nearby
65.64	19	done
66.54	20	nearby
68.07	20	done
68.67	21	nearby
69.04	21	done
70.14	22	nearby
72.17	22	done
73.24	23	nearby
74.04	23	done
74.5	24	nearby
74.87	24	done
79.24	25	nearby
79.7	25	done
83.84	26	nearby
84.74	26	done
88.97	27	nearby
90.34	27	done
95.14	28	nearby
95.94	28	done
106.87	29	nearby
108.37	29	done
110.64	30	nearby
112.64	30	done
115.77	31	nearby
116.34	31	done
119.3	32	nearby
120.54	32	done
123.67	33	nearby
125.67	33	done
128.8	34	nearby
129.44	34	done
133.24	35	nearby
134.5	35	done
