6.01	0	done
13.44	1	nearby
15.9	1	done
22.27	2	nearby
35	2	done
36.57	3	nearby
37.37	3	done
38.64	4	nearby
39.8	4	done
41.04	5	nearby
41.9	5	done
42.8	6	nearby
44.44	6	done
44.54	7	nearby
45.27	7	done
46.54	8	nearby
47.64	8	done
48.37	9	nearby
49.67	9	done
50.2	10	nearby
50.87	10	done
51.8	11	nearby
53.34	11	done
54.3	12	nearby
55.2	12	done
57.74	13	nearby
57.94	13	done
60.67	14	nearby
60.9	14	done
62.34	15	nearby
62.87	15	done
63.97	16	nearby
65.17	16	done
66.1	17	nearby
66.97	17	done
68.14	18	nearby
68.4	18	done
69.67	19	nearby
70.94	19	done
71.6	20	nearby
73.04	20	done
73.54	21	nearby
74.2	21	done
75.3	22	nearby
75.67	22	done
76.87	23	nearby
78.27	23	done
79.07	24	nearby
79.4	24	done
83.47	25	nearby
83.67	25	done
86.87	26	nearby
88.17	26	done
92.7	27	nearby
93.64	27	done
97.74	28	nearby
98.04	28	done
108.37	29	nearby
109	29	done
111.74	30	nearby
112.7	30	done
117	31	nearby
117.94	31	done
121.4	32	nearby
121.9	32	done
124.77	33	nearby
125.24	33	done
128.37	34	nearby
130.8	34	done
133.9	35	nearby
134.94	35	done
