{
    "timestamp_waypoint": [
        15.64,
        25.67,
        28.37,
        30.84,
        33.67,
        34.97,
        37.47,
        39.3,
        41.17,
        42.87,
        44.57,
        46.1,
        50.5,
        53.07,
        55.07,
        56.94,
        58.74,
        60.4,
        61.94,
        63.33,
        65.07,
        67.04,
        70.64,
        73.87,
        79.7,
        85.84,
        90.3,
        97.5,
        108.67,
        112.54,
        116.37,
        122.04,
        128.54,
        133.44,
        140.64
    ],
    "timestamp_part": [
        15.64,
        73.87,
        97.5,
        108.67,
        140.64
    ],
    "startTime": 15.64,
    "endTime": 140.64
}