6.01	0	done
10.5	1	nearby
13.67	1	done
19.14	2	nearby
19.97	2	done
20.04	3	nearby
32.17	3	done
33.17	4	nearby
33.44	4	done
34.8	5	nearby
36.84	5	done
36.87	6	nearby
39	6	done
39.67	7	nearby
41	7	done
41.54	8	nearby
43.5	8	done
43.54	9	nearby
46.3	9	done
46.34	10	nearby
47.5	10	done
48.54	11	nearby
48.97	11	done
50.04	12	nearby
50.83	12	done
53	13	nearby
53.54	13	done
55.64	14	nearby
56.77	14	done
57.34	15	nearby
58.07	15	done
59	16	nearby
60.04	16	done
61.14	17	nearby
63.2	17	done
63.24	18	nearby
64.97	18	done
65.84	19	nearby
67.24	19	done
68.1	20	nearby
68.97	20	done
69.73	21	nearby
70.4	21	done
71.77	22	nearby
73	22	done
74.1	23	nearby
75.17	23	done
75.64	24	nearby
76.34	24	done
80.04	25	nearby
81.34	25	done
85.44	26	nearby
87.44	26	done
90.8	27	nearby
92	27	done
95.74	28	nearby
96.44	28	done
107.07	29	nearby
107.57	29	done
110.27	30	nearby
111.14	30	done
113.64	31	nearby
114.47	31	done
118.04	32	nearby
120.24	32	done
122.54	33	nearby
123.37	33	done
126.14	34	nearby
127	34	done
131.3	35	nearby
131.8	35	done
