6.01	0	done
15.97	1	nearby
17.64	1	done
21.04	2	nearby
21.7	2	done
23.04	3	nearby
25.1	3	done
26.6	4	nearby
29.57	4	done
30.64	5	nearby
33.7	5	done
33.74	6	nearby
36.97	6	done
37.17	7	nearby
39.57	7	done
40.7	8	nearby
40.94	8	done
42.67	9	nearby
44.24	9	done
44.3	10	nearby
46.57	10	done
46.6	11	nearby
49.2	11	done
49.54	12	nearby
50.49	12	done
53.17	13	nearby
55.14	13	done
56.5	14	nearby
57.14	14	done
58.37	15	nearby
58.8	15	done
60.3	16	nearby
61.84	16	done
62.64	17	nearby
64.34	17	done
64.54	18	nearby
65.84	18	done
66.6	19	nearby
67.04	19	done
68.34	20	nearby
69.54	20	done
70.34	21	nearby
71.8	21	done
72.27	22	nearby
72.67	22	done
74.34	23	nearby
75.1	23	done
75.8	24	nearby
76.17	24	done
79.94	25	nearby
80.37	25	done
86.77	26	nearby
86.77	26	done
90.07	27	nearby
92	27	done
95.64	28	nearby
97.14	28	done
107.64	29	nearby
108.87	29	done
111.17	30	nearby
112.94	30	done
115.9	31	nearby
116.24	31	done
119.57	32	nearby
121.14	32	done
124.4	33	nearby
125.8	33	done
128.17	34	nearby
129.57	34	done
133.17	35	nearby
136.9	35	done
