6.01	0	done
10.6	1	nearby
27.6	1	done
31.27	2	nearby
31.67	2	done
33.07	3	nearby
36.2	3	done
37.1	4	nearby
39.1	4	done
39.9	5	nearby
41.3	5	done
42.1	6	nearby
42.4	6	done
43.47	7	nearby
44.6	7	done
45.5	8	nearby
47.3	8	done
47.4	9	nearby
48.87	9	done
49.64	10	nearby
50.27	10	done
51.5	11	nearby
52.7	11	done
53.44	12	nearby
54.07	12	done
56.5	13	nearby
57.04	13	done
60.07	14	nearby
60.64	14	done
61.9	15	nearby
64.17	15	done
64.4	16	nearby
66.7	16	done
66.8	17	nearby
67.74	17	done
68.9	18	nearby
69.64	18	done
70.64	19	nearby
71.64	19	done
72.57	20	nearby
72.94	20	done
74.1	21	nearby
75.74	21	done
76.07	22	nearby
77.27	22	done
78.54	23	nearby
80.17	23	done
81.17	24	nearby
81.94	24	done
85.6	25	nearby
86.97	25	done
91.74	26	nearby
93.5	26	done
97.27	27	nearby
98.44	27	done
102.14	28	nearby
103.34	28	done
113.87	29	nearby
114.54	29	done
117.9	30	nearby
118.87	30	done
122.47	31	nearby
124.57	31	done
127.67	32	nearby
128.1	32	done
131.2	33	nearby
131.6	33	done
134.37	34	nearby
134.87	34	done
138.57	35	nearby
139.2	35	done
