{
    "timestamp_waypoint": [
        10.5,
        15.3,
        18.87,
        20.4,
        21.6,
        24.64,
        26.1,
        28.44,
        30.47,
        31.7,
        33.94,
        35.47,
        39.04,
        41.94,
        45.3,
        47.4,
        49.04,
        51.47,
        53.67,
        55.84,
        59.7,
        61.64,
        64.37,
        65.37,
        72.34,
        77.97,
        82.77,
        86.64,
        97.97,
        103.07,
        106.6,
        110.1,
        113.84,
        118.5,
        127.37
    ],
    "timestamp_part": [
        10.5,
        65.37,
        86.64,
        97.97,
        127.37
    ],
    "startTime": 10.5,
    "endTime": 127.37
}