6.01	0	done
15.64	1	nearby
16.74	1	done
21.67	2	nearby
21.74	2	done
21.77	3	nearby
22.94	3	done
24.34	4	nearby
26.5	4	done
26.54	5	nearby
28.34	5	done
28.44	6	nearby
30	6	done
30.04	7	nearby
31.47	7	done
31.8	8	nearby
33.57	8	done
33.6	9	nearby
35.17	9	done
35.24	10	nearby
36.97	10	done
37.07	11	nearby
39.37	11	done
40.34	12	nearby
41.3	12	done
43.17	13	nearby
43.9	13	done
45.2	14	nearby
46.3	14	done
46.77	15	nearby
48.3	15	done
48.74	16	nearby
49.4	16	done
49.94	17	nearby
50.6	17	done
51.67	18	nearby
52.44	18	done
53.4	19	nearby
53.77	19	done
54.7	20	nearby
55.97	20	done
57.04	21	nearby
57.2	21	done
57.3	22	nearby
58.87	22	done
59.64	23	nearby
64.4	23	done
65.67	24	nearby
67.07	24	done
69.9	25	nearby
70.24	25	done
75.94	26	nearby
75.94	26	done
79.04	27	nearby
79.17	27	done
82.5	28	nearby
82.74	28	done
91.07	29	nearby
91.37	29	done
94.14	30	nearby
94.64	30	done
97.54	31	nearby
97.67	31	done
100.17	32	nearby
101.54	32	done
103.94	33	nearby
104.84	33	done
108.37	34	nearby
108.37	34	done
111.47	35	nearby
