6.01	0	done
15.94	1	nearby
17.47	1	done
21.94	2	nearby
23.97	2	done
25.24	3	nearby
26.47	3	done
27.84	4	nearby
29.5	4	done
30.07	5	nearby
32.67	5	done
32.74	6	nearby
34.44	6	done
35.27	7	nearby
37.24	7	done
37.57	8	nearby
40.2	8	done
40.97	9	nearby
41.3	9	done
42.7	10	nearby
43.3	10	done
44.47	11	nearby
45.5	11	done
46.4	12	nearby
47.07	12	done
48.64	13	nearby
50.04	13	done
51.84	14	nearby
53.37	14	done
53.6	15	nearby
55.17	15	done
56.5	16	nearby
58.44	16	done
58.57	17	nearby
61.54	17	done
61.9	18	nearby
63	18	done
63.6	19	nearby
64.64	19	done
65.47	20	nearby
65.84	20	done
67.37	21	nearby
68.57	21	done
70.2	22	nearby
71.57	22	done
72.84	23	nearby
74.97	23	done
76.24	24	nearby
76.54	24	done
80.27	25	nearby
86.8	25	done
91.97	26	nearby
92.47	26	done
96.5	27	nearby
97.8	27	done
101.47	28	nearby
102.6	28	done
112.97	29	nearby
113.27	29	done
116.5	30	nearby
116.77	30	done
119.8	31	nearby
121.8	31	done
124.97	32	nearby
126.14	32	done
128.34	33	nearby
130.07	33	done
131.84	34	nearby
133	34	done
137.47	35	nearby
138.7	35	done
