6.01	0	done
7.57	1	nearby
7.94	1	done
11.1	2	nearby
12.3	2	done
12.57	3	nearby
13.3	3	done
14.29	4	nearby
15.14	4	done
15.77	5	nearby
16.24	5	done
17.1	6	nearby
17.74	6	done
19.04	7	nearby
19.3	7	done
20.17	8	nearby
20.4	8	done
21.5	9	nearby
21.84	9	done
22.8	10	nearby
22.97	10	done
24.04	11	nearby
24.34	11	done
26.14	12	nearby
26.34	12	done
27.87	13	nearby
29.04	13	done
30.3	14	nearby
31.24	14	done
32.6	15	nearby
33.97	15	done
34.74	16	nearby
34.94	16	done
36.1	17	nearby
37.4	17	done
38.8	18	nearby
39.24	18	done
40	19	nearby
40.44	19	done
41.37	20	nearby
42.84	20	done
42.94	21	nearby
43.8	21	done
44.94	22	nearby
45.3	22	done
46.4	23	nearby
46.8	23	done
47.54	24	nearby
48.3	24	done
50.8	25	nearby
51.37	25	done
54.17	26	nearby
55.04	26	done
57.5	27	nearby
58.8	27	done
61.6	28	nearby
64.77	28	done
73.8	29	nearby
74.3	29	done
76.5	30	nearby
78.07	30	done
79.87	31	nearby
80.24	31	done
82.4	32	nearby
82.94	32	done
85.2	33	nearby
86.54	33	done
88.67	34	nearby
90.04	34	done
92.44	35	nearby
94.34	35	done
