6.01	0	done
13.44	1	nearby
18.67	1	done
22.4	2	nearby
40.77	2	done
41.9	3	nearby
43.57	3	done
45.17	4	nearby
46.54	4	done
46.6	5	nearby
48.5	5	done
49.27	6	nearby
50.87	6	done
51.5	7	nearby
52.54	7	done
53.47	8	nearby
54.4	8	done
55.27	9	nearby
57.27	9	done
57.37	10	nearby
58.04	10	done
59.04	11	nearby
61.47	11	done
61.9	12	nearby
63.87	12	done
65.97	13	nearby
68.3	13	done
70.04	14	nearby
70.77	14	done
71.9	15	nearby
72.57	15	done
73.74	16	nearby
74.57	16	done
75.64	17	nearby
76.17	17	done
78.17	18	nearby
78.64	18	done
80.1	19	nearby
81.24	19	done
82.27	20	nearby
83.14	20	done
84.34	21	nearby
84.9	21	done
85.94	22	nearby
88.1	22	done
88.7	23	nearby
89	23	done
90.24	24	nearby
91	24	done
94.5	25	nearby
95	25	done
98.97	26	nearby
100.14	26	done
104.4	27	nearby
105.57	27	done
109.34	28	nearby
110.4	28	done
121.17	29	nearby
122.07	29	done
125.34	30	nearby
126.2	30	done
129.27	31	nearby
130.3	31	done
132.47	32	nearby
133.57	32	done
135.84	33	nearby
138.04	33	done
140.57	34	nearby
141.54	34	done
146.14	35	nearby
146.64	35	done
