6.01	0	done
14.6	1	nearby
27.07	1	done
31.94	2	nearby
32.64	2	done
34	3	nearby
44.14	3	done
44.7	4	nearby
48.04	4	done
49.14	5	nearby
50.27	5	done
52.14	6	nearby
53.1	6	done
54.3	7	nearby
55.24	7	done
56.27	8	nearby
56.74	8	done
57.87	9	nearby
58.54	9	done
59.44	10	nearby
61.4	10	done
62.64	11	nearby
64.6	11	done
66.67	12	nearby
67.34	12	done
71.57	13	nearby
72	13	done
74.37	14	nearby
75.04	14	done
76.27	15	nearby
76.94	15	done
79.07	16	nearby
82.27	16	done
84.47	17	nearby
86.37	17	done
88.2	18	nearby
89.14	18	done
90.44	19	nearby
91.24	19	done
92.47	20	nearby
93.14	20	done
94.07	21	nearby
94.87	21	done
95.84	22	nearby
96.24	22	done
97.2	23	nearby
99.2	23	done
99.24	24	nearby
99.6	24	done
102.34	25	nearby
106.17	25	done
110.34	26	nearby
111.94	26	done
117.27	27	nearby
120.6	27	done
124.47	28	nearby
125.7	28	done
138.04	29	nearby
143.2	29	done
146.9	30	nearby
147.67	30	done
150.34	31	nearby
150.94	31	done
153.47	32	nearby
154.34	32	done
157.37	33	nearby
158.87	33	done
161.6	34	nearby
162.54	34	done
165.47	35	nearby
166.57	35	done
