6.01	0	done
8.64	1	nearby
9.97	1	done
13.3	2	nearby
13.6	2	done
14.64	3	nearby
14.94	3	done
15.9	4	nearby
16.24	4	done
17.1	5	nearby
17.3	5	done
18.34	6	nearby
18.6	6	done
19.54	7	nearby
19.7	7	done
20.67	8	nearby
20.84	8	done
21.9	9	nearby
22.07	9	done
23.2	10	nearby
23.4	10	done
24.47	11	nearby
25.54	11	done
26.57	12	nearby
26.8	12	done
28.8	13	nearby
29.14	13	done
30.87	14	nearby
31.7	14	done
32.67	15	nearby
32.94	15	done
33.97	16	nearby
35.14	16	done
36.1	17	nearby
36.4	17	done
38	18	nearby
39	18	done
39.7	19	nearby
40.74	19	done
41.7	20	nearby
42.04	20	done
44.24	21	nearby
44.57	21	done
44.7	22	nearby
46.17	22	done
47.1	23	nearby
48.1	23	done
48.17	24	nearby
49.07	24	done
52.1	25	nearby
52.47	25	done
55.34	26	nearby
56.14	26	done
59.44	27	nearby
59.74	27	done
62.5	28	nearby
62.9	28	done
71.74	29	nearby
72.6	29	done
75.47	30	nearby
75.74	30	done
78	31	nearby
78.27	31	done
80.84	32	nearby
81.84	32	done
83.87	33	nearby
85	33	done
86.74	34	nearby
87.94	34	done
91.27	35	nearby
91.7	35	done
