{
    "timestamp_waypoint": [
        25.24,
        31.77,
        34.64,
        36.77,
        38.7,
        40.77,
        42.1,
        44.04,
        45.7,
        48.37,
        50.8,
        51.87,
        55.17,
        58.17,
        61.2,
        62.6,
        65.07,
        66.44,
        68.34,
        69.84,
        71.67,
        73.6,
        75.64,
        77.44,
        81.9,
        87.47,
        92.27,
        96.74,
        108.44,
        112.3,
        115.77,
        119.8,
        124.1,
        127.8,
        132.4
    ],
    "timestamp_part": [
        25.24,
        77.44,
        96.74,
        108.44,
        132.4
    ],
    "startTime": 25.24,
    "endTime": 132.4
}