6.01	0	done
15.77	1	nearby
17.5	1	done
20.9	2	nearby
22.8	2	done
22.94	3	nearby
27.57	3	done
28.77	4	nearby
30.4	4	done
31.57	5	nearby
32.24	5	done
33.44	6	nearby
33.87	6	done
35.24	7	nearby
36.97	7	done
37.24	8	nearby
38.04	8	done
38.97	9	nearby
40.14	9	done
41.04	10	nearby
42.54	10	done
42.74	11	nearby
44.34	11	done
44.7	12	nearby
46.34	12	done
47.97	13	nearby
49.1	13	done
51.17	14	nearby
53.57	14	done
54.3	15	nearby
55.24	15	done
56.17	16	nearby
57.7	16	done
58.34	17	nearby
58.97	17	done
60.34	18	nearby
60.87	18	done
62.2	19	nearby
63.3	19	done
64.67	20	nearby
65.5	20	done
66.64	21	nearby
67.54	21	done
68.5	22	nearby
69.7	22	done
70.84	23	nearby
73.17	23	done
73.24	24	nearby
75.07	24	done
79.87	25	nearby
80.2	25	done
84.87	26	nearby
85.44	26	done
89.17	27	nearby
90.87	27	done
94.5	28	nearby
96.5	28	done
107.07	29	nearby
108.57	29	done
110.87	30	nearby
111.14	30	done
114.47	31	nearby
114.8	31	done
118.5	32	nearby
121.34	32	done
124.44	33	nearby
124.87	33	done
128.54	34	nearby
130.3	34	done
133.54	35	nearby
135.07	35	done
