6.01	0	done
10.57	1	nearby
18.64	1	done
23.07	2	nearby
30.04	2	done
31.44	3	nearby
36	3	done
37.17	4	nearby
39.64	4	done
40.17	5	nearby
42.14	5	done
42.17	6	nearby
43	6	done
44.1	7	nearby
44.94	7	done
45.87	8	nearby
46.7	8	done
47.7	9	nearby
49.47	9	done
49.5	10	nearby
50.8	10	done
51.27	11	nearby
52.24	11	done
52.84	12	nearby
53.57	12	done
55.64	13	nearby
56.04	13	done
58.14	14	nearby
58.67	14	done
59.94	15	nearby
60.47	15	done
61.47	16	nearby
62.2	16	done
63.17	17	nearby
64.14	17	done
65.04	18	nearby
65.9	18	done
67.07	19	nearby
67.77	19	done
68.67	20	nearby
69.6	20	done
70.84	21	nearby
71.57	21	done
72.74	22	nearby
73.44	22	done
74.44	23	nearby
75.57	23	done
76.47	24	nearby
77.24	24	done
81.24	25	nearby
81.67	25	done
85.8	26	nearby
86.84	26	done
91.77	27	nearby
92.66	27	done
96.1	28	nearby
96.57	28	done
107.4	29	nearby
107.74	29	done
110.74	30	nearby
111.77	30	done
114.7	31	nearby
116.8	31	done
118.97	32	nearby
119.87	32	done
122.5	33	nearby
123.24	33	done
126.6	34	nearby
127.47	34	done
132.04	35	nearby
132.67	35	done
