6.01	0	done
8.8	1	nearby
9.04	1	done
12.17	2	nearby
13	2	done
13.54	3	nearby
13.94	3	done
15.44	4	nearby
16.8	4	done
17.17	5	nearby
17.97	5	done
18.84	6	nearby
19.1	6	done
19.94	7	nearby
21.24	7	done
21.64	8	nearby
22.14	8	done
23.1	9	nearby
24.47	9	done
25.2	10	nearby
25.47	10	done
26.47	11	nearby
26.67	11	done
27.67	12	nearby
28.04	12	done
30.04	13	nearby
30.24	13	done
32.4	14	nearby
33.1	14	done
33.87	15	nearby
34.4	15	done
35.17	16	nearby
36.44	16	done
36.8	17	nearby
38.47	17	done
38.7	18	nearby
39.4	18	done
40.37	19	nearby
40.84	19	done
41.84	20	nearby
42.14	20	done
43.1	21	nearby
44.3	21	done
44.6	22	nearby
45.74	22	done
50.67	23	nearby
51.27	23	done
52.17	24	nearby
52.64	24	done
55.74	25	nearby
55.87	25	done
58.57	26	nearby
59.9	26	done
62.87	27	nearby
64.74	27	done
67.9	28	nearby
68.67	28	done
77.57	29	nearby
78.74	29	done
80.74	30	nearby
82.2	30	done
84.64	31	nearby
85.7	31	done
87.9	32	nearby
88.57	32	done
90.54	33	nearby
92.14	33	done
94.67	34	nearby
95.37	34	done
97.97	35	nearby
98.9	35	done
