6.01	0	done
10.77	1	nearby
13.64	1	done
16.94	2	nearby
18.5	2	done
18.57	3	nearby
21	3	done
22.37	4	nearby
23.14	4	done
23.9	5	nearby
25.7	5	done
25.94	6	nearby
27.94	6	done
28.37	7	nearby
30.1	7	done
30.17	8	nearby
31.27	8	done
32.3	9	nearby
33.74	9	done
33.97	10	nearby
34.84	10	done
35.8	11	nearby
37.44	11	done
38.07	12	nearby
38.87	12	done
40.84	13	nearby
41.44	13	done
43.27	14	nearby
43.44	14	done
44.47	15	nearby
45.87	15	done
45.9	16	nearby
47.3	16	done
47.97	17	nearby
48.17	17	done
49.14	18	nearby
49.37	18	done
50.34	19	nearby
50.6	19	done
51.6	20	nearby
52.8	20	done
53.14	21	nearby
54.37	21	done
55.04	22	nearby
55.54	22	done
56.67	23	nearby
57.74	23	done
57.77	24	nearby
58.67	24	done
61.34	25	nearby
62.07	25	done
66.8	26	nearby
67.14	26	done
70.14	27	nearby
70.84	27	done
73.7	28	nearby
74.6	28	done
82.97	29	nearby
84.54	29	done
86.6	30	nearby
87.27	30	done
89.3	31	nearby
90.24	31	done
92.84	32	nearby
94.64	32	done
96.74	33	nearby
97.57	33	done
99.5	34	nearby
99.94	34	done
103.14	35	nearby
104.3	35	done
