6.01	0	done
11.87	1	nearby
19.04	1	done
22.9	2	nearby
26.04	2	done
26.64	3	nearby
29.2	3	done
30.54	4	nearby
32.07	4	done
32.34	5	nearby
34.64	5	done
34.67	6	nearby
36.17	6	done
37.14	7	nearby
38.84	7	done
40.27	8	nearby
41.54	8	done
42.44	9	nearby
42.9	9	done
44.2	10	nearby
44.7	10	done
45.87	11	nearby
46.9	11	done
47.64	12	nearby
48.27	12	done
50.54	13	nearby
51.07	13	done
53.5	14	nearby
54.24	14	done
55.6	15	nearby
56.4	15	done
57.37	16	nearby
58.2	16	done
59.17	17	nearby
59.47	17	done
60.74	18	nearby
61.47	18	done
62.7	19	nearby
63.47	19	done
64.47	20	nearby
65.47	20	done
66.87	21	nearby
67.57	21	done
68.94	22	nearby
69.84	22	done
71.2	23	nearby
73.04	23	done
73.1	24	nearby
75.47	24	done
78.94	25	nearby
79.87	25	done
83.8	26	nearby
84.6	26	done
88.5	27	nearby
89.17	27	done
93.67	28	nearby
94.9	28	done
107.04	29	nearby
107.64	29	done
110.14	30	nearby
111.6	30	done
114	31	nearby
114.74	31	done
118.37	32	nearby
119.6	32	done
121.8	33	nearby
122.9	33	done
126.17	34	nearby
126.67	34	done
131	35	nearby
131.5	35	done
