{
    "timestamp_waypoint": [
        42.17,
        48.0,
        50.8,
        53.44,
        57.07,
        59.57,
        61.9,
        64.3,
        65.27,
        67.54,
        69.77,
        71.47,
        73.74,
        76.0,
        78.3,
        80.54,
        82.34,
        84.57,
        85.97,
        88.0,
        89.64,
        91.64,
        94.14,
        95.5,
        99.57,
        105.3,
        110.64,
        114.8,
        127.07,
        132.0,
        135.17,
        138.24,
        141.74,
        146.07,
        150.9
    ],
    "timestamp_part": [
        42.17,
        95.5,
        114.8,
        127.07,
        150.9
    ],
    "startTime": 42.17,
    "endTime": 150.9
}