6.01	0	done
14.27	1	nearby
25.67	1	done
29.34	2	nearby
31.94	2	done
32.6	3	nearby
34.27	3	done
35.34	4	nearby
39.34	4	done
41.04	5	nearby
41.7	5	done
42.84	6	nearby
43.84	6	done
44.9	7	nearby
45.94	7	done
46.77	8	nearby
48.7	8	done
48.8	9	nearby
49.64	9	done
50.54	10	nearby
51.67	10	done
52.34	11	nearby
53.37	11	done
54.57	12	nearby
56.57	12	done
58.2	13	nearby
59.07	13	done
61.27	14	nearby
62.37	14	done
63.24	15	nearby
63.8	15	done
64.84	16	nearby
66.74	16	done
67.24	17	nearby
67.77	17	done
68.84	18	nearby
69.84	18	done
70.57	19	nearby
71.84	19	done
72.7	20	nearby
73.07	20	done
74.37	21	nearby
75.34	21	done
76.3	22	nearby
77.84	22	done
79.2	23	nearby
80.7	23	done
81.3	24	nearby
81.97	24	done
85.4	25	nearby
86.14	25	done
90.07	26	nearby
91.97	26	done
96.1	27	nearby
96.64	27	done
100.5	28	nearby
101.34	28	done
111.37	29	nearby
112.2	29	done
115.3	30	nearby
115.74	30	done
118.77	31	nearby
119.17	31	done
122.47	32	nearby
123.5	32	done
126.34	33	nearby
127.17	33	done
130.24	34	nearby
132.37	34	done
135.8	35	nearby
136.17	35	done
