{
    "timestamp_waypoint": [
        16.9,
        23.27,
        27.4,
        28.84,
        31.4,
        33.2,
        35.77,
        37.74,
        40.8,
        42.37,
        44.94,
        46.37,
        50.47,
        53.07,
        54.9,
        56.7,
        58.37,
        60.67,
        62.3,
        63.97,
        65.97,
        68.6,
        71.6,
        72.8,
        77.5,
        82.87,
        87.24,
        92.5,
        104.3,
        108.1,
        112.84,
        117.3,
        122.44,
        126.24,
        130.74
    ],
    "timestamp_part": [
        16.9,
        72.8,
        92.5,
        104.3,
        130.74
    ],
    "startTime": 16.9,
    "endTime": 130.74
}