6.01	0	done
13.24	1	nearby
14.37	1	done
18	2	nearby
19.03	2	done
21.44	3	nearby
24.14	3	done
25.34	4	nearby
27.1	4	done
27.14	5	nearby
30.14	5	done
30.17	6	nearby
33.3	6	done
33.47	7	nearby
34.84	7	done
35.9	8	nearby
36.87	8	done
38.04	9	nearby
39.07	9	done
40.14	10	nearby
41.27	10	done
41.9	11	nearby
43.87	11	done
43.94	12	nearby
45.37	12	done
47.64	13	nearby
48.34	13	done
50.3	14	nearby
50.87	14	done
52.17	15	nearby
54.9	15	done
55.27	16	nearby
56.74	16	done
57.74	17	nearby
58.1	17	done
59.27	18	nearby
61.3	18	done
61.7	19	nearby
63.24	19	done
63.67	20	nearby
66.14	20	done
66.34	21	nearby
67.34	21	done
68.3	22	nearby
68.97	22	done
69.9	23	nearby
70.77	23	done
71.57	24	nearby
72.14	24	done
75.04	25	nearby
76.47	25	done
81.1	26	nearby
82.9	26	done
86.24	27	nearby
89.54	27	done
93.4	28	nearby
95	28	done
105.87	29	nearby
106.74	29	done
109.37	30	nearby
111.14	30	done
113.97	31	nearby
115.1	31	done
117.84	32	nearby
119.27	32	done
122.27	33	nearby
123.6	33	done
126.67	34	nearby
127.9	34	done
131.97	35	nearby
132.14	35	done
