6.01	0	done
13.84	1	nearby
16.37	1	done
18.84	2	nearby
19	2	done
20.1	3	nearby
20.4	3	done
21.64	4	nearby
23.04	4	done
23.14	5	nearby
25.47	5	done
25.57	6	nearby
27.44	6	done
27.94	7	nearby
28.6	7	done
29.4	8	nearby
30.8	8	done
30.84	9	nearby
32.37	9	done
32.5	10	nearby
33.9	10	done
34	11	nearby
36.3	11	done
36.4	12	nearby
37.54	12	done
39.27	13	nearby
39.9	13	done
41.87	14	nearby
42.6	14	done
43.5	15	nearby
44	15	done
44.83	16	nearby
45.14	16	done
46.14	17	nearby
46.44	17	done
47.4	18	nearby
47.84	18	done
48.57	19	nearby
49.6	19	done
50.44	20	nearby
50.8	20	done
51.44	21	nearby
52.57	21	done
52.9	22	nearby
53.67	22	done
54.5	23	nearby
56.47	23	done
56.5	24	nearby
57.77	24	done
60.6	25	nearby
62.97	25	done
66.94	26	nearby
68.57	26	done
71.44	27	nearby
72.07	27	done
74.7	28	nearby
74.87	28	done
83.27	29	nearby
84.34	29	done
86.9	30	nearby
88.17	30	done
92	31	nearby
92.37	31	done
95.67	32	nearby
96.87	32	done
99.04	33	nearby
101.04	33	done
103.24	34	nearby
104.17	34	done
106.8	35	nearby
110.14	35	done
