{
    "timestamp_waypoint": [
        14.64,
        20.07,
        23.34,
        26.97,
        30.3,
        31.67,
        35.1,
        36.77,
        40.24,
        41.57,
        43.67,
        46.0,
        49.0,
        54.54,
        56.44,
        58.47,
        60.54,
        62.14,
        63.87,
        66.0,
        67.74,
        69.6,
        71.67,
        73.14,
        79.34,
        85.07,
        89.94,
        94.97,
        106.74,
        110.04,
        114.84,
        119.7,
        123.34,
        126.74,
        132.0
    ],
    "timestamp_part": [
        14.64,
        73.14,
        94.97,
        106.74,
        132.0
    ],
    "startTime": 14.64,
    "endTime": 132.0
}