6.14	0	done
10.12	1	nearby
11.52	1	done
14.88	2	nearby
15.38	2	done
16.52	3	nearby
17.48	3	done
18.88	4	nearby
20.78	4	done
20.82	5	nearby
22.58	5	done
23.42	6	nearby
24.05	6	done
25.05	7	nearby
26.05	7	done
27.22	8	nearby
28.02	8	done
29.12	9	nearby
29.85	9	done
31.15	10	nearby
31.78	10	done
32.78	11	nearby
33.68	11	done
34.88	12	nearby
35.52	12	done
38.22	13	nearby
39.38	13	done
42.48	14	nearby
43.65	14	done
45.42	15	nearby
46.05	15	done
47.08	16	nearby
47.92	16	done
49.15	17	nearby
50.58	17	done
51.38	18	nearby
52.18	18	done
52.85	19	nearby
53.22	19	done
54.25	20	nearby
55.08	20	done
56.35	21	nearby
56.85	21	done
58.05	22	nearby
60.35	22	done
61.38	23	nearby
62.65	23	done
62.75	24	nearby
63.22	24	done
67.22	25	nearby
67.95	25	done
71.98	26	nearby
73.95	26	done
78.18	27	nearby
79.25	27	done
83.35	28	nearby
84.15	28	done
94.68	29	nearby
95.08	29	done
99.18	30	nearby
100.18	30	done
102.05	31	nearby
103.08	31	done
105.22	32	nearby
106.32	32	done
109.32	33	nearby
110.05	33	done
112.82	34	nearby
113.38	34	done
117.08	35	nearby
120.08	35	done
