6.01	0	done
7.64	1	nearby
7.84	1	done
11.64	2	nearby
12.84	2	done
14	3	nearby
16.57	3	done
17.77	4	nearby
17.94	4	done
18.87	5	nearby
19.9	5	done
21.14	6	nearby
21.37	6	done
22.6	7	nearby
23.57	7	done
24.87	8	nearby
25.37	8	done
26.3	9	nearby
27.24	9	done
28.14	10	nearby
29.67	10	done
30.3	11	nearby
30.94	11	done
32.24	12	nearby
32.97	12	done
35.54	13	nearby
37.14	13	done
39.4	14	nearby
40.44	14	done
41.84	15	nearby
42.97	15	done
43.97	16	nearby
44.3	16	done
45.44	17	nearby
46.37	17	done
47.54	18	nearby
47.8	18	done
48.9	19	nearby
50.27	19	done
50.9	20	nearby
51.47	20	done
52.64	21	nearby
53.67	21	done
54.84	22	nearby
56.84	22	done
57.67	23	nearby
57.87	23	done
58.84	24	nearby
59.4	24	done
63.2	25	nearby
64.8	25	done
68.7	26	nearby
69.84	26	done
73.94	27	nearby
74.9	27	done
79.37	28	nearby
79.97	28	done
90.6	29	nearby
90.97	29	done
94.47	30	nearby
95.44	30	done
98.37	31	nearby
99.3	31	done
102.67	32	nearby
104.97	32	done
107.44	33	nearby
109.27	33	done
111.5	34	nearby
112.5	34	done
116.9	35	nearby
117.5	35	done
