6.01	0	done
12.8	1	nearby
14.2	1	done
17.74	2	nearby
30	2	done
31	3	nearby
33.04	3	done
34.17	4	nearby
34.66	4	done
35.9	5	nearby
38.27	5	done
41.34	6	nearby
48.77	6	done
51.04	7	nearby
52.14	7	done
53.4	8	nearby
55.2	8	done
55.64	9	nearby
56.27	9	done
57.27	10	nearby
57.87	10	done
59	11	nearby
63.17	11	done
64.24	12	nearby
65	12	done
67.2	13	nearby
67.7	13	done
69.74	14	nearby
75.97	14	done
76.24	15	nearby
77.47	15	done
79.4	16	nearby
79.77	16	done
80.94	17	nearby
81.87	17	done
82.54	18	nearby
83.17	18	done
83.64	19	nearby
83.97	19	done
84.54	20	nearby
84.87	20	done
85.44	21	nearby
86.04	21	done
86.47	22	nearby
86.77	22	done
87.97	23	nearby
89.87	23	done
89.9	24	nearby
90.84	24	done
94.67	25	nearby
95.5	25	done
107.97	26	nearby
109.14	26	done
113.24	27	nearby
114.54	27	done
118.47	28	nearby
119.5	28	done
128.44	29	nearby
128.67	29	done
130.5	30	nearby
131.2	30	done
133.74	31	nearby
133.74	31	done
135.77	32	nearby
135.94	32	done
138.5	33	nearby
139.4	33	done
141.6	34	nearby
142.5	34	done
158.47	35	nearby
159.34	35	done
