6.01	0	done
11.17	1	nearby
19.1	1	done
23.67	2	nearby
24.24	2	done
25.44	3	nearby
27.94	3	done
29.34	4	nearby
31.94	4	done
32.1	5	nearby
34.5	5	done
34.77	6	nearby
35.44	6	done
36.74	7	nearby
39.27	7	done
39.97	8	nearby
41.1	8	done
42.07	9	nearby
43.1	9	done
43.77	10	nearby
44.74	10	done
45.27	11	nearby
46.44	11	done
47.54	12	nearby
48.04	12	done
50.24	13	nearby
50.84	13	done
53.17	14	nearby
53.94	14	done
55.07	15	nearby
55.54	15	done
56.6	16	nearby
57.3	16	done
58.47	17	nearby
59.2	17	done
60.17	18	nearby
61.3	18	done
62.14	19	nearby
62.64	19	done
63.94	20	nearby
65.8	20	done
66.2	21	nearby
67.5	21	done
68.3	22	nearby
68.77	22	done
69.94	23	nearby
71.64	23	done
72.2	24	nearby
72.57	24	done
76.07	25	nearby
79.87	25	done
84.14	26	nearby
85.77	26	done
89.47	27	nearby
89.87	27	done
93.37	28	nearby
93.57	28	done
104.47	29	nearby
105.54	29	done
108.47	30	nearby
109.04	30	done
111.74	31	nearby
112.3	31	done
115.8	32	nearby
116.44	32	done
119.37	33	nearby
119.64	33	done
122.57	34	nearby
123.7	34	done
127.34	35	nearby
128.74	35	done
