6.01	0	done
11.27	1	nearby
16.84	1	done
19.47	2	nearby
20.47	2	done
20.74	3	nearby
21.77	3	done
22.64	4	nearby
23.24	4	done
24.24	5	nearby
24.7	5	done
25.7	6	nearby
27.37	6	done
27.7	7	nearby
29.47	7	done
29.54	8	nearby
31.54	8	done
31.94	9	nearby
33.74	9	done
34.04	10	nearby
35.07	10	done
36.2	11	nearby
37.77	11	done
38.3	12	nearby
39.04	12	done
40.94	13	nearby
41.3	13	done
43	14	nearby
43.4	14	done
44.4	15	nearby
45.27	15	done
45.84	16	nearby
46.57	16	done
47.17	17	nearby
47.6	17	done
48.34	18	nearby
49.14	18	done
49.87	19	nearby
50.1	19	done
51.04	20	nearby
51.47	20	done
52.4	21	nearby
52.74	21	done
54.1	22	nearby
54.77	22	done
55.8	23	nearby
57.94	23	done
58.97	24	nearby
59.67	24	done
62.24	25	nearby
63.07	25	done
67.7	26	nearby
67.7	26	done
71.2	27	nearby
71.64	27	done
74.4	28	nearby
75.74	28	done
84.24	29	nearby
84.77	29	done
87.2	30	nearby
88.94	30	done
91.34	31	nearby
92.8	31	done
94.87	32	nearby
96.07	32	done
98.74	33	nearby
98.84	33	done
101.67	34	nearby
102.67	34	done
105.3	35	nearby
107.64	35	done
