6.01	0	done
13.67	1	nearby
21.14	1	done
25.07	2	nearby
27.87	2	done
29.67	3	nearby
31.27	3	done
32.27	4	nearby
33.7	4	done
34.64	5	nearby
36.1	5	done
36.34	6	nearby
38.1	6	done
38.77	7	nearby
40.84	7	done
40.87	8	nearby
42.24	8	done
43.1	9	nearby
43.57	9	done
44.97	10	nearby
45.67	10	done
46.64	11	nearby
47.47	11	done
48.24	12	nearby
49.04	12	done
51.24	13	nearby
53.14	13	done
55.24	14	nearby
55.67	14	done
56.84	15	nearby
57.8	15	done
59.14	16	nearby
59.9	16	done
60.87	17	nearby
61.5	17	done
62.47	18	nearby
63.04	18	done
64.04	19	nearby
64.97	19	done
66.14	20	nearby
67.87	20	done
67.97	21	nearby
68.74	21	done
69.9	22	nearby
71	22	done
72.07	23	nearby
73.24	23	done
73.87	24	nearby
75.44	24	done
78.97	25	nearby
79.6	25	done
83.6	26	nearby
85.8	26	done
89.3	27	nearby
91.04	27	done
94.64	28	nearby
95.5	28	done
106.54	29	nearby
107.54	29	done
110.8	30	nearby
111.17	30	done
113.57	31	nearby
114.74	31	done
117.74	32	nearby
121.9	32	done
124.44	33	nearby
126.94	33	done
129.5	34	nearby
131.94	34	done
135.4	35	nearby
135.8	35	done
