6.01	0	done
11.37	1	nearby
15.14	1	done
19.8	2	nearby
31.34	2	done
32.54	3	nearby
33.47	3	done
34.87	4	nearby
35.67	4	done
36.57	5	nearby
39.6	5	done
39.84	6	nearby
41.04	6	done
42.07	7	nearby
43.94	7	done
44.17	8	nearby
44.94	8	done
45.8	9	nearby
47.6	9	done
47.64	10	nearby
50	10	done
50.04	11	nearby
50.97	11	done
52.2	12	nearby
53.2	12	done
55.44	13	nearby
56.47	13	done
58.7	14	nearby
58.97	14	done
60.24	15	nearby
60.84	15	done
61.94	16	nearby
65.8	16	done
66.5	17	nearby
66.97	17	done
68.2	18	nearby
69.07	18	done
70.3	19	nearby
71.14	19	done
72	20	nearby
72.8	20	done
73.6	21	nearby
74.5	21	done
75.1	22	nearby
75.7	22	done
76.8	23	nearby
78.84	23	done
79.5	24	nearby
81.24	24	done
83.54	25	nearby
84.47	25	done
89.04	26	nearby
90.4	26	done
94.44	27	nearby
96.07	27	done
99.67	28	nearby
100.7	28	done
110.37	29	nearby
111.17	29	done
114.37	30	nearby
117.2	30	done
120.77	31	nearby
121.64	31	done
124.44	32	nearby
126.4	32	done
129.74	33	nearby
131.04	33	done
133.84	34	nearby
135.7	34	done
138.3	35	nearby
142.14	35	done
