6.01	0	done
13.34	1	nearby
13.47	1	done
17.27	2	nearby
17.74	2	done
18.77	3	nearby
19.1	3	done
20.27	4	nearby
23.1	4	done
24.4	5	nearby
25.87	5	done
26.9	6	nearby
27.54	6	done
28.47	7	nearby
29.7	7	done
30.17	8	nearby
31.87	8	done
32.47	9	nearby
34.5	9	done
34.64	10	nearby
36.8	10	done
36.87	11	nearby
38.3	11	done
40.2	12	nearby
40.74	12	done
42.9	13	nearby
43.24	13	done
45.57	14	nearby
45.8	14	done
47.04	15	nearby
48.2	15	done
48.8	16	nearby
50.87	16	done
51.37	17	nearby
52.84	17	done
53.67	18	nearby
55.14	18	done
55.94	19	nearby
57.67	19	done
57.77	20	nearby
58.94	20	done
60.1	21	nearby
60.97	21	done
61.84	22	nearby
62.57	22	done
63.6	23	nearby
65.07	23	done
65.77	24	nearby
66.14	24	done
69.9	25	nearby
70.24	25	done
74.5	26	nearby
75.64	26	done
79.97	27	nearby
80.3	27	done
84.4	28	nearby
84.74	28	done
95.57	29	nearby
96.6	29	done
100.2	30	nearby
101.14	30	done
105.6	31	nearby
107.17	31	done
109.44	32	nearby
111.2	32	done
113.64	33	nearby
115.2	33	done
117.8	34	nearby
119.4	34	done
123.17	35	nearby
123.64	35	done
