{
    "timestamp_waypoint": [
        16.4,
        20.5,
        23.04,
        26.27,
        28.44,
        30.4,
        32.84,
        35.7,
        38.54,
        41.27,
        43.67,
        45.04,
        47.7,
        50.5,
        53.37,
        55.14,
        58.0,
        58.8,
        63.57,
        66.5,
        68.3,
        69.97,
        72.24,
        72.94,
        77.54,
        84.04,
        89.3,
        94.34,
        106.9,
        110.24,
        115.5,
        119.97,
        124.04,
        128.34,
        132.74
    ],
    "timestamp_part": [
        16.4,
        72.94,
        94.34,
        106.9,
        132.74
    ],
    "startTime": 16.4,
    "endTime": 132.74
}