6.01	0	done
11.27	1	nearby
15.47	1	done
19.24	2	nearby
19.44	2	done
20.6	3	nearby
20.9	3	done
22.54	4	nearby
24.74	4	done
24.9	5	nearby
25.87	5	done
27.1	6	nearby
27.4	6	done
28.74	7	nearby
29.7	7	done
31.04	8	nearby
31.94	8	done
32.9	9	nearby
34.24	9	done
35.1	10	nearby
35.54	10	done
36.7	11	nearby
37.17	11	done
38.34	12	nearby
39.34	12	done
41.97	13	nearby
43.84	13	done
46.14	14	nearby
46.37	14	done
47.64	15	nearby
47.84	15	done
49.14	16	nearby
49.6	16	done
50.57	17	nearby
51.87	17	done
52.17	18	nearby
53.24	18	done
55.34	19	nearby
55.97	19	done
57.1	20	nearby
57.74	20	done
59.1	21	nearby
59.97	21	done
61.24	22	nearby
61.94	22	done
63	23	nearby
63.87	23	done
64.87	24	nearby
67.14	24	done
70.64	25	nearby
71.1	25	done
75.2	26	nearby
76.27	26	done
80.8	27	nearby
81.77	27	done
85.74	28	nearby
87.44	28	done
98.4	29	nearby
102.9	29	done
105.5	30	nearby
107.27	30	done
109.64	31	nearby
111.04	31	done
113.5	32	nearby
115.27	32	done
117.94	33	nearby
119.04	33	done
121.94	34	nearby
123.17	34	done
127.2	35	nearby
128.34	35	done
