6.01	0	done
12.07	1	nearby
12.34	1	done
15	2	nearby
16.24	2	done
16.37	3	nearby
17.34	3	done
19	4	nearby
19.94	4	done
20.1	5	nearby
22.97	5	done
23	6	nearby
24.57	6	done
25.5	7	nearby
25.7	7	done
26.84	8	nearby
28.4	8	done
28.44	9	nearby
29.87	9	done
29.94	10	nearby
32.4	10	done
32.47	11	nearby
33.67	11	done
34.74	12	nearby
35.2	12	done
36.7	13	nearby
37.64	13	done
39.9	14	nearby
40.57	14	done
41.44	15	nearby
41.6	15	done
42.57	16	nearby
42.9	16	done
43.87	17	nearby
44.17	17	done
45.27	18	nearby
45.57	18	done
46.6	19	nearby
46.87	19	done
47.9	20	nearby
48.1	20	done
49.3	21	nearby
49.44	21	done
50.4	22	nearby
50.97	22	done
52.17	23	nearby
53.37	23	done
53.6	24	nearby
54.3	24	done
57.07	25	nearby
57.6	25	done
61.67	26	nearby
61.9	26	done
65.3	27	nearby
66.3	27	done
69	28	nearby
69.1	28	done
78	29	nearby
78.87	29	done
82.3	30	nearby
82.54	30	done
86.84	31	nearby
86.84	31	done
89.47	32	nearby
89.47	32	done
92.04	33	nearby
92.3	33	done
95.34	34	nearby
96.14	34	done
98.84	35	nearby
100.1	35	done
