6.01	0	done
11.24	1	nearby
19.64	1	done
28.34	2	nearby
29.87	2	done
31.07	3	nearby
33.64	3	done
34.67	4	nearby
35.7	4	done
36.3	5	nearby
38.34	5	done
38.67	6	nearby
39.87	6	done
40.84	7	nearby
42.24	7	done
43.14	8	nearby
44.77	8	done
44.87	9	nearby
47.07	9	done
47.24	10	nearby
48.6	10	done
49.6	11	nearby
50.07	11	done
51.2	12	nearby
52.47	12	done
54.57	13	nearby
54.9	13	done
57.1	14	nearby
59.07	14	done
59.24	15	nearby
60.87	15	done
61.67	16	nearby
62.44	16	done
63.34	17	nearby
63.74	17	done
64.94	18	nearby
65.67	18	done
66.84	19	nearby
67.57	19	done
68.67	20	nearby
69.47	20	done
70.74	21	nearby
71.3	21	done
72.3	22	nearby
72.97	22	done
74.1	23	nearby
75.64	23	done
75.67	24	nearby
76.57	24	done
80.84	25	nearby
81.24	25	done
85.2	26	nearby
87.1	26	done
91	27	nearby
92.9	27	done
96.57	28	nearby
97.57	28	done
108.24	29	nearby
108.94	29	done
111.84	30	nearby
114.04	30	done
117.2	31	nearby
119.67	31	done
122.84	32	nearby
124.9	32	done
127.2	33	nearby
129.04	33	done
131.7	34	nearby
132.97	34	done
136.37	35	nearby
136.9	35	done
