{
    "timestamp_waypoint": [
        12.24,
        40.97,
        42.94,
        46.54,
        47.9,
        49.84,
        51.57,
        53.67,
        54.94,
        57.47,
        58.6,
        60.6,
        64.77,
        68.1,
        69.77,
        71.67,
        74.14,
        75.34,
        77.04,
        79.57,
        81.27,
        83.3,
        86.54,
        87.64,
        91.97,
        96.84,
        101.74,
        106.6,
        117.67,
        122.37,
        125.8,
        130.9,
        134.4,
        138.27,
        142.8
    ],
    "timestamp_part": [
        12.24,
        87.64,
        106.6,
        117.67,
        142.8
    ],
    "startTime": 12.24,
    "endTime": 142.8
}