6.01	0	done
6.8	1	nearby
12.44	1	done
16.94	2	nearby
17.14	2	done
18.3	3	nearby
18.64	3	done
19.8	4	nearby
20.14	4	done
21.8	5	nearby
22.14	5	done
23.3	6	nearby
24.34	6	done
25.64	7	nearby
26.14	7	done
27.04	8	nearby
28.04	8	done
29.3	9	nearby
30.6	9	done
30.77	10	nearby
31.87	10	done
33.04	11	nearby
33.97	11	done
35.27	12	nearby
35.6	12	done
37.97	13	nearby
39	13	done
41.6	14	nearby
42.97	14	done
43.8	15	nearby
44.34	15	done
45.34	16	nearby
47.34	16	done
47.64	17	nearby
48.64	17	done
49.57	18	nearby
50.17	18	done
51.6	19	nearby
51.97	19	done
53.07	20	nearby
54.2	20	done
55.34	21	nearby
56.07	21	done
57.04	22	nearby
59.34	22	done
59.9	23	nearby
60.4	23	done
61.6	24	nearby
62.04	24	done
65.8	25	nearby
66.7	25	done
70.84	26	nearby
72.9	26	done
76.8	27	nearby
78.27	27	done
82.07	28	nearby
82.44	28	done
92.37	29	nearby
93.47	29	done
96.04	30	nearby
97.2	30	done
99.84	31	nearby
101.94	31	done
104.6	32	nearby
106.94	32	done
109.24	33	nearby
109.47	33	done
112.84	34	nearby
114.34	34	done
118.07	35	nearby
119.3	35	done
