{
    "timestamp_waypoint": [
        20.4,
        26.07,
        30.2,
        31.9,
        37.3,
        41.24,
        44.1,
        45.94,
        47.7,
        49.14,
        51.74,
        53.1,
        57.77,
        62.34,
        63.9,
        65.57,
        67.54,
        69.27,
        71.2,
        73.34,
        74.87,
        77.77,
        80.27,
        81.77,
        86.84,
        91.94,
        97.0,
        101.54,
        112.84,
        116.94,
        121.24,
        126.47,
        130.07,
        134.47,
        138.44
    ],
    "timestamp_part": [
        20.4,
        81.77,
        101.54,
        112.84,
        138.44
    ],
    "startTime": 20.4,
    "endTime": 138.44
}