6.01	0	done
15.47	1	nearby
30.57	1	done
35	2	nearby
35.4	2	done
36.57	3	nearby
38.87	3	done
40.07	4	nearby
41.94	4	done
42.07	5	nearby
43.8	5	done
44.84	6	nearby
45.44	6	done
46.4	7	nearby
47.2	7	done
47.84	8	nearby
48.87	8	done
49.54	9	nearby
51.84	9	done
51.87	10	nearby
53.57	10	done
54.54	11	nearby
56.24	11	done
57.2	12	nearby
57.94	12	done
59.97	13	nearby
60.6	13	done
62.67	14	nearby
63	14	done
63.97	15	nearby
64.27	15	done
65	16	nearby
65.3	16	done
66.24	17	nearby
66.47	17	done
67.34	18	nearby
67.54	18	done
68.5	19	nearby
69.54	19	done
69.67	20	nearby
70.17	20	done
70.87	21	nearby
71.14	21	done
72.07	22	nearby
72.3	22	done
73.9	23	nearby
75.14	23	done
75.17	24	nearby
76.47	24	done
79.9	25	nearby
80.64	25	done
84.87	26	nearby
86.9	26	done
92.17	27	nearby
94	27	done
99.04	28	nearby
100.2	28	done
111.37	29	nearby
112.67	29	done
115.87	30	nearby
117.9	30	done
121.1	31	nearby
121.54	31	done
124.77	32	nearby
125.87	32	done
128.9	33	nearby
130.04	33	done
132.74	34	nearby
134.94	34	done
138.47	35	nearby
139.4	35	done
