6.01	0	done
10.54	1	nearby
36.9	1	done
40.14	2	nearby
40.77	2	done
41.5	3	nearby
42.3	3	done
43.2	4	nearby
43.37	4	done
44.14	5	nearby
45.7	5	done
45.74	6	nearby
47.9	6	done
48.1	7	nearby
49.97	7	done
50.04	8	nearby
51.94	8	done
52.04	9	nearby
52.84	9	done
53.7	10	nearby
55.24	10	done
55.57	11	nearby
56.9	11	done
57.17	12	nearby
57.9	12	done
59.84	13	nearby
61.07	13	done
62.54	14	nearby
62.97	14	done
64.14	15	nearby
64.54	15	done
65.34	16	nearby
66.4	16	done
67.6	17	nearby
67.84	17	done
68.67	18	nearby
69.07	18	done
70.4	19	nearby
71.24	19	done
71.84	20	nearby
72.17	20	done
73.14	21	nearby
73.77	21	done
74.54	22	nearby
75	22	done
75.9	23	nearby
77.57	23	done
77.6	24	nearby
78.74	24	done
81.44	25	nearby
81.77	25	done
85.3	26	nearby
85.7	26	done
88.67	27	nearby
89.37	27	done
92.17	28	nearby
92.77	28	done
100.77	29	nearby
101.5	29	done
103.7	30	nearby
105	30	done
107.2	31	nearby
108.4	31	done
111.47	32	nearby
111.84	32	done
114.4	33	nearby
114.4	33	done
115.9	34	nearby
117.77	34	done
120.24	35	nearby
121.24	35	done
