{
    "timestamp_waypoint": [
        9.17,
        14.6,
        17.8,
        18.84,
        20.27,
        22.77,
        24.54,
        26.1,
        28.7,
        29.67,
        31.74,
        33.4,
        36.34,
        39.74,
        42.2,
        44.34,
        45.57,
        47.6,
        49.87,
        51.6,
        53.07,
        55.24,
        57.14,
        59.27,
        64.67,
        69.84,
        74.97,
        79.97,
        91.1,
        99.0,
        103.8,
        107.27,
        110.47,
        114.44,
        119.54
    ],
    "timestamp_part": [
        9.17,
        59.27,
        79.97,
        91.1,
        119.54
    ],
    "startTime": 9.17,
    "endTime": 119.54
}