6.01	0	done
8	1	nearby
8.7	1	done
12.04	2	nearby
13.5	2	done
13.54	3	nearby
14.47	3	done
15.57	4	nearby
15.77	4	done
16.7	5	nearby
17	5	done
17.94	6	nearby
18.94	6	done
19.34	7	nearby
20.77	7	done
20.8	8	nearby
21.8	8	done
22.97	9	nearby
23.14	9	done
24.2	10	nearby
25.37	10	done
25.64	11	nearby
26.64	11	done
27.5	12	nearby
27.74	12	done
29.7	13	nearby
30.1	13	done
31.67	14	nearby
32.34	14	done
33.37	15	nearby
33.64	15	done
34.67	16	nearby
35.04	16	done
36	17	nearby
36.8	17	done
37.97	18	nearby
39.07	18	done
39.77	19	nearby
39.97	19	done
41.07	20	nearby
42.3	20	done
42.4	21	nearby
43.54	21	done
44.4	22	nearby
44.57	22	done
45.64	23	nearby
45.97	23	done
46.8	24	nearby
46.97	24	done
49.47	25	nearby
50.34	25	done
53.64	26	nearby
54.6	26	done
57.74	27	nearby
58.44	27	done
60.9	28	nearby
62.07	28	done
70.57	29	nearby
71.5	29	done
73.87	30	nearby
74.77	30	done
77.54	31	nearby
78.14	31	done
80.27	32	nearby
80.64	32	done
83.37	33	nearby
84.17	33	done
87.04	34	nearby
87.64	34	done
90.1	35	nearby
90.2	35	done
