{
    "startTime": 29.74,
    "endTime": 144.94,
    "timestamp_waypoint": [
        29.74,
        41.14,
        43.77,
        45.6,
        48.1,
        50.1,
        53.0,
        55.34,
        57.74,
        60.47,
        61.94,
        63.87,
        66.47,
        69.87,
        71.7,
        73.2,
        75.14,
        77.84,
        79.0,
        81.64,
        83.1,
        85.07,
        87.74,
        89.27,
        93.47,
        98.4,
        103.1,
        111.2,
        122.14,
        126.57,
        130.2,
        133.2,
        136.67,
        140.07,
        144.94
    ],
    "timestamp_part": [
        29.74,
        89.27,
        111.2,
        122.14,
        144.94
    ]
}