6.01	0	done
10.94	1	nearby
12.3	1	done
16.57	2	nearby
17.07	2	done
18.24	3	nearby
19.97	3	done
21.17	4	nearby
22.9	4	done
23.84	5	nearby
24.4	5	done
25.9	6	nearby
26.74	6	done
27.54	7	nearby
29.87	7	done
29.9	8	nearby
33.07	8	done
33.74	9	nearby
34.9	9	done
36.34	10	nearby
38.34	10	done
39.17	11	nearby
40	11	done
40.9	12	nearby
41.84	12	done
44.14	13	nearby
44.5	13	done
46.7	14	nearby
49.24	14	done
49.54	15	nearby
50.37	15	done
51.54	16	nearby
52.67	16	done
53.67	17	nearby
54.34	17	done
55.67	18	nearby
56.5	18	done
57.77	19	nearby
58.74	19	done
59.8	20	nearby
61.04	20	done
61.94	21	nearby
63.54	21	done
64.34	22	nearby
65.27	22	done
66.37	23	nearby
68	23	done
68.5	24	nearby
69.87	24	done
73.24	25	nearby
75.64	25	done
79.64	26	nearby
80.87	26	done
84.5	27	nearby
86.27	27	done
89.47	28	nearby
90.54	28	done
101.5	29	nearby
102.47	29	done
105.64	30	nearby
106	30	done
108.77	31	nearby
109.27	31	done
111.67	32	nearby
112.57	32	done
115.34	33	nearby
118.24	33	done
121.14	34	nearby
121.84	34	done
125.47	35	nearby
127.24	35	done
