6.01	0	done
11.1	1	nearby
13	1	done
16.24	2	nearby
17.17	2	done
17.34	3	nearby
17.97	3	done
18.77	4	nearby
20.7	4	done
22.94	5	nearby
23.14	5	done
24.1	6	nearby
24.47	6	done
25.64	7	nearby
27.14	7	done
27.6	8	nearby
29.04	8	done
29.37	9	nearby
30.33	9	done
30.8	10	nearby
32.7	10	done
32.84	11	nearby
34.97	11	done
35.3	12	nearby
36	12	done
38.1	13	nearby
38.44	13	done
40.1	14	nearby
40.84	14	done
41.8	15	nearby
42.54	15	done
43.24	16	nearby
44.5	16	done
45.07	17	nearby
45.44	17	done
46.44	18	nearby
46.77	18	done
47.74	19	nearby
48.04	19	done
49.37	20	nearby
49.6	20	done
50.5	21	nearby
50.74	21	done
51.77	22	nearby
53.14	22	done
53.94	23	nearby
56.07	23	done
57.07	24	nearby
57.34	24	done
60	25	nearby
60.9	25	done
64.8	26	nearby
65.2	26	done
67.97	27	nearby
69.2	27	done
72.14	28	nearby
72.37	28	done
80.74	29	nearby
82.17	29	done
84.44	30	nearby
86.04	30	done
88.2	31	nearby
88.74	31	done
90.87	32	nearby
91.9	32	done
93.94	33	nearby
95.5	33	done
97.87	34	nearby
99.34	34	done
102	35	nearby
103	35	done
