6.01	0	done
8.64	1	nearby
10.77	1	done
15.4	2	nearby
16.97	2	done
17.04	3	nearby
18.8	3	done
19.97	4	nearby
21.07	4	done
21.9	5	nearby
22.7	5	done
23.97	6	nearby
25.97	6	done
26.5	7	nearby
27.34	7	done
28.3	8	nearby
29.17	8	done
30.17	9	nearby
30.77	9	done
31.77	10	nearby
32.64	10	done
33.87	11	nearby
34.64	11	done
35.54	12	nearby
36.57	12	done
38.87	13	nearby
39.84	13	done
42.07	14	nearby
42.57	14	done
43.77	15	nearby
44.17	15	done
45.24	16	nearby
47.04	16	done
47.54	17	nearby
48.1	17	done
49.17	18	nearby
50.1	18	done
51.24	19	nearby
53	19	done
53.7	20	nearby
55.47	20	done
56.14	21	nearby
56.47	21	done
57.57	22	nearby
58	22	done
58.97	23	nearby
59.27	23	done
61.3	24	nearby
62.4	24	done
66.2	25	nearby
67.6	25	done
72.24	26	nearby
72.67	26	done
77.4	27	nearby
78.9	27	done
82.1	28	nearby
83.1	28	done
94.07	29	nearby
94.37	29	done
97.7	30	nearby
99.4	30	done
101.97	31	nearby
105.44	31	done
107.64	32	nearby
109.04	32	done
111.97	33	nearby
113.87	33	done
116.47	34	nearby
119.17	34	done
123.54	35	nearby
124.04	35	done
