6.01	0	done
10.64	1	nearby
14.2	1	done
19.34	2	nearby
22.7	2	done
24.57	3	nearby
25.27	3	done
30.3	4	nearby
32.17	4	done
33.1	5	nearby
34	5	done
35.24	6	nearby
37.87	6	done
37.9	7	nearby
39.14	7	done
40.44	8	nearby
41.57	8	done
42.44	9	nearby
43.27	9	done
43.74	10	nearby
45.57	10	done
45.64	11	nearby
46.77	11	done
47.64	12	nearby
48.57	12	done
50.54	13	nearby
51.34	13	done
53.67	14	nearby
54.34	14	done
55.6	15	nearby
56.1	15	done
57.7	16	nearby
58.7	16	done
59.94	17	nearby
60.27	17	done
61.6	18	nearby
62.6	18	done
63.6	19	nearby
63.97	19	done
65.04	20	nearby
65.84	20	done
66.8	21	nearby
68.4	21	done
69.04	22	nearby
70.54	22	done
71.6	23	nearby
72.64	23	done
73.24	24	nearby
75.5	24	done
79.14	25	nearby
80.2	25	done
84.2	26	nearby
86.37	26	done
90.44	27	nearby
92.54	27	done
96.57	28	nearby
98.47	28	done
109.64	29	nearby
110.94	29	done
114.77	30	nearby
115.67	30	done
118.84	31	nearby
119.57	31	done
122.47	32	nearby
123.07	32	done
126.2	33	nearby
126.64	33	done
129.9	34	nearby
130.6	34	done
134.1	35	nearby
135	35	done
