{
    "timestamp_waypoint": [
        13.14,
        21.37,
        22.7,
        24.87,
        26.94,
        29.47,
        36.2,
        37.7,
        40.34,
        41.6,
        43.4,
        45.2,
        48.3,
        51.07,
        54.6,
        56.74,
        58.54,
        60.84,
        61.97,
        64.77,
        66.34,
        67.84,
        70.34,
        75.37,
        80.54,
        85.94,
        92.5,
        96.74,
        107.4,
        110.77,
        113.27,
        116.34,
        120.44,
        124.8,
        135.54
    ],
    "timestamp_part": [
        13.14,
        75.37,
        96.74,
        107.4,
        135.54
    ],
    "startTime": 13.14,
    "endTime": 135.54
}