{
    "timestamp_waypoint": [
        7.9,
        12.74,
        15.74,
        16.9,
        18.17,
        20.57,
        21.67,
        23.9,
        25.54,
        28.44,
        29.44,
        31.37,
        34.6,
        37.97,
        39.8,
        42.04,
        44.14,
        46.09,
        47.84,
        49.5,
        51.74,
        53.67,
        55.8,
        58.74,
        62.87,
        68.14,
        73.27,
        78.44,
        89.44,
        93.84,
        97.14,
        100.74,
        105.37,
        108.8,
        113.57
    ],
    "timestamp_part": [
        7.9,
        58.74,
        78.44,
        89.44,
        113.57
    ],
    "startTime": 7.9,
    "endTime": 113.57
}