ids:
         & 100      & 231      & 232      & 233      & 234      & 235      & 236      & 237     

payloadpose count:
         & 69270    & 69598    & 69150    & 69840    & 70266    & 69376    & 69942    & 70358   

payloadpose truth count:
         & 69270    & 69598    & 69150    & 69840    & 70266    & 69376    & 69942    & 70358   

yaw error >= 90 count:
         & 199      & 185      & 179      & 191      & 171      & 148      & 147      & 133     

yaw error >= 90 ratio:
         & 0.002873 & 0.002658 & 0.002589 & 0.002735 & 0.002434 & 0.002133 & 0.002102 & 0.001890

all estimation error mean:
x        &   0.0069 &   0.0069 &   0.0068 &   0.0070 &   0.0070 &   0.0070 &   0.0071 &   0.0074
y        &   0.0089 &   0.0088 &   0.0087 &   0.0088 &   0.0084 &   0.0082 &   0.0083 &   0.0084
z        &   0.0090 &   0.0089 &   0.0088 &   0.0089 &   0.0087 &   0.0085 &   0.0084 &   0.0084
$\phi$   &   0.9131 &   0.9186 &   0.9091 &   0.9158 &   0.9153 &   0.9118 &   0.9067 &   0.9261
$\theta$ &   0.9927 &   0.9963 &   0.9933 &   0.9880 &   0.9883 &   0.9833 &   0.9867 &   1.0504
$\psi$   &   0.7083 &   0.6808 &   0.6576 &   0.6935 &   0.6311 &   0.5848 &   0.5879 &   0.5953

all estimation error max:
x        &   0.9309 &   0.9211 &   0.9162 &   0.9252 &   0.9319 &   0.9631 &   0.9489 &   0.9360
y        &   0.9786 &   1.0086 &   0.9985 &   0.9780 &   1.0177 &   0.9959 &   0.9703 &   1.0289
z        &   0.8149 &   0.8605 &   0.8285 &   0.8265 &   0.8336 &   0.8188 &   0.8158 &   0.8081
$\phi$   &  13.7308 &  34.3499 &  15.0814 &  13.1349 &  13.4897 &  33.8261 &  12.4895 &  18.3721
$\theta$ &  11.6820 &  27.9933 &  15.4700 &  14.0805 &  12.1950 &  32.9618 &  14.9476 &  18.3390
$\psi$   & 181.0010 & 180.8915 & 181.1409 & 181.1827 & 181.7286 & 180.5955 & 180.5331 & 180.5332

99% estimation error mean:
x        &   0.0064 &   0.0064 &   0.0063 &   0.0064 &   0.0064 &   0.0064 &   0.0065 &   0.0068
y        &   0.0068 &   0.0068 &   0.0067 &   0.0068 &   0.0068 &   0.0068 &   0.0068 &   0.0070
z        &   0.0069 &   0.0069 &   0.0069 &   0.0069 &   0.0069 &   0.0069 &   0.0069 &   0.0069
$\phi$   &   0.9046 &   0.9071 &   0.9025 &   0.9067 &   0.9090 &   0.9035 &   0.9006 &   0.9122
$\theta$ &   0.9804 &   0.9791 &   0.9829 &   0.9732 &   0.9779 &   0.9706 &   0.9734 &   1.0176
$\psi$   &   0.1823 &   0.1796 &   0.1825 &   0.1818 &   0.1843 &   0.1912 &   0.1963 &   0.2162

99% estimation error max:
x        &   0.0397 &   0.0421 &   0.0436 &   0.0501 &   0.0438 &   0.0448 &   0.0687 &   0.1432
y        &   0.0559 &   0.1005 &   0.0516 &   0.0530 &   0.0597 &   0.0965 &   0.0535 &   0.0966
z        &   0.1069 &   0.0740 &   0.0562 &   0.0519 &   0.0595 &   0.0492 &   0.0549 &   0.0778
$\phi$   &  12.3501 &  12.2463 &   7.2043 &   7.2032 &   8.6399 &   6.2292 &   7.3313 &  12.2664
$\theta$ &  11.6820 &  10.7049 &   6.3179 &   6.9090 &   8.1882 &   7.2217 &   7.7596 &  13.9339
$\psi$   &   1.0710 &   1.0919 &   1.1178 &   1.0349 &   1.0822 &   1.1250 &   1.2272 &   1.8920

payload pitch:
mean     &   1.9509 &   1.9650 &   1.9692 &   2.0552 &   2.2505 &   2.6157 &   3.2325 &   3.8469
max      &  15.8492 &  12.9822 &  13.7768 &  12.3601 &  12.5487 &  22.0186 &  23.3380 &  32.1883

swing angle:
mean     &   1.7464 &   1.7159 &   1.6574 &   1.8113 &   1.9604 &   2.3882 &   2.8760 &   3.3802
max      &  22.3369 &  24.6634 &  11.9256 &  24.0022 &  12.7571 &  16.0699 &  19.7681 &  28.8284

swing angle 2:
mean     &   3.2926 &   3.2774 &   3.2379 &   3.3742 &   3.5597 &   4.0809 &   4.6478 &   5.4379
max      &  30.2940 &  35.2567 &  23.6514 &  34.2321 &  23.9310 &  30.1679 &  23.4556 &  28.8946

spend time:
mean     & 115.4170 & 115.9610 & 115.2150 & 116.3660 & 117.0770 & 115.5940 & 116.5390 & 117.2300
max      & 128.9000 & 130.5600 & 136.5000 & 124.9700 & 124.9000 & 123.1000 & 127.0000 & 126.2300

trajectory deviation:
mean     &   0.0557 &   0.0545 &   0.0547 &   0.0598 &   0.0584 &   0.0661 &   0.0732 &   0.0794
max      &   0.2953 &   0.3681 &   0.2440 &   0.3696 &   0.3031 &   0.3323 &   0.4347 &   0.4193

trajectory deviation 2d:
mean     &   0.0362 &   0.0365 &   0.0364 &   0.0417 &   0.0421 &   0.0480 &   0.0573 &   0.0613
max      &   0.2950 &   0.3681 &   0.2440 &   0.3696 &   0.3031 &   0.3323 &   0.4345 &   0.4183

