{
    "timestamp_waypoint": [
        10.54,
        16.34,
        18.94,
        20.2,
        21.54,
        23.97,
        26.2,
        27.64,
        29.74,
        31.4,
        33.0,
        35.27,
        38.64,
        41.5,
        43.54,
        44.9,
        47.07,
        49.2,
        51.34,
        53.24,
        55.3,
        56.97,
        58.37,
        60.34,
        65.1,
        69.94,
        75.04,
        80.04,
        90.94,
        94.67,
        98.1,
        101.7,
        105.77,
        109.3,
        113.17
    ],
    "timestamp_part": [
        10.54,
        60.34,
        80.04,
        90.94,
        113.17
    ],
    "startTime": 10.54,
    "endTime": 113.17
}