{
    "timestamp_waypoint": [
        13.74,
        21.2,
        22.5,
        25.7,
        27.07,
        29.2,
        31.54,
        33.54,
        35.94,
        37.97,
        40.54,
        42.04,
        44.84,
        47.74,
        49.5,
        51.4,
        52.8,
        54.37,
        57.07,
        58.54,
        60.5,
        61.8,
        64.57,
        65.54,
        70.0,
        76.24,
        83.1,
        88.14,
        101.64,
        106.5,
        110.17,
        114.04,
        119.67,
        123.3,
        128.07
    ],
    "timestamp_part": [
        13.74,
        65.54,
        88.14,
        101.64,
        128.07
    ],
    "startTime": 13.74,
    "endTime": 128.07
}