6.01	0	done
14.17	1	nearby
26.84	1	done
38.84	2	nearby
50.9	2	done
52.44	3	nearby
54.3	3	done
55.64	4	nearby
57.5	4	done
57.74	5	nearby
62.1	5	done
63.27	6	nearby
64.97	6	done
65.27	7	nearby
66.97	7	done
67.17	8	nearby
68.94	8	done
69.37	9	nearby
70.24	9	done
71	10	nearby
72.3	10	done
73.1	11	nearby
75.24	11	done
75.27	12	nearby
76.2	12	done
78.67	13	nearby
79.64	13	done
81.9	14	nearby
82.57	14	done
83.6	15	nearby
84.3	15	done
85.27	16	nearby
86.44	16	done
87.4	17	nearby
87.9	17	done
89.2	18	nearby
90.54	18	done
91.4	19	nearby
92.34	19	done
93.44	20	nearby
94.1	20	done
95.24	21	nearby
96.04	21	done
96.77	22	nearby
97.6	22	done
98.64	23	nearby
100.54	23	done
101	24	nearby
102.07	24	done
105.6	25	nearby
106.67	25	done
111.3	26	nearby
113.1	26	done
116.77	27	nearby
117.34	27	done
121.84	28	nearby
122.37	28	done
132.9	29	nearby
133.47	29	done
136.1	30	nearby
136.64	30	done
139.67	31	nearby
140.57	31	done
142.97	32	nearby
143.64	32	done
146.57	33	nearby
147.37	33	done
150.37	34	nearby
151	34	done
155.1	35	nearby
155.74	35	done
